%!PS-Adobe-3.0 EPSF-3.0
%%Title: Frequency Spectrum Electronics Noise Spectrum.eps
%%Creator: matplotlib version 2.1.2, http://matplotlib.org/
%%CreationDate: Sat Mar 17 13:26:44 2018
%%Orientation: portrait
%%BoundingBox: -342 -252 954 1044
%%EndComments
%%BeginProlog
/mpldict 10 dict def
mpldict begin
/m { moveto } bind def
/l { lineto } bind def
/r { rlineto } bind def
/c { curveto } bind def
/cl { closepath } bind def
/box {
m
1 index 0 r
0 exch r
neg 0 r
cl
} bind def
/clipbox {
box
clip
newpath
} bind def
%!PS-Adobe-3.0 Resource-Font
%%Title: DejaVu Sans
%%Copyright: Copyright (c) 2003 by Bitstream, Inc. All Rights Reserved. Copyright (c) 2006 by Tavmjong Bah. All Rights Reserved. DejaVu changes are in public domain 
%%Creator: Converted from TrueType to type 3 by PPR
25 dict begin
/_d{bind def}bind def
/_m{moveto}_d
/_l{lineto}_d
/_cl{closepath eofill}_d
/_c{curveto}_d
/_sc{7 -1 roll{setcachedevice}{pop pop pop pop pop pop}ifelse}_d
/_e{exec}_d
/FontName /DejaVuSans def
/PaintType 0 def
/FontMatrix[.001 0 0 .001 0 0]def
/FontBBox[-1021 -463 1793 1232]def
/FontType 3 def
/Encoding [ /space /slash /zero /one /two /three /four /six /eight /A /B /C /E /F /G /I /J /L /M /N /P /S /T /W /bracketleft /bracketright /a /b /c /d /e /f /g /h /i /l /n /o /p /q /r /s /t /u /v /w /x /y /minus ] def
/FontInfo 10 dict dup begin
/FamilyName (DejaVu Sans) def
/FullName (DejaVu Sans) def
/Notice (Copyright (c) 2003 by Bitstream, Inc. All Rights Reserved. Copyright (c) 2006 by Tavmjong Bah. All Rights Reserved. DejaVu changes are in public domain ) def
/Weight (Book) def
/Version (Version 2.35) def
/ItalicAngle 0.0 def
/isFixedPitch false def
/UnderlinePosition -130 def
/UnderlineThickness 90 def
end readonly def
/CharStrings 50 dict dup begin
/.notdef 0 def
/space{318 0 0 0 0 0 _sc
}_d
/slash{337 0 0 -92 337 729 _sc
254 729 _m
337 729 _l
83 -92 _l
0 -92 _l
254 729 _l
_cl}_d
/zero{636 0 66 -13 570 742 _sc
318 664 _m
267 664 229 639 203 589 _c
177 539 165 464 165 364 _c
165 264 177 189 203 139 _c
229 89 267 64 318 64 _c
369 64 407 89 433 139 _c
458 189 471 264 471 364 _c
471 464 458 539 433 589 _c
407 639 369 664 318 664 _c
318 742 _m
399 742 461 709 505 645 _c
548 580 570 486 570 364 _c
570 241 548 147 505 83 _c
461 19 399 -13 318 -13 _c
236 -13 173 19 130 83 _c
87 147 66 241 66 364 _c
66 486 87 580 130 645 _c
173 709 236 742 318 742 _c
_cl}_d
/one{636 0 110 0 544 729 _sc
124 83 _m
285 83 _l
285 639 _l
110 604 _l
110 694 _l
284 729 _l
383 729 _l
383 83 _l
544 83 _l
544 0 _l
124 0 _l
124 83 _l
_cl}_d
/two{{636 0 73 0 536 742 _sc
192 83 _m
536 83 _l
536 0 _l
73 0 _l
73 83 _l
110 121 161 173 226 239 _c
290 304 331 346 348 365 _c
380 400 402 430 414 455 _c
426 479 433 504 433 528 _c
433 566 419 598 392 622 _c
365 646 330 659 286 659 _c
255 659 222 653 188 643 _c
154 632 117 616 78 594 _c
78 694 _l
118 710 155 722 189 730 _c
223 738 255 742 284 742 _c
}_e{359 742 419 723 464 685 _c
509 647 532 597 532 534 _c
532 504 526 475 515 449 _c
504 422 484 390 454 354 _c
446 344 420 317 376 272 _c
332 227 271 164 192 83 _c
_cl}_e}_d
/three{{636 0 76 -13 556 742 _sc
406 393 _m
453 383 490 362 516 330 _c
542 298 556 258 556 212 _c
556 140 531 84 482 45 _c
432 6 362 -13 271 -13 _c
240 -13 208 -10 176 -4 _c
144 1 110 10 76 22 _c
76 117 _l
103 101 133 89 166 81 _c
198 73 232 69 268 69 _c
330 69 377 81 409 105 _c
441 129 458 165 458 212 _c
458 254 443 288 413 312 _c
383 336 341 349 287 349 _c
}_e{202 349 _l
202 430 _l
291 430 _l
339 430 376 439 402 459 _c
428 478 441 506 441 543 _c
441 580 427 609 401 629 _c
374 649 336 659 287 659 _c
260 659 231 656 200 650 _c
169 644 135 635 98 623 _c
98 711 _l
135 721 170 729 203 734 _c
235 739 266 742 296 742 _c
370 742 429 725 473 691 _c
517 657 539 611 539 553 _c
539 513 527 479 504 451 _c
481 423 448 403 406 393 _c
_cl}_e}_d
/four{636 0 49 0 580 729 _sc
378 643 _m
129 254 _l
378 254 _l
378 643 _l
352 729 _m
476 729 _l
476 254 _l
580 254 _l
580 172 _l
476 172 _l
476 0 _l
378 0 _l
378 172 _l
49 172 _l
49 267 _l
352 729 _l
_cl}_d
/six{{636 0 70 -13 573 742 _sc
330 404 _m
286 404 251 388 225 358 _c
199 328 186 286 186 234 _c
186 181 199 139 225 109 _c
251 79 286 64 330 64 _c
374 64 409 79 435 109 _c
461 139 474 181 474 234 _c
474 286 461 328 435 358 _c
409 388 374 404 330 404 _c
526 713 _m
526 623 _l
501 635 476 644 451 650 _c
425 656 400 659 376 659 _c
310 659 260 637 226 593 _c
}_e{192 549 172 482 168 394 _c
187 422 211 444 240 459 _c
269 474 301 482 336 482 _c
409 482 467 459 509 415 _c
551 371 573 310 573 234 _c
573 159 550 99 506 54 _c
462 9 403 -13 330 -13 _c
246 -13 181 19 137 83 _c
92 147 70 241 70 364 _c
70 479 97 571 152 639 _c
206 707 280 742 372 742 _c
396 742 421 739 447 735 _c
472 730 498 723 526 713 _c
_cl}_e}_d
/eight{{636 0 68 -13 568 742 _sc
318 346 _m
271 346 234 333 207 308 _c
180 283 167 249 167 205 _c
167 161 180 126 207 101 _c
234 76 271 64 318 64 _c
364 64 401 76 428 102 _c
455 127 469 161 469 205 _c
469 249 455 283 429 308 _c
402 333 365 346 318 346 _c
219 388 _m
177 398 144 418 120 447 _c
96 476 85 511 85 553 _c
85 611 105 657 147 691 _c
188 725 245 742 318 742 _c
}_e{390 742 447 725 489 691 _c
530 657 551 611 551 553 _c
551 511 539 476 515 447 _c
491 418 459 398 417 388 _c
464 377 501 355 528 323 _c
554 291 568 251 568 205 _c
568 134 546 80 503 43 _c
459 5 398 -13 318 -13 _c
237 -13 175 5 132 43 _c
89 80 68 134 68 205 _c
68 251 81 291 108 323 _c
134 355 171 377 219 388 _c
183 544 _m
183 506 194 476 218 455 _c
}_e{242 434 275 424 318 424 _c
360 424 393 434 417 455 _c
441 476 453 506 453 544 _c
453 582 441 611 417 632 _c
393 653 360 664 318 664 _c
275 664 242 653 218 632 _c
194 611 183 582 183 544 _c
_cl}_e}_d
/A{684 0 8 0 676 729 _sc
342 632 _m
208 269 _l
476 269 _l
342 632 _l
286 729 _m
398 729 _l
676 0 _l
573 0 _l
507 187 _l
178 187 _l
112 0 _l
8 0 _l
286 729 _l
_cl}_d
/B{{686 0 98 0 615 729 _sc
197 348 _m
197 81 _l
355 81 _l
408 81 447 92 473 114 _c
498 136 511 169 511 215 _c
511 260 498 293 473 315 _c
447 337 408 348 355 348 _c
197 348 _l
197 648 _m
197 428 _l
343 428 _l
391 428 426 437 450 455 _c
474 473 486 500 486 538 _c
486 574 474 602 450 620 _c
426 638 391 648 343 648 _c
197 648 _l
98 729 _m
350 729 _l
}_e{425 729 483 713 524 682 _c
564 650 585 606 585 549 _c
585 504 574 468 553 442 _c
532 416 502 399 462 393 _c
510 382 548 360 575 327 _c
601 294 615 253 615 204 _c
615 138 592 88 548 53 _c
504 17 441 0 360 0 _c
98 0 _l
98 729 _l
_cl}_e}_d
/C{{698 0 56 -13 644 742 _sc
644 673 _m
644 569 _l
610 599 575 622 537 638 _c
499 653 460 661 418 661 _c
334 661 270 635 226 584 _c
182 533 160 460 160 364 _c
160 268 182 194 226 143 _c
270 92 334 67 418 67 _c
460 67 499 74 537 90 _c
575 105 610 128 644 159 _c
644 56 _l
609 32 572 15 534 4 _c
496 -7 455 -13 412 -13 _c
302 -13 215 20 151 87 _c
}_e{87 154 56 246 56 364 _c
56 481 87 573 151 641 _c
215 708 302 742 412 742 _c
456 742 497 736 535 725 _c
573 713 610 696 644 673 _c
_cl}_e}_d
/E{632 0 98 0 568 729 _sc
98 729 _m
559 729 _l
559 646 _l
197 646 _l
197 430 _l
544 430 _l
544 347 _l
197 347 _l
197 83 _l
568 83 _l
568 0 _l
98 0 _l
98 729 _l
_cl}_d
/F{575 0 98 0 517 729 _sc
98 729 _m
517 729 _l
517 646 _l
197 646 _l
197 431 _l
486 431 _l
486 348 _l
197 348 _l
197 0 _l
98 0 _l
98 729 _l
_cl}_d
/G{{775 0 56 -13 693 742 _sc
595 104 _m
595 300 _l
434 300 _l
434 381 _l
693 381 _l
693 68 _l
655 40 613 20 567 7 _c
521 -6 472 -13 420 -13 _c
306 -13 216 20 152 86 _c
88 152 56 245 56 364 _c
56 482 88 575 152 642 _c
216 708 306 742 420 742 _c
467 742 512 736 555 724 _c
598 712 638 695 674 673 _c
674 568 _l
637 598 598 621 557 637 _c
516 653 473 661 428 661 _c
}_e{338 661 271 636 227 586 _c
182 536 160 462 160 364 _c
160 265 182 191 227 141 _c
271 91 338 67 428 67 _c
462 67 493 70 521 76 _c
549 82 573 91 595 104 _c
_cl}_e}_d
/I{295 0 98 0 197 729 _sc
98 729 _m
197 729 _l
197 0 _l
98 0 _l
98 729 _l
_cl}_d
/J{295 0 -51 -199 197 729 _sc
98 729 _m
197 729 _l
197 51 _l
197 -36 180 -99 147 -139 _c
113 -179 60 -199 -13 -199 _c
-51 -199 _l
-51 -116 _l
-20 -116 _l
22 -116 53 -103 71 -79 _c
89 -55 98 -11 98 51 _c
98 729 _l
_cl}_d
/L{557 0 98 0 552 729 _sc
98 729 _m
197 729 _l
197 83 _l
552 83 _l
552 0 _l
98 0 _l
98 729 _l
_cl}_d
/M{863 0 98 0 765 729 _sc
98 729 _m
245 729 _l
431 233 _l
618 729 _l
765 729 _l
765 0 _l
669 0 _l
669 640 _l
481 140 _l
382 140 _l
194 640 _l
194 0 _l
98 0 _l
98 729 _l
_cl}_d
/N{748 0 98 0 650 729 _sc
98 729 _m
231 729 _l
554 119 _l
554 729 _l
650 729 _l
650 0 _l
517 0 _l
194 610 _l
194 0 _l
98 0 _l
98 729 _l
_cl}_d
/P{603 0 98 0 569 729 _sc
197 648 _m
197 374 _l
321 374 _l
367 374 402 385 427 409 _c
452 433 465 467 465 511 _c
465 555 452 588 427 612 _c
402 636 367 648 321 648 _c
197 648 _l
98 729 _m
321 729 _l
402 729 464 710 506 673 _c
548 636 569 582 569 511 _c
569 439 548 384 506 348 _c
464 311 402 293 321 293 _c
197 293 _l
197 0 _l
98 0 _l
98 729 _l
_cl}_d
/S{{635 0 66 -13 579 742 _sc
535 705 _m
535 609 _l
497 627 462 640 429 649 _c
395 657 363 662 333 662 _c
279 662 237 651 208 631 _c
179 610 165 580 165 542 _c
165 510 174 485 194 469 _c
213 452 250 439 304 429 _c
364 417 _l
437 403 491 378 526 343 _c
561 307 579 260 579 201 _c
579 130 555 77 508 41 _c
460 5 391 -13 300 -13 _c
265 -13 228 -9 189 -2 _c
}_e{150 5 110 16 69 32 _c
69 134 _l
109 111 148 94 186 83 _c
224 71 262 66 300 66 _c
356 66 399 77 430 99 _c
460 121 476 152 476 194 _c
476 230 465 258 443 278 _c
421 298 385 313 335 323 _c
275 335 _l
201 349 148 372 115 404 _c
82 435 66 478 66 534 _c
66 598 88 649 134 686 _c
179 723 242 742 322 742 _c
356 742 390 739 426 733 _c
461 727 497 717 535 705 _c
}_e{_cl}_e}_d
/T{611 0 -2 0 614 729 _sc
-2 729 _m
614 729 _l
614 646 _l
355 646 _l
355 0 _l
256 0 _l
256 646 _l
-2 646 _l
-2 729 _l
_cl}_d
/W{989 0 33 0 956 729 _sc
33 729 _m
133 729 _l
286 113 _l
439 729 _l
550 729 _l
703 113 _l
856 729 _l
956 729 _l
773 0 _l
649 0 _l
495 633 _l
340 0 _l
216 0 _l
33 729 _l
_cl}_d
/bracketleft{390 0 86 -131 293 760 _sc
86 760 _m
293 760 _l
293 690 _l
176 690 _l
176 -61 _l
293 -61 _l
293 -131 _l
86 -131 _l
86 760 _l
_cl}_d
/bracketright{390 0 97 -131 304 760 _sc
304 760 _m
304 -131 _l
97 -131 _l
97 -61 _l
214 -61 _l
214 690 _l
97 690 _l
97 760 _l
304 760 _l
_cl}_d
/a{{613 0 60 -13 522 560 _sc
343 275 _m
270 275 220 266 192 250 _c
164 233 150 205 150 165 _c
150 133 160 107 181 89 _c
202 70 231 61 267 61 _c
317 61 357 78 387 114 _c
417 149 432 196 432 255 _c
432 275 _l
343 275 _l
522 312 _m
522 0 _l
432 0 _l
432 83 _l
411 49 385 25 355 10 _c
325 -5 287 -13 243 -13 _c
187 -13 142 2 109 33 _c
76 64 60 106 60 159 _c
}_e{60 220 80 266 122 298 _c
163 329 224 345 306 345 _c
432 345 _l
432 354 _l
432 395 418 427 391 450 _c
364 472 326 484 277 484 _c
245 484 215 480 185 472 _c
155 464 127 453 100 439 _c
100 522 _l
132 534 164 544 195 550 _c
226 556 256 560 286 560 _c
365 560 424 539 463 498 _c
502 457 522 395 522 312 _c
_cl}_e}_d
/b{{635 0 91 -13 580 760 _sc
487 273 _m
487 339 473 390 446 428 _c
418 466 381 485 334 485 _c
286 485 249 466 222 428 _c
194 390 181 339 181 273 _c
181 207 194 155 222 117 _c
249 79 286 61 334 61 _c
381 61 418 79 446 117 _c
473 155 487 207 487 273 _c
181 464 _m
199 496 223 520 252 536 _c
281 552 316 560 356 560 _c
422 560 476 533 518 481 _c
559 428 580 359 580 273 _c
}_e{580 187 559 117 518 65 _c
476 13 422 -13 356 -13 _c
316 -13 281 -5 252 10 _c
223 25 199 49 181 82 _c
181 0 _l
91 0 _l
91 760 _l
181 760 _l
181 464 _l
_cl}_e}_d
/c{{550 0 55 -13 488 560 _sc
488 526 _m
488 442 _l
462 456 437 466 411 473 _c
385 480 360 484 334 484 _c
276 484 230 465 198 428 _c
166 391 150 339 150 273 _c
150 206 166 154 198 117 _c
230 80 276 62 334 62 _c
360 62 385 65 411 72 _c
437 79 462 90 488 104 _c
488 21 _l
462 9 436 0 410 -5 _c
383 -10 354 -13 324 -13 _c
242 -13 176 12 128 64 _c
}_e{79 115 55 185 55 273 _c
55 362 79 432 128 483 _c
177 534 244 560 330 560 _c
358 560 385 557 411 551 _c
437 545 463 537 488 526 _c
_cl}_e}_d
/d{{635 0 55 -13 544 760 _sc
454 464 _m
454 760 _l
544 760 _l
544 0 _l
454 0 _l
454 82 _l
435 49 411 25 382 10 _c
353 -5 319 -13 279 -13 _c
213 -13 159 13 117 65 _c
75 117 55 187 55 273 _c
55 359 75 428 117 481 _c
159 533 213 560 279 560 _c
319 560 353 552 382 536 _c
411 520 435 496 454 464 _c
148 273 _m
148 207 161 155 188 117 _c
215 79 253 61 301 61 _c
}_e{348 61 385 79 413 117 _c
440 155 454 207 454 273 _c
454 339 440 390 413 428 _c
385 466 348 485 301 485 _c
253 485 215 466 188 428 _c
161 390 148 339 148 273 _c
_cl}_e}_d
/e{{615 0 55 -13 562 560 _sc
562 296 _m
562 252 _l
149 252 _l
153 190 171 142 205 110 _c
238 78 284 62 344 62 _c
378 62 412 66 444 74 _c
476 82 509 95 541 113 _c
541 28 _l
509 14 476 3 442 -3 _c
408 -9 373 -13 339 -13 _c
251 -13 182 12 131 62 _c
80 112 55 181 55 268 _c
55 357 79 428 127 481 _c
175 533 241 560 323 560 _c
397 560 455 536 498 489 _c
}_e{540 441 562 377 562 296 _c
472 322 _m
471 371 457 410 431 440 _c
404 469 368 484 324 484 _c
274 484 234 469 204 441 _c
174 413 156 373 152 322 _c
472 322 _l
_cl}_e}_d
/f{352 0 23 0 371 760 _sc
371 760 _m
371 685 _l
285 685 _l
253 685 230 678 218 665 _c
205 652 199 629 199 595 _c
199 547 _l
347 547 _l
347 477 _l
199 477 _l
199 0 _l
109 0 _l
109 477 _l
23 477 _l
23 547 _l
109 547 _l
109 585 _l
109 645 123 690 151 718 _c
179 746 224 760 286 760 _c
371 760 _l
_cl}_d
/g{{635 0 55 -207 544 560 _sc
454 280 _m
454 344 440 395 414 431 _c
387 467 349 485 301 485 _c
253 485 215 467 188 431 _c
161 395 148 344 148 280 _c
148 215 161 165 188 129 _c
215 93 253 75 301 75 _c
349 75 387 93 414 129 _c
440 165 454 215 454 280 _c
544 68 _m
544 -24 523 -93 482 -139 _c
440 -184 377 -207 292 -207 _c
260 -207 231 -204 203 -200 _c
175 -195 147 -188 121 -178 _c
}_e{121 -91 _l
147 -105 173 -115 199 -122 _c
225 -129 251 -133 278 -133 _c
336 -133 380 -117 410 -87 _c
439 -56 454 -10 454 52 _c
454 96 _l
435 64 411 40 382 24 _c
353 8 319 0 279 0 _c
211 0 157 25 116 76 _c
75 127 55 195 55 280 _c
55 364 75 432 116 483 _c
157 534 211 560 279 560 _c
319 560 353 552 382 536 _c
411 520 435 496 454 464 _c
454 547 _l
544 547 _l
}_e{544 68 _l
_cl}_e}_d
/h{634 0 91 0 549 760 _sc
549 330 _m
549 0 _l
459 0 _l
459 327 _l
459 379 448 417 428 443 _c
408 469 378 482 338 482 _c
289 482 251 466 223 435 _c
195 404 181 362 181 309 _c
181 0 _l
91 0 _l
91 760 _l
181 760 _l
181 462 _l
202 494 227 519 257 535 _c
286 551 320 560 358 560 _c
420 560 468 540 500 501 _c
532 462 549 405 549 330 _c
_cl}_d
/i{278 0 94 0 184 760 _sc
94 547 _m
184 547 _l
184 0 _l
94 0 _l
94 547 _l
94 760 _m
184 760 _l
184 646 _l
94 646 _l
94 760 _l
_cl}_d
/l{278 0 94 0 184 760 _sc
94 760 _m
184 760 _l
184 0 _l
94 0 _l
94 760 _l
_cl}_d
/n{634 0 91 0 549 560 _sc
549 330 _m
549 0 _l
459 0 _l
459 327 _l
459 379 448 417 428 443 _c
408 469 378 482 338 482 _c
289 482 251 466 223 435 _c
195 404 181 362 181 309 _c
181 0 _l
91 0 _l
91 547 _l
181 547 _l
181 462 _l
202 494 227 519 257 535 _c
286 551 320 560 358 560 _c
420 560 468 540 500 501 _c
532 462 549 405 549 330 _c
_cl}_d
/o{612 0 55 -13 557 560 _sc
306 484 _m
258 484 220 465 192 427 _c
164 389 150 338 150 273 _c
150 207 163 156 191 118 _c
219 80 257 62 306 62 _c
354 62 392 80 420 118 _c
448 156 462 207 462 273 _c
462 337 448 389 420 427 _c
392 465 354 484 306 484 _c
306 560 _m
384 560 445 534 490 484 _c
534 433 557 363 557 273 _c
557 183 534 113 490 63 _c
445 12 384 -13 306 -13 _c
227 -13 165 12 121 63 _c
77 113 55 183 55 273 _c
55 363 77 433 121 484 _c
165 534 227 560 306 560 _c
_cl}_d
/p{{635 0 91 -207 580 560 _sc
181 82 _m
181 -207 _l
91 -207 _l
91 547 _l
181 547 _l
181 464 _l
199 496 223 520 252 536 _c
281 552 316 560 356 560 _c
422 560 476 533 518 481 _c
559 428 580 359 580 273 _c
580 187 559 117 518 65 _c
476 13 422 -13 356 -13 _c
316 -13 281 -5 252 10 _c
223 25 199 49 181 82 _c
487 273 _m
487 339 473 390 446 428 _c
418 466 381 485 334 485 _c
}_e{286 485 249 466 222 428 _c
194 390 181 339 181 273 _c
181 207 194 155 222 117 _c
249 79 286 61 334 61 _c
381 61 418 79 446 117 _c
473 155 487 207 487 273 _c
_cl}_e}_d
/q{{635 0 55 -207 544 560 _sc
148 273 _m
148 207 161 155 188 117 _c
215 79 253 61 301 61 _c
348 61 385 79 413 117 _c
440 155 454 207 454 273 _c
454 339 440 390 413 428 _c
385 466 348 485 301 485 _c
253 485 215 466 188 428 _c
161 390 148 339 148 273 _c
454 82 _m
435 49 411 25 382 10 _c
353 -5 319 -13 279 -13 _c
213 -13 159 13 117 65 _c
75 117 55 187 55 273 _c
}_e{55 359 75 428 117 481 _c
159 533 213 560 279 560 _c
319 560 353 552 382 536 _c
411 520 435 496 454 464 _c
454 547 _l
544 547 _l
544 -207 _l
454 -207 _l
454 82 _l
_cl}_e}_d
/r{411 0 91 0 411 560 _sc
411 463 _m
401 469 390 473 378 476 _c
366 478 353 480 339 480 _c
288 480 249 463 222 430 _c
194 397 181 350 181 288 _c
181 0 _l
91 0 _l
91 547 _l
181 547 _l
181 462 _l
199 495 224 520 254 536 _c
284 552 321 560 365 560 _c
371 560 378 559 386 559 _c
393 558 401 557 411 555 _c
411 463 _l
_cl}_d
/s{{521 0 54 -13 472 560 _sc
443 531 _m
443 446 _l
417 458 391 468 364 475 _c
336 481 308 485 279 485 _c
234 485 200 478 178 464 _c
156 450 145 430 145 403 _c
145 382 153 366 169 354 _c
185 342 217 330 265 320 _c
296 313 _l
360 299 405 279 432 255 _c
458 230 472 195 472 151 _c
472 100 452 60 412 31 _c
372 1 316 -13 246 -13 _c
216 -13 186 -10 154 -5 _c
}_e{122 0 89 8 54 20 _c
54 113 _l
87 95 120 82 152 74 _c
184 65 216 61 248 61 _c
290 61 323 68 346 82 _c
368 96 380 117 380 144 _c
380 168 371 187 355 200 _c
339 213 303 226 247 238 _c
216 245 _l
160 257 119 275 95 299 _c
70 323 58 356 58 399 _c
58 450 76 490 112 518 _c
148 546 200 560 268 560 _c
301 560 332 557 362 552 _c
391 547 418 540 443 531 _c
}_e{_cl}_e}_d
/t{392 0 27 0 368 702 _sc
183 702 _m
183 547 _l
368 547 _l
368 477 _l
183 477 _l
183 180 _l
183 135 189 106 201 94 _c
213 81 238 75 276 75 _c
368 75 _l
368 0 _l
276 0 _l
206 0 158 13 132 39 _c
106 65 93 112 93 180 _c
93 477 _l
27 477 _l
27 547 _l
93 547 _l
93 702 _l
183 702 _l
_cl}_d
/u{634 0 85 -13 543 560 _sc
85 216 _m
85 547 _l
175 547 _l
175 219 _l
175 167 185 129 205 103 _c
225 77 255 64 296 64 _c
344 64 383 79 411 110 _c
439 141 453 183 453 237 _c
453 547 _l
543 547 _l
543 0 _l
453 0 _l
453 84 _l
431 50 405 26 377 10 _c
348 -5 315 -13 277 -13 _c
214 -13 166 6 134 45 _c
101 83 85 140 85 216 _c
311 560 _m
311 560 _l
_cl}_d
/v{592 0 30 0 562 547 _sc
30 547 _m
125 547 _l
296 88 _l
467 547 _l
562 547 _l
357 0 _l
235 0 _l
30 547 _l
_cl}_d
/w{818 0 42 0 776 547 _sc
42 547 _m
132 547 _l
244 120 _l
356 547 _l
462 547 _l
574 120 _l
686 547 _l
776 547 _l
633 0 _l
527 0 _l
409 448 _l
291 0 _l
185 0 _l
42 547 _l
_cl}_d
/x{592 0 29 0 559 547 _sc
549 547 _m
351 281 _l
559 0 _l
453 0 _l
294 215 _l
135 0 _l
29 0 _l
241 286 _l
47 547 _l
153 547 _l
298 352 _l
443 547 _l
549 547 _l
_cl}_d
/y{592 0 30 -207 562 547 _sc
322 -50 _m
296 -114 271 -157 247 -177 _c
223 -197 191 -207 151 -207 _c
79 -207 _l
79 -132 _l
132 -132 _l
156 -132 175 -126 189 -114 _c
203 -102 218 -75 235 -31 _c
251 9 _l
30 547 _l
125 547 _l
296 119 _l
467 547 _l
562 547 _l
322 -50 _l
_cl}_d
/minus{838 0 106 272 732 355 _sc
106 355 _m
732 355 _l
732 272 _l
106 272 _l
106 355 _l
_cl}_d
end readonly def

/BuildGlyph
 {exch begin
 CharStrings exch
 2 copy known not{pop /.notdef}if
 true 3 1 roll get exec
 end}_d

/BuildChar {
 1 index /Encoding get exch get
 1 index /BuildGlyph get exec
}_d

FontName currentdict end definefont pop
%!PS-Adobe-3.0 Resource-Font
%%Title: DejaVu Sans Oblique
%%Copyright: Copyright (c) 2003 by Bitstream, Inc. All Rights Reserved. Copyright (c) 2006 by Tavmjong Bah. All Rights Reserved. DejaVu changes are in public domain 
%%Creator: Converted from TrueType to type 3 by PPR
25 dict begin
/_d{bind def}bind def
/_m{moveto}_d
/_l{lineto}_d
/_cl{closepath eofill}_d
/_c{curveto}_d
/_sc{7 -1 roll{setcachedevice}{pop pop pop pop pop pop}ifelse}_d
/_e{exec}_d
/FontName /DejaVuSans-Oblique def
/PaintType 0 def
/FontMatrix[.001 0 0 .001 0 0]def
/FontBBox[-1016 -350 1659 1068]def
/FontType 3 def
/Encoding [ /H /z ] def
/FontInfo 10 dict dup begin
/FamilyName (DejaVu Sans) def
/FullName (DejaVu Sans Oblique) def
/Notice (Copyright (c) 2003 by Bitstream, Inc. All Rights Reserved. Copyright (c) 2006 by Tavmjong Bah. All Rights Reserved. DejaVu changes are in public domain ) def
/Weight (Oblique) def
/Version (Version 2.35) def
/ItalicAngle -11.0 def
/isFixedPitch false def
/UnderlinePosition -130 def
/UnderlineThickness 90 def
end readonly def
/CharStrings 3 dict dup begin
/.notdef 0 def
/H{752 0 27 0 725 729 _sc
169 729 _m
268 729 _l
210 430 _l
568 430 _l
626 729 _l
725 729 _l
583 0 _l
484 0 _l
552 347 _l
194 347 _l
126 0 _l
27 0 _l
169 729 _l
_cl}_d
/z{525 0 -2 0 543 547 _sc
116 547 _m
543 547 _l
527 465 _l
115 72 _l
455 72 _l
441 0 _l
-2 0 _l
13 82 _l
425 475 _l
102 475 _l
116 547 _l
_cl}_d
end readonly def

/BuildGlyph
 {exch begin
 CharStrings exch
 2 copy known not{pop /.notdef}if
 true 3 1 roll get exec
 end}_d

/BuildChar {
 1 index /Encoding get exch get
 1 index /BuildGlyph get exec
}_d

FontName currentdict end definefont pop
%!PS-Adobe-3.0 Resource-Font
%%Title: STIXSizeOneSym-Regular
%%Copyright: Copyright (c) 2001-2010 by the STI Pub Companies, consisting of the American Chemical Society, the American Institute of Physics, the American Mathematical Society, the American Physical Society, Elsevier, Inc., and The Institute of Electrical and Electronic Engineers, Inc. Portions copyright (c) 1998-2003 by MicroPress, Inc. Portions copyright (c) 1990 by Elsevier, Inc. All rights reserved.
%%Creator: Converted from TrueType to type 3 by PPR
25 dict begin
/_d{bind def}bind def
/_m{moveto}_d
/_l{lineto}_d
/_cl{closepath eofill}_d
/_c{curveto}_d
/_sc{7 -1 roll{setcachedevice}{pop pop pop pop pop pop}ifelse}_d
/_e{exec}_d
/FontName /STIXSizeOneSym-Regular def
/PaintType 0 def
/FontMatrix[.001 0 0 .001 0 0]def
/FontBBox[-1000 -363 1503 1566]def
/FontType 3 def
/Encoding [ /uni221A ] def
/FontInfo 10 dict dup begin
/FamilyName (STIXSizeOneSym) def
/FullName (STIXSizeOneSym-Regular) def
/Notice (Copyright (c) 2001-2010 by the STI Pub Companies, consisting of the American Chemical Society, the American Institute of Physics, the American Mathematical Society, the American Physical Society, Elsevier, Inc., and The Institute of Electrical and Electronic Engineers, Inc. Portions copyright (c) 1998-2003 by MicroPress, Inc. Portions copyright (c) 1990 by Elsevier, Inc. All rights reserved. STIX Fonts(TM) is a trademark of The Institute of Electrical and Electronics Engineers, Inc.) def
/Weight (Regular) def
/Version (Version 1.0.0) def
/ItalicAngle 0.0 def
/isFixedPitch false def
/UnderlinePosition -123 def
/UnderlineThickness 20 def
end readonly def
/CharStrings 2 dict dup begin
/.notdef 0 def
/uni221A{1057 0 112 -294 1089 1552 _sc
1089 1552 _m
527 -294 _l
485 -294 _l
254 456 _l
246 480 238 497 229 508 _c
219 518 207 524 192 524 _c
169 524 146 515 124 497 _c
112 517 _l
276 643 _l
301 643 _l
528 -93 _l
532 -93 _l
1032 1552 _l
1089 1552 _l
_cl}_d
end readonly def

/BuildGlyph
 {exch begin
 CharStrings exch
 2 copy known not{pop /.notdef}if
 true 3 1 roll get exec
 end}_d

/BuildChar {
 1 index /Encoding get exch get
 1 index /BuildGlyph get exec
}_d

FontName currentdict end definefont pop
end
%%EndProlog
mpldict begin
-342 -252 translate
1296 1296 0 0 clipbox
gsave
0 0 m
1296 0 l
1296 1296 l
0 1296 l
cl
1.000 setgray
fill
grestore
gsave
162 162 m
1166.4 162 l
1166.4 1140.48 l
162 1140.48 l
cl
1.000 setgray
fill
grestore
0.800 setlinewidth
1 setlinejoin
2 setlinecap
[] 0 setdash
0.690 setgray
gsave
1004 978.5 162 162 clipbox
207.654545 162 m
207.654545 1140.48 l
stroke
grestore
0 setlinecap
0.000 setgray
gsave
/o {
gsave
newpath
translate
0.8 setlinewidth
1 setlinejoin
0 setlinecap
0 0 m
0 -3.5 l

gsave
0.000 setgray
fill
grestore
stroke
grestore
} bind def
207.655 162 o
grestore
gsave
194.154545 143.125000 translate
0.000000 rotate
/DejaVuSans findfont
15.0 scalefont
setfont
0.000000 0.459375 moveto
/one glyphshow

9.543457 0.459375 moveto
/zero glyphshow

/DejaVuSans findfont
10.5 scalefont
setfont
19.230469 6.201563 moveto
/zero glyphshow


grestore
2 setlinecap
0.690 setgray
gsave
1004 978.5 162 162 clipbox
419.443232 162 m
419.443232 1140.48 l
stroke
grestore
0 setlinecap
0.000 setgray
gsave
/o {
gsave
newpath
translate
0.8 setlinewidth
1 setlinejoin
0 setlinecap
0 0 m
0 -3.5 l

gsave
0.000 setgray
fill
grestore
stroke
grestore
} bind def
419.443 162 o
grestore
gsave
405.943232 143.125000 translate
0.000000 rotate
/DejaVuSans findfont
15.0 scalefont
setfont
0.000000 0.601562 moveto
/one glyphshow

9.543457 0.601562 moveto
/zero glyphshow

/DejaVuSans findfont
10.5 scalefont
setfont
19.230469 6.343750 moveto
/one glyphshow


grestore
2 setlinecap
0.690 setgray
gsave
1004 978.5 162 162 clipbox
631.231919 162 m
631.231919 1140.48 l
stroke
grestore
0 setlinecap
0.000 setgray
gsave
/o {
gsave
newpath
translate
0.8 setlinewidth
1 setlinejoin
0 setlinecap
0 0 m
0 -3.5 l

gsave
0.000 setgray
fill
grestore
stroke
grestore
} bind def
631.232 162 o
grestore
gsave
617.731919 143.125000 translate
0.000000 rotate
/DejaVuSans findfont
15.0 scalefont
setfont
0.000000 0.459375 moveto
/one glyphshow

9.543457 0.459375 moveto
/zero glyphshow

/DejaVuSans findfont
10.5 scalefont
setfont
19.230469 6.201563 moveto
/two glyphshow


grestore
2 setlinecap
0.690 setgray
gsave
1004 978.5 162 162 clipbox
843.020606 162 m
843.020606 1140.48 l
stroke
grestore
0 setlinecap
0.000 setgray
gsave
/o {
gsave
newpath
translate
0.8 setlinewidth
1 setlinejoin
0 setlinecap
0 0 m
0 -3.5 l

gsave
0.000 setgray
fill
grestore
stroke
grestore
} bind def
843.021 162 o
grestore
gsave
829.520606 143.125000 translate
0.000000 rotate
/DejaVuSans findfont
15.0 scalefont
setfont
0.000000 0.459375 moveto
/one glyphshow

9.543457 0.459375 moveto
/zero glyphshow

/DejaVuSans findfont
10.5 scalefont
setfont
19.230469 6.201563 moveto
/three glyphshow


grestore
2 setlinecap
0.690 setgray
gsave
1004 978.5 162 162 clipbox
1054.809293 162 m
1054.809293 1140.48 l
stroke
grestore
0 setlinecap
0.000 setgray
gsave
/o {
gsave
newpath
translate
0.8 setlinewidth
1 setlinejoin
0 setlinecap
0 0 m
0 -3.5 l

gsave
0.000 setgray
fill
grestore
stroke
grestore
} bind def
1054.81 162 o
grestore
gsave
1041.309293 143.125000 translate
0.000000 rotate
/DejaVuSans findfont
15.0 scalefont
setfont
0.000000 0.601562 moveto
/one glyphshow

9.543457 0.601562 moveto
/zero glyphshow

/DejaVuSans findfont
10.5 scalefont
setfont
19.230469 6.343750 moveto
/four glyphshow


grestore
0.600 setlinewidth
gsave
/o {
gsave
newpath
translate
0.6 setlinewidth
1 setlinejoin
0 setlinecap
0 0 m
0 -2 l

gsave
0.000 setgray
fill
grestore
stroke
grestore
} bind def
174.848 162 o
grestore
gsave
/o {
gsave
newpath
translate
0.6 setlinewidth
1 setlinejoin
0 setlinecap
0 0 m
0 -2 l

gsave
0.000 setgray
fill
grestore
stroke
grestore
} bind def
187.13 162 o
grestore
gsave
/o {
gsave
newpath
translate
0.6 setlinewidth
1 setlinejoin
0 setlinecap
0 0 m
0 -2 l

gsave
0.000 setgray
fill
grestore
stroke
grestore
} bind def
197.964 162 o
grestore
gsave
/o {
gsave
newpath
translate
0.6 setlinewidth
1 setlinejoin
0 setlinecap
0 0 m
0 -2 l

gsave
0.000 setgray
fill
grestore
stroke
grestore
} bind def
271.409 162 o
grestore
gsave
/o {
gsave
newpath
translate
0.6 setlinewidth
1 setlinejoin
0 setlinecap
0 0 m
0 -2 l

gsave
0.000 setgray
fill
grestore
stroke
grestore
} bind def
308.703 162 o
grestore
gsave
/o {
gsave
newpath
translate
0.6 setlinewidth
1 setlinejoin
0 setlinecap
0 0 m
0 -2 l

gsave
0.000 setgray
fill
grestore
stroke
grestore
} bind def
335.164 162 o
grestore
gsave
/o {
gsave
newpath
translate
0.6 setlinewidth
1 setlinejoin
0 setlinecap
0 0 m
0 -2 l

gsave
0.000 setgray
fill
grestore
stroke
grestore
} bind def
355.688 162 o
grestore
gsave
/o {
gsave
newpath
translate
0.6 setlinewidth
1 setlinejoin
0 setlinecap
0 0 m
0 -2 l

gsave
0.000 setgray
fill
grestore
stroke
grestore
} bind def
372.458 162 o
grestore
gsave
/o {
gsave
newpath
translate
0.6 setlinewidth
1 setlinejoin
0 setlinecap
0 0 m
0 -2 l

gsave
0.000 setgray
fill
grestore
stroke
grestore
} bind def
386.637 162 o
grestore
gsave
/o {
gsave
newpath
translate
0.6 setlinewidth
1 setlinejoin
0 setlinecap
0 0 m
0 -2 l

gsave
0.000 setgray
fill
grestore
stroke
grestore
} bind def
398.919 162 o
grestore
gsave
/o {
gsave
newpath
translate
0.6 setlinewidth
1 setlinejoin
0 setlinecap
0 0 m
0 -2 l

gsave
0.000 setgray
fill
grestore
stroke
grestore
} bind def
409.752 162 o
grestore
gsave
/o {
gsave
newpath
translate
0.6 setlinewidth
1 setlinejoin
0 setlinecap
0 0 m
0 -2 l

gsave
0.000 setgray
fill
grestore
stroke
grestore
} bind def
483.198 162 o
grestore
gsave
/o {
gsave
newpath
translate
0.6 setlinewidth
1 setlinejoin
0 setlinecap
0 0 m
0 -2 l

gsave
0.000 setgray
fill
grestore
stroke
grestore
} bind def
520.492 162 o
grestore
gsave
/o {
gsave
newpath
translate
0.6 setlinewidth
1 setlinejoin
0 setlinecap
0 0 m
0 -2 l

gsave
0.000 setgray
fill
grestore
stroke
grestore
} bind def
546.953 162 o
grestore
gsave
/o {
gsave
newpath
translate
0.6 setlinewidth
1 setlinejoin
0 setlinecap
0 0 m
0 -2 l

gsave
0.000 setgray
fill
grestore
stroke
grestore
} bind def
567.477 162 o
grestore
gsave
/o {
gsave
newpath
translate
0.6 setlinewidth
1 setlinejoin
0 setlinecap
0 0 m
0 -2 l

gsave
0.000 setgray
fill
grestore
stroke
grestore
} bind def
584.247 162 o
grestore
gsave
/o {
gsave
newpath
translate
0.6 setlinewidth
1 setlinejoin
0 setlinecap
0 0 m
0 -2 l

gsave
0.000 setgray
fill
grestore
stroke
grestore
} bind def
598.425 162 o
grestore
gsave
/o {
gsave
newpath
translate
0.6 setlinewidth
1 setlinejoin
0 setlinecap
0 0 m
0 -2 l

gsave
0.000 setgray
fill
grestore
stroke
grestore
} bind def
610.707 162 o
grestore
gsave
/o {
gsave
newpath
translate
0.6 setlinewidth
1 setlinejoin
0 setlinecap
0 0 m
0 -2 l

gsave
0.000 setgray
fill
grestore
stroke
grestore
} bind def
621.541 162 o
grestore
gsave
/o {
gsave
newpath
translate
0.6 setlinewidth
1 setlinejoin
0 setlinecap
0 0 m
0 -2 l

gsave
0.000 setgray
fill
grestore
stroke
grestore
} bind def
694.987 162 o
grestore
gsave
/o {
gsave
newpath
translate
0.6 setlinewidth
1 setlinejoin
0 setlinecap
0 0 m
0 -2 l

gsave
0.000 setgray
fill
grestore
stroke
grestore
} bind def
732.281 162 o
grestore
gsave
/o {
gsave
newpath
translate
0.6 setlinewidth
1 setlinejoin
0 setlinecap
0 0 m
0 -2 l

gsave
0.000 setgray
fill
grestore
stroke
grestore
} bind def
758.741 162 o
grestore
gsave
/o {
gsave
newpath
translate
0.6 setlinewidth
1 setlinejoin
0 setlinecap
0 0 m
0 -2 l

gsave
0.000 setgray
fill
grestore
stroke
grestore
} bind def
779.266 162 o
grestore
gsave
/o {
gsave
newpath
translate
0.6 setlinewidth
1 setlinejoin
0 setlinecap
0 0 m
0 -2 l

gsave
0.000 setgray
fill
grestore
stroke
grestore
} bind def
796.036 162 o
grestore
gsave
/o {
gsave
newpath
translate
0.6 setlinewidth
1 setlinejoin
0 setlinecap
0 0 m
0 -2 l

gsave
0.000 setgray
fill
grestore
stroke
grestore
} bind def
810.214 162 o
grestore
gsave
/o {
gsave
newpath
translate
0.6 setlinewidth
1 setlinejoin
0 setlinecap
0 0 m
0 -2 l

gsave
0.000 setgray
fill
grestore
stroke
grestore
} bind def
822.496 162 o
grestore
gsave
/o {
gsave
newpath
translate
0.6 setlinewidth
1 setlinejoin
0 setlinecap
0 0 m
0 -2 l

gsave
0.000 setgray
fill
grestore
stroke
grestore
} bind def
833.33 162 o
grestore
gsave
/o {
gsave
newpath
translate
0.6 setlinewidth
1 setlinejoin
0 setlinecap
0 0 m
0 -2 l

gsave
0.000 setgray
fill
grestore
stroke
grestore
} bind def
906.775 162 o
grestore
gsave
/o {
gsave
newpath
translate
0.6 setlinewidth
1 setlinejoin
0 setlinecap
0 0 m
0 -2 l

gsave
0.000 setgray
fill
grestore
stroke
grestore
} bind def
944.069 162 o
grestore
gsave
/o {
gsave
newpath
translate
0.6 setlinewidth
1 setlinejoin
0 setlinecap
0 0 m
0 -2 l

gsave
0.000 setgray
fill
grestore
stroke
grestore
} bind def
970.53 162 o
grestore
gsave
/o {
gsave
newpath
translate
0.6 setlinewidth
1 setlinejoin
0 setlinecap
0 0 m
0 -2 l

gsave
0.000 setgray
fill
grestore
stroke
grestore
} bind def
991.055 162 o
grestore
gsave
/o {
gsave
newpath
translate
0.6 setlinewidth
1 setlinejoin
0 setlinecap
0 0 m
0 -2 l

gsave
0.000 setgray
fill
grestore
stroke
grestore
} bind def
1007.82 162 o
grestore
gsave
/o {
gsave
newpath
translate
0.6 setlinewidth
1 setlinejoin
0 setlinecap
0 0 m
0 -2 l

gsave
0.000 setgray
fill
grestore
stroke
grestore
} bind def
1022 162 o
grestore
gsave
/o {
gsave
newpath
translate
0.6 setlinewidth
1 setlinejoin
0 setlinecap
0 0 m
0 -2 l

gsave
0.000 setgray
fill
grestore
stroke
grestore
} bind def
1034.28 162 o
grestore
gsave
/o {
gsave
newpath
translate
0.6 setlinewidth
1 setlinejoin
0 setlinecap
0 0 m
0 -2 l

gsave
0.000 setgray
fill
grestore
stroke
grestore
} bind def
1045.12 162 o
grestore
gsave
/o {
gsave
newpath
translate
0.6 setlinewidth
1 setlinejoin
0 setlinecap
0 0 m
0 -2 l

gsave
0.000 setgray
fill
grestore
stroke
grestore
} bind def
1118.56 162 o
grestore
gsave
/o {
gsave
newpath
translate
0.6 setlinewidth
1 setlinejoin
0 setlinecap
0 0 m
0 -2 l

gsave
0.000 setgray
fill
grestore
stroke
grestore
} bind def
1155.86 162 o
grestore
/DejaVuSans findfont
15.000 scalefont
setfont
gsave
608.832813 124.609375 translate
0.000000 rotate
0.000000 0.000000 m /L glyphshow
8.356934 0.000000 m /o glyphshow
17.534180 0.000000 m /g glyphshow
27.055664 0.000000 m /space glyphshow
31.823730 0.000000 m /F glyphshow
40.436035 0.000000 m /r glyphshow
46.603027 0.000000 m /e glyphshow
55.831543 0.000000 m /q glyphshow
65.353027 0.000000 m /u glyphshow
74.859863 0.000000 m /e glyphshow
84.088379 0.000000 m /n glyphshow
93.595215 0.000000 m /c glyphshow
101.842285 0.000000 m /y glyphshow
grestore
0.800 setlinewidth
2 setlinecap
0.690 setgray
gsave
1004 978.5 162 162 clipbox
162 307.822665 m
1166.4 307.822665 l
stroke
grestore
0 setlinecap
0.000 setgray
gsave
/o {
gsave
newpath
translate
0.8 setlinewidth
1 setlinejoin
0 setlinecap
0 0 m
-3.5 0 l

gsave
0.000 setgray
fill
grestore
stroke
grestore
} bind def
162 307.823 o
grestore
gsave
113.000000 301.885165 translate
0.000000 rotate
/DejaVuSans findfont
15.0 scalefont
setfont
0.000000 0.459375 moveto
/one glyphshow

9.543457 0.459375 moveto
/zero glyphshow

/DejaVuSans findfont
10.5 scalefont
setfont
19.230469 6.201563 moveto
/minus glyphshow

28.028320 6.201563 moveto
/one glyphshow

34.708740 6.201563 moveto
/six glyphshow


grestore
2 setlinecap
0.690 setgray
gsave
1004 978.5 162 162 clipbox
162 491.775971 m
1166.4 491.775971 l
stroke
grestore
0 setlinecap
0.000 setgray
gsave
/o {
gsave
newpath
translate
0.8 setlinewidth
1 setlinejoin
0 setlinecap
0 0 m
-3.5 0 l

gsave
0.000 setgray
fill
grestore
stroke
grestore
} bind def
162 491.776 o
grestore
gsave
113.000000 485.838471 translate
0.000000 rotate
/DejaVuSans findfont
15.0 scalefont
setfont
0.000000 0.601562 moveto
/one glyphshow

9.543457 0.601562 moveto
/zero glyphshow

/DejaVuSans findfont
10.5 scalefont
setfont
19.230469 6.343750 moveto
/minus glyphshow

28.028320 6.343750 moveto
/one glyphshow

34.708740 6.343750 moveto
/four glyphshow


grestore
2 setlinecap
0.690 setgray
gsave
1004 978.5 162 162 clipbox
162 675.729278 m
1166.4 675.729278 l
stroke
grestore
0 setlinecap
0.000 setgray
gsave
/o {
gsave
newpath
translate
0.8 setlinewidth
1 setlinejoin
0 setlinecap
0 0 m
-3.5 0 l

gsave
0.000 setgray
fill
grestore
stroke
grestore
} bind def
162 675.729 o
grestore
gsave
113.000000 669.791778 translate
0.000000 rotate
/DejaVuSans findfont
15.0 scalefont
setfont
0.000000 0.459375 moveto
/one glyphshow

9.543457 0.459375 moveto
/zero glyphshow

/DejaVuSans findfont
10.5 scalefont
setfont
19.230469 6.201563 moveto
/minus glyphshow

28.028320 6.201563 moveto
/one glyphshow

34.708740 6.201563 moveto
/two glyphshow


grestore
2 setlinecap
0.690 setgray
gsave
1004 978.5 162 162 clipbox
162 859.682584 m
1166.4 859.682584 l
stroke
grestore
0 setlinecap
0.000 setgray
gsave
/o {
gsave
newpath
translate
0.8 setlinewidth
1 setlinejoin
0 setlinecap
0 0 m
-3.5 0 l

gsave
0.000 setgray
fill
grestore
stroke
grestore
} bind def
162 859.683 o
grestore
gsave
113.000000 853.745084 translate
0.000000 rotate
/DejaVuSans findfont
15.0 scalefont
setfont
0.000000 0.459375 moveto
/one glyphshow

9.543457 0.459375 moveto
/zero glyphshow

/DejaVuSans findfont
10.5 scalefont
setfont
19.230469 6.201563 moveto
/minus glyphshow

28.028320 6.201563 moveto
/one glyphshow

34.708740 6.201563 moveto
/zero glyphshow


grestore
2 setlinecap
0.690 setgray
gsave
1004 978.5 162 162 clipbox
162 1043.63589 m
1166.4 1043.63589 l
stroke
grestore
0 setlinecap
0.000 setgray
gsave
/o {
gsave
newpath
translate
0.8 setlinewidth
1 setlinejoin
0 setlinecap
0 0 m
-3.5 0 l

gsave
0.000 setgray
fill
grestore
stroke
grestore
} bind def
162 1043.64 o
grestore
gsave
119.000000 1037.698390 translate
0.000000 rotate
/DejaVuSans findfont
15.0 scalefont
setfont
0.000000 0.459375 moveto
/one glyphshow

9.543457 0.459375 moveto
/zero glyphshow

/DejaVuSans findfont
10.5 scalefont
setfont
19.230469 6.201563 moveto
/minus glyphshow

28.028320 6.201563 moveto
/eight glyphshow


grestore
gsave
105.000000 551.740000 translate
90.000000 rotate
/DejaVuSans findfont
15.0 scalefont
setfont
0.000000 0.475000 moveto
/L glyphshow

8.356934 0.475000 moveto
/o glyphshow

17.534180 0.475000 moveto
/g glyphshow

27.055664 0.475000 moveto
/space glyphshow

31.823730 0.475000 moveto
/C glyphshow

42.297363 0.475000 moveto
/u glyphshow

51.804199 0.475000 moveto
/r glyphshow

57.971191 0.475000 moveto
/r glyphshow

64.138184 0.475000 moveto
/e glyphshow

73.366699 0.475000 moveto
/n glyphshow

82.873535 0.475000 moveto
/t glyphshow

88.754883 0.475000 moveto
/space glyphshow

93.522949 0.475000 moveto
/N glyphshow

104.743652 0.475000 moveto
/o glyphshow

113.920898 0.475000 moveto
/i glyphshow

118.088379 0.475000 moveto
/s glyphshow

125.903320 0.475000 moveto
/e glyphshow

135.131836 0.475000 moveto
/space glyphshow

139.899902 0.475000 moveto
/bracketleft glyphshow

145.751953 0.475000 moveto
/A glyphshow

156.013184 0.475000 moveto
/slash glyphshow

/STIXSizeOneSym-Regular findfont
8.46023688663 scalefont
setfont
161.066895 2.975000 moveto
/uni221A glyphshow

170.001846 15.125000 22.902832 0.937500 rectfill
/DejaVuSans-Oblique findfont
15.0 scalefont
setfont
171.876846 0.125000 moveto
/H glyphshow

183.156143 0.125000 moveto
/z glyphshow

/DejaVuSans findfont
15.0 scalefont
setfont
192.904678 0.475000 moveto
/bracketright glyphshow


grestore
1.500 setlinewidth
2 setlinecap
0.122 0.467 0.706 setrgbcolor
gsave
1004 978.5 162 162 clipbox
207.654545 599.537584 m
271.409293 603.181745 l
308.703429 607.979628 l
335.16404 613.04679 l
355.688485 617.90462 l
372.458177 622.356898 l
398.918788 629.903202 l
419.443232 635.826768 l
436.212924 640.465923 l
450.391497 644.120795 l
462.673535 647.024571 l
473.507061 649.352879 l
483.19798 651.23724 l
496.053096 653.44051 l
507.329893 655.098981 l
517.373897 656.37072 l
529.258619 657.644644 l
542.234839 658.780164 l
555.71923 659.717569 l
571.08464 660.537739 l
588.734518 661.22465 l
608.378777 661.752683 l
633.053338 662.175839 l
664.771303 662.481203 l
712.138807 662.691491 l
823.525144 662.890904 l
977.203446 663.00446 l
1120.745455 663.009039 l
1120.745455 663.009039 l
stroke
grestore
1.000 0.498 0.055 setrgbcolor
gsave
1004 978.5 162 162 clipbox
207.654545 613.677149 m
271.409293 613.541034 l
308.703429 613.317423 l
335.16404 613.010984 l
355.688485 612.627867 l
372.458177 612.175383 l
386.63675 611.661635 l
409.752313 610.484644 l
428.209735 609.164973 l
443.575145 607.764855 l
456.737369 606.336209 l
473.507061 604.224543 l
491.964482 601.59523 l
546.952727 593.454036 l
561.785955 591.602984 l
576.243674 590.046974 l
590.18303 588.788712 l
604.771308 587.715355 l
619.473977 586.85969 l
635.719573 586.137709 l
654.653569 585.531995 l
676.733416 585.062725 l
703.753169 584.723718 l
738.790047 584.520468 l
786.344632 584.481284 l
897.13552 584.703718 l
1022.813892 584.779834 l
1120.745455 584.783011 l
1120.745455 584.783011 l
stroke
grestore
0.173 0.627 0.173 setrgbcolor
gsave
1004 978.5 162 162 clipbox
207.654545 506.54007 m
271.409293 534.051118 l
308.703429 549.95636 l
335.16404 561.047343 l
355.688485 569.457445 l
372.458177 576.141802 l
386.63675 581.614432 l
398.918788 586.186182 l
409.752313 590.061006 l
419.443232 593.38104 l
428.209735 596.249991 l
443.575145 600.930814 l
456.737369 604.549098 l
468.249707 607.393392 l
478.480091 609.660709 l
487.685634 611.490304 l
499.967672 613.62706 l
510.801197 615.236397 l
520.492116 616.472703 l
532.004454 617.714628 l
544.624029 618.826064 l
557.786253 619.748044 l
572.836668 620.559226 l
590.18303 621.242963 l
609.550495 621.77222 l
633.950698 622.199636 l
665.407836 622.511123 l
712.138807 622.728973 l
832.301982 622.979691 l
964.471214 623.106499 l
1120.745455 623.096727 l
1120.745455 623.096727 l
stroke
grestore
0.839 0.153 0.157 setrgbcolor
gsave
1004 978.5 162 162 clipbox
207.654545 448.241597 m
308.703429 448.129406 l
355.688485 447.918204 l
398.918788 447.466611 l
428.209735 446.931923 l
462.673535 446.044505 l
537.261808 443.975304 l
567.477172 443.431994 l
603.536677 443.025642 l
663.484868 442.624917 l
714.772323 442.192249 l
746.459376 441.703996 l
773.574642 441.063765 l
800.960158 440.188489 l
889.303954 437.153766 l
912.178225 436.740645 l
934.650698 436.55697 l
956.470257 436.599046 l
976.73176 436.856653 l
994.874028 437.30508 l
1010.973622 437.921103 l
1025.369911 438.690689 l
1038.432429 439.608468 l
1050.468228 440.674257 l
1061.73464 441.892893 l
1072.433471 443.272115 l
1082.725386 444.821841 l
1092.757215 446.55662 l
1102.647619 448.492388 l
1112.519889 450.651517 l
1120.745455 452.622697 l
1120.745455 452.622697 l
stroke
grestore
0.580 0.404 0.741 setrgbcolor
gsave
1004 978.5 162 162 clipbox
207.654545 360.199155 m
271.409293 387.710008 l
308.703429 403.615069 l
335.16404 414.705819 l
355.688485 423.115625 l
372.458177 429.799623 l
386.63675 435.27183 l
398.918788 439.843092 l
409.752313 443.717363 l
419.443232 447.03678 l
428.209735 449.905049 l
443.575145 454.584312 l
456.737369 458.200777 l
468.249707 461.042992 l
478.480091 463.307971 l
487.685634 465.134969 l
499.967672 467.267342 l
510.801197 468.871713 l
520.492116 470.102471 l
532.004454 471.336092 l
544.624029 472.435695 l
557.786253 473.341348 l
572.836668 474.127159 l
588.734518 474.72488 l
607.191939 475.185639 l
628.430322 475.476503 l
651.017575 475.558829 l
673.885552 475.420281 l
694.52562 475.079953 l
712.898965 474.559001 l
728.844868 473.88986 l
742.977963 473.081453 l
755.939817 472.120596 l
767.925054 471.009566 l
779.081717 469.753694 l
789.689679 468.337775 l
799.937351 466.746397 l
809.950951 464.966119 l
819.813017 462.987351 l
829.68133 460.780833 l
839.743666 458.300557 l
850.014174 455.53794 l
860.705516 452.429723 l
872.043589 448.898021 l
884.216543 444.869863 l
897.746338 440.153094 l
913.38452 434.458179 l
933.419738 426.910469 l
989.308885 405.722109 l
1004.43603 400.307301 l
1017.298752 395.934186 l
1028.764709 392.266772 l
1039.274821 389.135481 l
1049.088717 386.441082 l
1058.407917 384.111202 l
1067.376024 382.097008 l
1076.110428 380.362168 l
1084.733543 378.875639 l
1093.351959 377.615568 l
1102.08821 376.563611 l
1111.079483 375.706159 l
1120.507115 375.03248 l
1120.745455 375.018216 l
1120.745455 375.018216 l
stroke
grestore
0.549 0.337 0.294 setrgbcolor
gsave
1004 978.5 162 162 clipbox
207.654545 450.240393 m
271.409293 477.751227 l
308.703429 493.656285 l
335.16404 504.747033 l
355.688485 513.156838 l
372.458177 519.840834 l
386.63675 525.31304 l
398.918788 529.884301 l
409.752313 533.75857 l
419.443232 537.077985 l
428.209735 539.946252 l
443.575145 544.625511 l
456.737369 548.241972 l
468.249707 551.084181 l
478.480091 553.349154 l
487.685634 555.176146 l
499.967672 557.308507 l
510.801197 558.912866 l
520.492116 560.143609 l
532.004454 561.377209 l
544.624029 562.476781 l
557.786253 563.382392 l
572.836668 564.168137 l
588.734518 564.765761 l
607.191939 565.226355 l
628.430322 565.516928 l
651.017575 565.598754 l
673.885552 565.459376 l
694.52562 565.117847 l
712.898965 564.595265 l
728.844868 563.924073 l
742.977963 563.113148 l
755.939817 562.149192 l
767.925054 561.034407 l
779.081717 559.774043 l
789.689679 558.352714 l
799.937351 556.754782 l
809.950951 554.966526 l
819.813017 552.97801 l
829.68133 550.759409 l
839.648302 548.288578 l
849.843527 545.529864 l
860.401454 542.440432 l
871.505307 538.956775 l
883.330706 535.011146 l
896.211619 530.475427 l
910.603659 525.166159 l
927.189357 518.803429 l
947.617979 510.717001 l
978.667328 498.156692 l
1020.35887 481.329927 l
1042.663807 472.577226 l
1062.126221 465.17652 l
1081.088066 458.205393 l
1102.242112 450.674535 l
1120.745455 444.206275 l
1120.745455 444.206275 l
stroke
grestore
0.890 0.467 0.761 setrgbcolor
gsave
1004 978.5 162 162 clipbox
207.654545 545.223407 m
271.409293 572.734357 l
308.703429 588.639436 l
335.16404 599.730191 l
355.688485 608.139999 l
372.458177 614.823997 l
386.63675 620.296204 l
398.918788 624.867465 l
409.752313 628.741734 l
419.443232 632.061148 l
428.209735 634.929415 l
443.575145 639.608673 l
456.737369 643.225131 l
468.249707 646.067338 l
478.480091 648.332309 l
487.685634 650.159297 l
499.967672 652.291654 l
510.801197 653.896007 l
520.492116 655.126744 l
532.004454 656.360334 l
544.624029 657.459892 l
557.786253 658.365484 l
572.836668 659.151199 l
588.734518 659.748779 l
607.191939 660.2093 l
628.430322 660.499741 l
651.017575 660.581341 l
673.885552 660.441589 l
694.52562 660.099519 l
712.898965 659.576202 l
728.844868 658.904087 l
742.977963 658.092026 l
755.939817 657.126674 l
767.925054 656.010197 l
779.081717 654.747808 l
789.689679 653.324041 l
799.937351 651.723157 l
809.950951 649.931306 l
819.813017 647.938398 l
829.574935 645.739556 l
839.457277 643.286342 l
849.586962 640.541761 l
860.096384 637.461434 l
871.099518 634.001917 l
882.79508 630.088592 l
895.434549 625.621224 l
909.360085 620.458426 l
924.989965 614.421153 l
943.052119 607.199451 l
964.691993 598.299066 l
991.84218 586.880581 l
1028.016961 571.411249 l
1076.909552 550.250655 l
1120.745455 531.085234 l
1120.745455 531.085234 l
stroke
grestore
0.498 setgray
gsave
1004 978.5 162 162 clipbox
0 0 m
stroke
grestore
0.737 0.741 0.133 setrgbcolor
gsave
1004 978.5 162 162 clipbox
0 0 m
stroke
grestore
0.090 0.745 0.812 setrgbcolor
gsave
1004 978.5 162 162 clipbox
207.654545 451.801494 m
271.409293 479.312337 l
308.703429 495.217396 l
335.16404 506.308145 l
355.688485 514.71795 l
372.458177 521.401947 l
386.63675 526.874153 l
398.918788 531.445414 l
409.752313 535.319683 l
419.443232 538.639098 l
428.209735 541.507365 l
443.575145 546.186625 l
456.737369 549.803085 l
468.249707 552.645295 l
478.480091 554.910268 l
487.685634 556.737259 l
499.967672 558.869621 l
510.801197 560.47398 l
520.492116 561.704724 l
532.004454 562.938324 l
544.624029 564.037897 l
557.786253 564.943508 l
572.836668 565.729255 l
588.734518 566.326881 l
607.191939 566.787479 l
628.430322 567.078059 l
651.017575 567.159895 l
673.885552 567.020536 l
694.52562 566.679034 l
712.898965 566.156489 l
728.844868 565.485343 l
742.977963 564.674474 l
755.939817 563.710588 l
767.925054 562.595888 l
779.081717 561.335624 l
789.689679 559.914417 l
799.937351 558.316633 l
809.950951 556.528557 l
819.813017 554.540261 l
829.68133 552.321933 l
839.648302 549.851444 l
849.843527 547.093168 l
860.401454 544.004304 l
871.505307 540.521405 l
883.390028 536.556471 l
896.314734 532.005404 l
910.735907 526.685802 l
927.410106 520.290476 l
948.030044 512.132054 l
980.748382 498.91198 l
1017.76775 484.018699 l
1039.078588 475.687994 l
1057.152246 468.85765 l
1073.790335 462.805561 l
1089.988314 457.150164 l
1106.62824 451.578271 l
1120.745455 447.017896 l
1120.745455 447.017896 l
stroke
grestore
0 setlinecap
[1.5 2.475] 0 setdash
0.122 0.467 0.706 setrgbcolor
gsave
1004 978.5 162 162 clipbox
207.654545 476.463127 m
271.409293 503.974145 l
308.703429 519.879337 l
335.16404 530.97025 l
355.688485 539.380262 l
372.458177 546.064508 l
386.63675 551.537009 l
398.918788 556.108608 l
409.752313 559.983262 l
419.443232 563.303105 l
428.209735 566.171846 l
443.575145 570.852188 l
456.737369 574.469912 l
468.249707 577.313564 l
478.480091 579.580161 l
487.685634 581.408955 l
499.967672 583.54436 l
510.801197 585.152167 l
520.492116 586.386763 l
532.004454 587.62613 l
544.624029 588.733921 l
557.786253 589.650876 l
572.836668 590.454255 l
588.734518 591.07794 l
608.378777 591.608396 l
631.231919 591.986202 l
658.835137 592.206468 l
690.268778 592.228233 l
721.217043 592.031832 l
749.305637 591.635731 l
775.319284 591.047286 l
802.40186 590.205914 l
850.778192 588.414537 l
881.472488 587.420212 l
908.099467 586.783338 l
936.699604 586.327766 l
971.559084 586.006006 l
1022.409245 585.781354 l
1120.745455 585.432205 l
1120.745455 585.432205 l
stroke
grestore
1.000 0.498 0.055 setrgbcolor
gsave
1004 978.5 162 162 clipbox
207.654545 501.111055 m
271.409293 528.622103 l
308.703429 544.527345 l
335.16404 555.618329 l
355.688485 564.02843 l
372.458177 570.712787 l
386.63675 576.185418 l
398.918788 580.757168 l
409.752313 584.631992 l
419.443232 587.952025 l
428.209735 590.820977 l
443.575145 595.5018 l
456.737369 599.120084 l
468.249707 601.964378 l
478.480091 604.231696 l
487.685634 606.061291 l
499.967672 608.198047 l
510.801197 609.807385 l
520.492116 611.043692 l
532.004454 612.285617 l
544.624029 613.397054 l
557.786253 614.319037 l
572.836668 615.130222 l
590.18303 615.813963 l
609.550495 616.343227 l
633.950698 616.770658 l
665.407836 617.082181 l
712.138807 617.300147 l
832.81727 617.552838 l
964.37292 617.679515 l
1120.745455 617.668869 l
1120.745455 617.668869 l
stroke
grestore
0.173 0.627 0.173 setrgbcolor
gsave
1004 978.5 162 162 clipbox
207.654545 413.392009 m
271.409293 440.902852 l
308.703429 456.807911 l
335.16404 467.89866 l
355.688485 476.308465 l
372.458177 482.992461 l
386.63675 488.464667 l
398.918788 493.035926 l
409.752313 496.910195 l
419.443232 500.229609 l
428.209735 503.097876 l
443.575145 507.777133 l
456.737369 511.393591 l
468.249707 514.235798 l
478.480091 516.500768 l
487.685634 518.327757 l
499.967672 520.460112 l
510.801197 522.064465 l
520.492116 523.295202 l
532.004454 524.528791 l
544.624029 525.628349 l
557.786253 526.533939 l
572.836668 527.319653 l
588.734518 527.91723 l
607.191939 528.377747 l
628.430322 528.66818 l
651.017575 528.749767 l
673.885552 528.609993 l
694.52562 528.267892 l
712.898965 527.744532 l
728.844868 527.072363 l
742.977963 526.260237 l
755.939817 525.294804 l
767.925054 524.178229 l
779.081717 522.915723 l
789.689679 521.491816 l
799.937351 519.890764 l
809.819082 518.123812 l
819.694565 516.130854 l
829.468416 513.931619 l
839.361615 511.477652 l
849.501281 508.731939 l
860.019958 505.650072 l
871.031712 502.188577 l
882.735373 498.272781 l
895.38251 493.802366 l
909.270612 488.652766 l
924.876714 482.623658 l
942.928033 475.404563 l
964.618459 466.481575 l
992.875964 454.601701 l
1057.572711 427.311295 l
1072.098726 421.490889 l
1083.516417 417.148262 l
1093.182424 413.70425 l
1101.746507 410.884702 l
1109.585743 408.534832 l
1116.944844 406.558791 l
1120.745455 405.632603 l
1120.745455 405.632603 l
stroke
grestore
0.839 0.153 0.157 setrgbcolor
gsave
1004 978.5 162 162 clipbox
207.654545 468.250335 m
271.409293 495.761165 l
308.703429 511.666222 l
335.16404 522.75697 l
355.688485 531.166776 l
372.458177 537.850773 l
386.63675 543.32298 l
398.918788 547.894242 l
409.752313 551.768513 l
419.443232 555.087929 l
428.209735 557.956198 l
443.575145 562.635461 l
456.737369 566.251927 l
468.249707 569.094141 l
478.480091 571.35912 l
487.685634 573.186118 l
499.967672 575.318491 l
510.801197 576.922862 l
520.492116 578.15362 l
532.004454 579.387241 l
544.624029 580.486844 l
557.786253 581.392497 l
572.836668 582.178307 l
588.734518 582.776028 l
607.191939 583.236786 l
628.430322 583.52765 l
651.017575 583.609974 l
673.885552 583.471423 l
694.52562 583.131091 l
712.898965 582.610133 l
728.844868 581.940986 l
742.977963 581.13257 l
755.939817 580.171702 l
767.925054 579.060659 l
779.081717 577.804772 l
789.689679 576.388834 l
799.937351 574.797434 l
809.950951 573.017129 l
819.813017 571.038328 l
829.68133 568.831768 l
839.743666 566.35144 l
850.014174 563.588757 l
860.705516 560.480453 l
872.043589 556.948634 l
884.216543 552.920315 l
897.746338 548.203311 l
913.38452 542.508025 l
933.419738 534.959622 l
989.440029 513.718962 l
1004.563182 508.305557 l
1017.423132 503.93345 l
1028.886713 500.266888 l
1039.394535 497.136356 l
1049.206099 494.442629 l
1058.522829 492.113324 l
1067.488281 490.099585 l
1076.227096 488.363696 l
1084.853048 486.876526 l
1093.472864 485.616052 l
1102.209155 484.563782 l
1111.204119 483.705546 l
1120.637604 483.030907 l
1120.745455 483.02443 l
1120.745455 483.02443 l
stroke
grestore
0.580 0.404 0.741 setrgbcolor
gsave
1004 978.5 162 162 clipbox
207.654545 684.134366 m
271.409293 683.957727 l
308.703429 683.666759 l
335.16404 683.266401 l
355.688485 682.763178 l
372.458177 682.164873 l
386.63675 681.480156 l
398.918788 680.718225 l
409.752313 679.888465 l
419.443232 679.000161 l
428.209735 678.062266 l
443.575145 676.070837 l
456.737369 673.973801 l
468.249707 671.819414 l
478.480091 669.644902 l
487.685634 667.477862 l
499.967672 664.282724 l
510.801197 661.189503 l
523.50808 657.259 l
534.670689 653.564321 l
546.952727 649.271596 l
561.785955 643.819851 l
577.900992 637.631852 l
597.10198 629.989815 l
620.513295 620.403389 l
653.216373 606.740427 l
725.934931 576.292696 l
754.265257 564.721755 l
781.626743 553.792703 l
819.813017 538.815201 l
858.244402 523.662695 l
886.766839 512.165631 l
920.624843 498.260638 l
978.919555 474.293739 l
1000.188228 465.819458 l
1017.284922 459.240312 l
1031.99152 453.813968 l
1045.118374 449.203378 l
1057.134312 445.215296 l
1068.357628 441.721985 l
1079.011931 438.636717 l
1089.270219 435.896097 l
1099.284344 433.449859 l
1109.1843 431.259977 l
1119.08683 429.297226 l
1120.745455 428.990469 l
1120.745455 428.990469 l
stroke
grestore
0.549 0.337 0.294 setrgbcolor
gsave
1004 978.5 162 162 clipbox
207.654545 466.356697 m
271.409293 466.180059 l
308.703429 465.889091 l
335.16404 465.488732 l
355.688485 464.985509 l
372.458177 464.387204 l
386.63675 463.702487 l
398.918788 462.940555 l
409.752313 462.110795 l
419.443232 461.222492 l
428.209735 460.284596 l
443.575145 458.293167 l
456.737369 456.19613 l
468.249707 454.041741 l
478.480091 451.867229 l
487.685634 449.700188 l
499.967672 446.505049 l
510.801197 443.411826 l
523.50808 439.48132 l
534.670689 435.786637 l
546.952727 431.493907 l
561.785955 426.042155 l
577.900992 419.854144 l
597.10198 412.212086 l
620.513295 402.625619 l
653.216373 388.962553 l
725.934931 358.514028 l
754.265257 346.942237 l
781.626743 336.011681 l
820.285309 320.845009 l
857.93208 305.991975 l
885.905341 294.706262 l
917.772251 281.596655 l
993.002123 250.545446 l
1013.918357 242.22054 l
1031.340906 235.520188 l
1046.749226 229.828701 l
1060.946443 224.818882 l
1074.47619 220.279048 l
1087.804139 216.04146 l
1101.492162 211.924714 l
1116.470883 207.657489 l
1120.745455 206.476364 l
1120.745455 206.476364 l
stroke
grestore
2.000 setlinewidth
2 setlinecap
[] 0 setdash
0.000 setgray
gsave
1004 978.5 162 162 clipbox
207.654545 811.625244 m
1120.745455 811.604046 l
1120.745455 811.604046 l
stroke
grestore
0 setlinecap
[2 3.3] 0 setdash
0.890 0.467 0.761 setrgbcolor
gsave
1004 978.5 162 162 clipbox
207.654545 811.589947 m
1120.745455 811.589016 l
1120.745455 811.589016 l
stroke
grestore
1.500 setlinewidth
[1.5 2.475] 0 setdash
0.498 setgray
gsave
1004 978.5 162 162 clipbox
419.443232 1096.003636 m
483.19798 1091.321348 l
520.492116 1081.594689 l
546.952727 1071.672929 l
567.477172 1062.931776 l
584.246864 1055.417214 l
610.707475 1043.231647 l
662.180184 1019.170701 l
694.986667 1003.656582 l
719.11858 991.998878 l
738.21697 982.494043 l
754.023526 974.349245 l
767.507917 967.139113 l
779.265858 960.61337 l
791.317662 953.658168 l
801.971717 947.260548 l
812.805243 940.49886 l
823.638768 933.468172 l
834.346036 926.252898 l
845.739385 918.290294 l
857.4616 909.807233 l
869.939964 900.480221 l
882.735373 890.636586 l
897.084435 879.31453 l
913.427311 866.131291 l
933.694712 849.482304 l
965.812213 822.764606 l
998.642897 795.544267 l
1016.729996 780.83974 l
1030.410254 769.987125 l
1042.000155 761.062928 l
1051.912823 753.699068 l
1060.774198 747.391731 l
1068.460766 742.188683 l
1075.260125 737.843497 l
1081.522498 734.101372 l
1087.191698 730.971098 l
1092.409515 728.345607 l
1097.057094 726.247311 l
1101.536447 724.472534 l
1105.649119 723.08788 l
1109.484278 722.036362 l
1113.068315 721.289627 l
1116.329631 720.831267 l
1119.524781 720.609826 l
1120.745455 720.589803 l
1120.745455 720.589803 l
stroke
grestore
0.800 setlinewidth
0 setlinejoin
2 setlinecap
[] 0 setdash
0.000 setgray
gsave
162 162 m
162 1140.48 l
stroke
grestore
gsave
1166.4 162 m
1166.4 1140.48 l
stroke
grestore
gsave
162 162 m
1166.4 162 l
stroke
grestore
gsave
162 1140.48 m
1166.4 1140.48 l
stroke
grestore
/DejaVuSans findfont
20.000 scalefont
setfont
gsave
566.348438 1146.480000 translate
0.000000 rotate
0.000000 0.000000 m /F glyphshow
11.488281 0.000000 m /r glyphshow
19.710938 0.000000 m /e glyphshow
32.015625 0.000000 m /q glyphshow
44.710938 0.000000 m /u glyphshow
57.386719 0.000000 m /e glyphshow
69.691406 0.000000 m /n glyphshow
82.367188 0.000000 m /c glyphshow
93.363281 0.000000 m /y glyphshow
105.199219 0.000000 m /space glyphshow
111.556641 0.000000 m /v glyphshow
123.392578 0.000000 m /s glyphshow
133.812500 0.000000 m /space glyphshow
140.169922 0.000000 m /N glyphshow
155.130859 0.000000 m /o glyphshow
167.367188 0.000000 m /i glyphshow
172.923828 0.000000 m /s glyphshow
183.343750 0.000000 m /e glyphshow
grestore
1.000 setlinewidth
0 setlinecap
0.800 setgray
gsave
169 853.714375 m
415.046875 853.714375 l
416.380208 853.714375 417.046875 854.381042 417.046875 855.714375 c
417.046875 1133.48 l
417.046875 1134.813333 416.380208 1135.48 415.046875 1135.48 c
169 1135.48 l
167.666667 1135.48 167 1134.813333 167 1133.48 c
167 855.714375 l
167 854.381042 167.666667 853.714375 169 853.714375 c
cl
gsave
1.000 setgray
fill
grestore
stroke
grestore
1.500 setlinewidth
1 setlinejoin
2 setlinecap
[] 0 setdash
0.122 0.467 0.706 setrgbcolor
gsave
171 1127.38625 m
191 1127.38625 l
stroke
grestore
0.000 setgray
/DejaVuSans findfont
10.000 scalefont
setfont
gsave
199.000000 1123.886250 translate
0.000000 rotate
0.000000 0.000000 m /I glyphshow
2.949219 0.000000 m /n glyphshow
9.287109 0.000000 m /t glyphshow
13.208008 0.000000 m /e glyphshow
19.360352 0.000000 m /r glyphshow
23.471680 0.000000 m /n glyphshow
29.809570 0.000000 m /a glyphshow
35.937500 0.000000 m /l glyphshow
38.715820 0.000000 m /space glyphshow
41.894531 0.000000 m /J glyphshow
44.843750 0.000000 m /o glyphshow
50.961914 0.000000 m /h glyphshow
57.299805 0.000000 m /n glyphshow
63.637695 0.000000 m /s glyphshow
68.847656 0.000000 m /o glyphshow
74.965820 0.000000 m /n glyphshow
81.303711 0.000000 m /space glyphshow
84.482422 0.000000 m /N glyphshow
91.962891 0.000000 m /o glyphshow
98.081055 0.000000 m /i glyphshow
100.859375 0.000000 m /s glyphshow
106.069336 0.000000 m /e glyphshow
grestore
1.000 0.498 0.055 setrgbcolor
gsave
171 1112.714375 m
191 1112.714375 l
stroke
grestore
0.000 setgray
gsave
199.000000 1109.214375 translate
0.000000 rotate
0.000000 0.000000 m /E glyphshow
6.318359 0.000000 m /x glyphshow
12.236328 0.000000 m /t glyphshow
16.157227 0.000000 m /e glyphshow
22.309570 0.000000 m /r glyphshow
26.420898 0.000000 m /n glyphshow
32.758789 0.000000 m /a glyphshow
38.886719 0.000000 m /l glyphshow
41.665039 0.000000 m /space glyphshow
44.843750 0.000000 m /J glyphshow
47.792969 0.000000 m /o glyphshow
53.911133 0.000000 m /h glyphshow
60.249023 0.000000 m /n glyphshow
66.586914 0.000000 m /s glyphshow
71.796875 0.000000 m /o glyphshow
77.915039 0.000000 m /n glyphshow
84.252930 0.000000 m /space glyphshow
87.431641 0.000000 m /N glyphshow
94.912109 0.000000 m /o glyphshow
101.030273 0.000000 m /i glyphshow
103.808594 0.000000 m /s glyphshow
109.018555 0.000000 m /e glyphshow
grestore
0.173 0.627 0.173 setrgbcolor
gsave
171 1098.0425 m
191 1098.0425 l
stroke
grestore
0.000 setgray
gsave
199.000000 1094.542500 translate
0.000000 rotate
0.000000 0.000000 m /T glyphshow
6.108398 0.000000 m /F glyphshow
11.860352 0.000000 m /N glyphshow
19.340820 0.000000 m /space glyphshow
22.519531 0.000000 m /b glyphshow
28.867188 0.000000 m /e glyphshow
35.019531 0.000000 m /t glyphshow
38.940430 0.000000 m /w glyphshow
47.119141 0.000000 m /e glyphshow
53.271484 0.000000 m /e glyphshow
59.423828 0.000000 m /n glyphshow
65.761719 0.000000 m /space glyphshow
68.940430 0.000000 m /G glyphshow
76.689453 0.000000 m /o glyphshow
82.807617 0.000000 m /l glyphshow
85.585938 0.000000 m /d glyphshow
91.933594 0.000000 m /space glyphshow
95.112305 0.000000 m /P glyphshow
101.142578 0.000000 m /a glyphshow
107.270508 0.000000 m /d glyphshow
113.618164 0.000000 m /space glyphshow
116.796875 0.000000 m /two glyphshow
123.159180 0.000000 m /space glyphshow
126.337891 0.000000 m /a glyphshow
132.465820 0.000000 m /n glyphshow
138.803711 0.000000 m /d glyphshow
145.151367 0.000000 m /space glyphshow
148.330078 0.000000 m /T glyphshow
154.438477 0.000000 m /E glyphshow
160.756836 0.000000 m /S glyphshow
grestore
0.839 0.153 0.157 setrgbcolor
gsave
171 1083.370625 m
191 1083.370625 l
stroke
grestore
0.000 setgray
gsave
199.000000 1079.870625 translate
0.000000 rotate
0.000000 0.000000 m /T glyphshow
6.108398 0.000000 m /F glyphshow
11.860352 0.000000 m /N glyphshow
19.340820 0.000000 m /space glyphshow
22.519531 0.000000 m /b glyphshow
28.867188 0.000000 m /e glyphshow
35.019531 0.000000 m /t glyphshow
38.940430 0.000000 m /w glyphshow
47.119141 0.000000 m /e glyphshow
53.271484 0.000000 m /e glyphshow
59.423828 0.000000 m /n glyphshow
65.761719 0.000000 m /space glyphshow
68.940430 0.000000 m /T glyphshow
75.048828 0.000000 m /E glyphshow
81.367188 0.000000 m /S glyphshow
87.714844 0.000000 m /space glyphshow
90.893555 0.000000 m /a glyphshow
97.021484 0.000000 m /n glyphshow
103.359375 0.000000 m /d glyphshow
109.707031 0.000000 m /space glyphshow
112.885742 0.000000 m /M glyphshow
121.513672 0.000000 m /e glyphshow
127.666016 0.000000 m /a glyphshow
133.793945 0.000000 m /n glyphshow
140.131836 0.000000 m /d glyphshow
146.479492 0.000000 m /e glyphshow
152.631836 0.000000 m /r glyphshow
grestore
0.580 0.404 0.741 setrgbcolor
gsave
171 1068.69875 m
191 1068.69875 l
stroke
grestore
0.000 setgray
gsave
199.000000 1065.198750 translate
0.000000 rotate
0.000000 0.000000 m /T glyphshow
6.108398 0.000000 m /F glyphshow
11.860352 0.000000 m /N glyphshow
19.340820 0.000000 m /space glyphshow
22.519531 0.000000 m /b glyphshow
28.867188 0.000000 m /e glyphshow
35.019531 0.000000 m /t glyphshow
38.940430 0.000000 m /w glyphshow
47.119141 0.000000 m /e glyphshow
53.271484 0.000000 m /e glyphshow
59.423828 0.000000 m /n glyphshow
65.761719 0.000000 m /space glyphshow
68.940430 0.000000 m /S glyphshow
75.288086 0.000000 m /i glyphshow
78.066406 0.000000 m /l glyphshow
80.844727 0.000000 m /i glyphshow
83.623047 0.000000 m /c glyphshow
89.121094 0.000000 m /o glyphshow
95.239258 0.000000 m /n glyphshow
101.577148 0.000000 m /space glyphshow
104.755859 0.000000 m /W glyphshow
114.643555 0.000000 m /a glyphshow
120.771484 0.000000 m /f glyphshow
124.291992 0.000000 m /e glyphshow
130.444336 0.000000 m /r glyphshow
134.555664 0.000000 m /space glyphshow
137.734375 0.000000 m /a glyphshow
143.862305 0.000000 m /n glyphshow
150.200195 0.000000 m /d glyphshow
156.547852 0.000000 m /space glyphshow
159.726562 0.000000 m /T glyphshow
165.834961 0.000000 m /E glyphshow
172.153320 0.000000 m /S glyphshow
grestore
0.549 0.337 0.294 setrgbcolor
gsave
171 1054.026875 m
191 1054.026875 l
stroke
grestore
0.000 setgray
gsave
199.000000 1050.526875 translate
0.000000 rotate
0.000000 0.000000 m /T glyphshow
6.108398 0.000000 m /F glyphshow
11.860352 0.000000 m /N glyphshow
19.340820 0.000000 m /space glyphshow
22.519531 0.000000 m /b glyphshow
28.867188 0.000000 m /e glyphshow
35.019531 0.000000 m /t glyphshow
38.940430 0.000000 m /w glyphshow
47.119141 0.000000 m /e glyphshow
53.271484 0.000000 m /e glyphshow
59.423828 0.000000 m /n glyphshow
65.761719 0.000000 m /space glyphshow
68.940430 0.000000 m /A glyphshow
75.781250 0.000000 m /b glyphshow
82.128906 0.000000 m /s glyphshow
87.338867 0.000000 m /o glyphshow
93.457031 0.000000 m /r glyphshow
97.568359 0.000000 m /b glyphshow
103.916016 0.000000 m /e glyphshow
110.068359 0.000000 m /r glyphshow
114.179688 0.000000 m /space glyphshow
117.358398 0.000000 m /a glyphshow
123.486328 0.000000 m /n glyphshow
129.824219 0.000000 m /d glyphshow
136.171875 0.000000 m /space glyphshow
139.350586 0.000000 m /G glyphshow
147.099609 0.000000 m /l glyphshow
149.877930 0.000000 m /u glyphshow
156.215820 0.000000 m /e glyphshow
grestore
0.890 0.467 0.761 setrgbcolor
gsave
171 1039.355 m
191 1039.355 l
stroke
grestore
0.000 setgray
gsave
199.000000 1035.855000 translate
0.000000 rotate
0.000000 0.000000 m /T glyphshow
6.108398 0.000000 m /F glyphshow
11.860352 0.000000 m /N glyphshow
19.340820 0.000000 m /space glyphshow
22.519531 0.000000 m /b glyphshow
28.867188 0.000000 m /e glyphshow
35.019531 0.000000 m /t glyphshow
38.940430 0.000000 m /w glyphshow
47.119141 0.000000 m /e glyphshow
53.271484 0.000000 m /e glyphshow
59.423828 0.000000 m /n glyphshow
65.761719 0.000000 m /space glyphshow
68.940430 0.000000 m /A glyphshow
75.781250 0.000000 m /b glyphshow
82.128906 0.000000 m /s glyphshow
87.338867 0.000000 m /o glyphshow
93.457031 0.000000 m /r glyphshow
97.568359 0.000000 m /b glyphshow
103.916016 0.000000 m /e glyphshow
110.068359 0.000000 m /r glyphshow
114.179688 0.000000 m /space glyphshow
117.358398 0.000000 m /a glyphshow
123.486328 0.000000 m /n glyphshow
129.824219 0.000000 m /d glyphshow
136.171875 0.000000 m /space glyphshow
139.350586 0.000000 m /G glyphshow
147.099609 0.000000 m /o glyphshow
153.217773 0.000000 m /l glyphshow
155.996094 0.000000 m /d glyphshow
162.343750 0.000000 m /space glyphshow
165.522461 0.000000 m /P glyphshow
171.552734 0.000000 m /a glyphshow
177.680664 0.000000 m /d glyphshow
184.028320 0.000000 m /space glyphshow
187.207031 0.000000 m /one glyphshow
grestore
0.498 setgray
gsave
171 1024.683125 m
191 1024.683125 l
stroke
grestore
0.000 setgray
gsave
199.000000 1021.183125 translate
0.000000 rotate
0.000000 0.000000 m /T glyphshow
6.108398 0.000000 m /F glyphshow
11.860352 0.000000 m /N glyphshow
19.340820 0.000000 m /space glyphshow
22.519531 0.000000 m /b glyphshow
28.867188 0.000000 m /e glyphshow
35.019531 0.000000 m /t glyphshow
38.940430 0.000000 m /w glyphshow
47.119141 0.000000 m /e glyphshow
53.271484 0.000000 m /e glyphshow
59.423828 0.000000 m /n glyphshow
65.761719 0.000000 m /space glyphshow
68.940430 0.000000 m /A glyphshow
75.781250 0.000000 m /b glyphshow
82.128906 0.000000 m /s glyphshow
87.338867 0.000000 m /o glyphshow
93.457031 0.000000 m /r glyphshow
97.568359 0.000000 m /b glyphshow
103.916016 0.000000 m /e glyphshow
110.068359 0.000000 m /r glyphshow
114.179688 0.000000 m /space glyphshow
117.358398 0.000000 m /a glyphshow
123.486328 0.000000 m /n glyphshow
129.824219 0.000000 m /d glyphshow
136.171875 0.000000 m /space glyphshow
139.350586 0.000000 m /B glyphshow
146.210938 0.000000 m /a glyphshow
152.338867 0.000000 m /t glyphshow
156.259766 0.000000 m /h glyphshow
grestore
0.737 0.741 0.133 setrgbcolor
gsave
171 1010.01125 m
191 1010.01125 l
stroke
grestore
0.000 setgray
gsave
199.000000 1006.511250 translate
0.000000 rotate
0.000000 0.000000 m /N glyphshow
7.480469 0.000000 m /o glyphshow
13.598633 0.000000 m /i glyphshow
16.376953 0.000000 m /s glyphshow
21.586914 0.000000 m /e glyphshow
27.739258 0.000000 m /space glyphshow
30.917969 0.000000 m /i glyphshow
33.696289 0.000000 m /n glyphshow
40.034180 0.000000 m /h glyphshow
46.372070 0.000000 m /e glyphshow
52.524414 0.000000 m /r glyphshow
56.635742 0.000000 m /e glyphshow
62.788086 0.000000 m /n glyphshow
69.125977 0.000000 m /t glyphshow
73.046875 0.000000 m /space glyphshow
76.225586 0.000000 m /t glyphshow
80.146484 0.000000 m /o glyphshow
86.264648 0.000000 m /space glyphshow
89.443359 0.000000 m /t glyphshow
93.364258 0.000000 m /h glyphshow
99.702148 0.000000 m /e glyphshow
105.854492 0.000000 m /space glyphshow
109.033203 0.000000 m /e glyphshow
115.185547 0.000000 m /n glyphshow
121.523438 0.000000 m /e glyphshow
127.675781 0.000000 m /r glyphshow
131.787109 0.000000 m /g glyphshow
138.134766 0.000000 m /y glyphshow
144.052734 0.000000 m /space glyphshow
147.231445 0.000000 m /i glyphshow
150.009766 0.000000 m /n glyphshow
156.347656 0.000000 m /p glyphshow
162.695312 0.000000 m /u glyphshow
169.033203 0.000000 m /t glyphshow
grestore
0.090 0.745 0.812 setrgbcolor
gsave
171 995.339375 m
191 995.339375 l
stroke
grestore
0.000 setgray
gsave
199.000000 991.839375 translate
0.000000 rotate
0.000000 0.000000 m /T glyphshow
6.108398 0.000000 m /F glyphshow
11.860352 0.000000 m /N glyphshow
19.340820 0.000000 m /space glyphshow
22.519531 0.000000 m /b glyphshow
28.867188 0.000000 m /e glyphshow
35.019531 0.000000 m /t glyphshow
38.940430 0.000000 m /w glyphshow
47.119141 0.000000 m /e glyphshow
53.271484 0.000000 m /e glyphshow
59.423828 0.000000 m /n glyphshow
65.761719 0.000000 m /space glyphshow
68.940430 0.000000 m /G glyphshow
76.689453 0.000000 m /l glyphshow
79.467773 0.000000 m /u glyphshow
85.805664 0.000000 m /e glyphshow
91.958008 0.000000 m /space glyphshow
95.136719 0.000000 m /a glyphshow
101.264648 0.000000 m /n glyphshow
107.602539 0.000000 m /d glyphshow
113.950195 0.000000 m /space glyphshow
117.128906 0.000000 m /S glyphshow
123.476562 0.000000 m /i glyphshow
126.254883 0.000000 m /l glyphshow
129.033203 0.000000 m /i glyphshow
131.811523 0.000000 m /c glyphshow
137.309570 0.000000 m /o glyphshow
143.427734 0.000000 m /n glyphshow
149.765625 0.000000 m /space glyphshow
152.944336 0.000000 m /W glyphshow
162.832031 0.000000 m /a glyphshow
168.959961 0.000000 m /f glyphshow
172.480469 0.000000 m /e glyphshow
178.632812 0.000000 m /r glyphshow
grestore
0 setlinecap
[1.5 2.475] 0 setdash
0.122 0.467 0.706 setrgbcolor
gsave
171 980.6675 m
191 980.6675 l
stroke
grestore
0.000 setgray
gsave
199.000000 977.167500 translate
0.000000 rotate
0.000000 0.000000 m /T glyphshow
6.108398 0.000000 m /F glyphshow
11.860352 0.000000 m /N glyphshow
19.340820 0.000000 m /space glyphshow
22.519531 0.000000 m /b glyphshow
28.867188 0.000000 m /e glyphshow
35.019531 0.000000 m /t glyphshow
38.940430 0.000000 m /w glyphshow
47.119141 0.000000 m /e glyphshow
53.271484 0.000000 m /e glyphshow
59.423828 0.000000 m /n glyphshow
65.761719 0.000000 m /space glyphshow
68.940430 0.000000 m /G glyphshow
76.689453 0.000000 m /o glyphshow
82.807617 0.000000 m /l glyphshow
85.585938 0.000000 m /d glyphshow
91.933594 0.000000 m /space glyphshow
95.112305 0.000000 m /P glyphshow
101.142578 0.000000 m /a glyphshow
107.270508 0.000000 m /d glyphshow
113.618164 0.000000 m /space glyphshow
116.796875 0.000000 m /one glyphshow
123.159180 0.000000 m /space glyphshow
126.337891 0.000000 m /a glyphshow
132.465820 0.000000 m /n glyphshow
138.803711 0.000000 m /d glyphshow
145.151367 0.000000 m /space glyphshow
148.330078 0.000000 m /W glyphshow
158.217773 0.000000 m /i glyphshow
160.996094 0.000000 m /r glyphshow
165.107422 0.000000 m /e glyphshow
171.259766 0.000000 m /space glyphshow
174.438477 0.000000 m /B glyphshow
181.298828 0.000000 m /o glyphshow
187.416992 0.000000 m /n glyphshow
193.754883 0.000000 m /d glyphshow
200.102539 0.000000 m /space glyphshow
203.281250 0.000000 m /one glyphshow
grestore
1.000 0.498 0.055 setrgbcolor
gsave
171 965.995625 m
191 965.995625 l
stroke
grestore
0.000 setgray
gsave
199.000000 962.495625 translate
0.000000 rotate
0.000000 0.000000 m /T glyphshow
6.108398 0.000000 m /F glyphshow
11.860352 0.000000 m /N glyphshow
19.340820 0.000000 m /space glyphshow
22.519531 0.000000 m /b glyphshow
28.867188 0.000000 m /e glyphshow
35.019531 0.000000 m /t glyphshow
38.940430 0.000000 m /w glyphshow
47.119141 0.000000 m /e glyphshow
53.271484 0.000000 m /e glyphshow
59.423828 0.000000 m /n glyphshow
65.761719 0.000000 m /space glyphshow
68.940430 0.000000 m /W glyphshow
78.828125 0.000000 m /i glyphshow
81.606445 0.000000 m /r glyphshow
85.717773 0.000000 m /e glyphshow
91.870117 0.000000 m /space glyphshow
95.048828 0.000000 m /B glyphshow
101.909180 0.000000 m /o glyphshow
108.027344 0.000000 m /n glyphshow
114.365234 0.000000 m /d glyphshow
120.712891 0.000000 m /space glyphshow
123.891602 0.000000 m /one glyphshow
130.253906 0.000000 m /space glyphshow
133.432617 0.000000 m /a glyphshow
139.560547 0.000000 m /n glyphshow
145.898438 0.000000 m /d glyphshow
152.246094 0.000000 m /space glyphshow
155.424805 0.000000 m /G glyphshow
163.173828 0.000000 m /o glyphshow
169.291992 0.000000 m /l glyphshow
172.070312 0.000000 m /d glyphshow
178.417969 0.000000 m /space glyphshow
181.596680 0.000000 m /P glyphshow
187.626953 0.000000 m /a glyphshow
193.754883 0.000000 m /d glyphshow
200.102539 0.000000 m /space glyphshow
203.281250 0.000000 m /two glyphshow
grestore
0.173 0.627 0.173 setrgbcolor
gsave
171 951.32375 m
191 951.32375 l
stroke
grestore
0.000 setgray
gsave
199.000000 947.823750 translate
0.000000 rotate
0.000000 0.000000 m /T glyphshow
6.108398 0.000000 m /F glyphshow
11.860352 0.000000 m /N glyphshow
19.340820 0.000000 m /space glyphshow
22.519531 0.000000 m /b glyphshow
28.867188 0.000000 m /e glyphshow
35.019531 0.000000 m /t glyphshow
38.940430 0.000000 m /w glyphshow
47.119141 0.000000 m /e glyphshow
53.271484 0.000000 m /e glyphshow
59.423828 0.000000 m /n glyphshow
65.761719 0.000000 m /space glyphshow
68.940430 0.000000 m /S glyphshow
75.288086 0.000000 m /i glyphshow
78.066406 0.000000 m /l glyphshow
80.844727 0.000000 m /i glyphshow
83.623047 0.000000 m /c glyphshow
89.121094 0.000000 m /o glyphshow
95.239258 0.000000 m /n glyphshow
101.577148 0.000000 m /space glyphshow
104.755859 0.000000 m /W glyphshow
114.643555 0.000000 m /a glyphshow
120.771484 0.000000 m /f glyphshow
124.291992 0.000000 m /e glyphshow
130.444336 0.000000 m /r glyphshow
134.555664 0.000000 m /space glyphshow
137.734375 0.000000 m /a glyphshow
143.862305 0.000000 m /n glyphshow
150.200195 0.000000 m /d glyphshow
156.547852 0.000000 m /space glyphshow
159.726562 0.000000 m /G glyphshow
167.475586 0.000000 m /o glyphshow
173.593750 0.000000 m /l glyphshow
176.372070 0.000000 m /d glyphshow
182.719727 0.000000 m /space glyphshow
185.898438 0.000000 m /P glyphshow
191.928711 0.000000 m /a glyphshow
198.056641 0.000000 m /d glyphshow
204.404297 0.000000 m /space glyphshow
207.583008 0.000000 m /two glyphshow
grestore
0.839 0.153 0.157 setrgbcolor
gsave
171 936.651875 m
191 936.651875 l
stroke
grestore
0.000 setgray
gsave
199.000000 933.151875 translate
0.000000 rotate
0.000000 0.000000 m /T glyphshow
6.108398 0.000000 m /F glyphshow
11.860352 0.000000 m /N glyphshow
19.340820 0.000000 m /space glyphshow
22.519531 0.000000 m /b glyphshow
28.867188 0.000000 m /e glyphshow
35.019531 0.000000 m /t glyphshow
38.940430 0.000000 m /w glyphshow
47.119141 0.000000 m /e glyphshow
53.271484 0.000000 m /e glyphshow
59.423828 0.000000 m /n glyphshow
65.761719 0.000000 m /space glyphshow
68.940430 0.000000 m /S glyphshow
75.288086 0.000000 m /i glyphshow
78.066406 0.000000 m /l glyphshow
80.844727 0.000000 m /i glyphshow
83.623047 0.000000 m /c glyphshow
89.121094 0.000000 m /o glyphshow
95.239258 0.000000 m /n glyphshow
101.577148 0.000000 m /space glyphshow
104.755859 0.000000 m /W glyphshow
114.643555 0.000000 m /a glyphshow
120.771484 0.000000 m /f glyphshow
124.291992 0.000000 m /e glyphshow
130.444336 0.000000 m /r glyphshow
134.555664 0.000000 m /space glyphshow
137.734375 0.000000 m /a glyphshow
143.862305 0.000000 m /n glyphshow
150.200195 0.000000 m /d glyphshow
156.547852 0.000000 m /space glyphshow
159.726562 0.000000 m /M glyphshow
168.354492 0.000000 m /e glyphshow
174.506836 0.000000 m /a glyphshow
180.634766 0.000000 m /n glyphshow
186.972656 0.000000 m /d glyphshow
193.320312 0.000000 m /e glyphshow
199.472656 0.000000 m /r glyphshow
grestore
0.580 0.404 0.741 setrgbcolor
gsave
171 921.98 m
191 921.98 l
stroke
grestore
0.000 setgray
gsave
199.000000 918.480000 translate
0.000000 rotate
0.000000 0.000000 m /T glyphshow
6.108398 0.000000 m /F glyphshow
11.860352 0.000000 m /N glyphshow
19.340820 0.000000 m /space glyphshow
22.519531 0.000000 m /b glyphshow
28.867188 0.000000 m /e glyphshow
35.019531 0.000000 m /t glyphshow
38.940430 0.000000 m /w glyphshow
47.119141 0.000000 m /e glyphshow
53.271484 0.000000 m /e glyphshow
59.423828 0.000000 m /n glyphshow
65.761719 0.000000 m /space glyphshow
68.940430 0.000000 m /M glyphshow
77.568359 0.000000 m /e glyphshow
83.720703 0.000000 m /a glyphshow
89.848633 0.000000 m /n glyphshow
96.186523 0.000000 m /d glyphshow
102.534180 0.000000 m /e glyphshow
108.686523 0.000000 m /r glyphshow
112.797852 0.000000 m /space glyphshow
115.976562 0.000000 m /a glyphshow
122.104492 0.000000 m /n glyphshow
128.442383 0.000000 m /d glyphshow
134.790039 0.000000 m /space glyphshow
137.968750 0.000000 m /W glyphshow
147.856445 0.000000 m /i glyphshow
150.634766 0.000000 m /r glyphshow
154.746094 0.000000 m /e glyphshow
160.898438 0.000000 m /space glyphshow
164.077148 0.000000 m /B glyphshow
170.937500 0.000000 m /o glyphshow
177.055664 0.000000 m /n glyphshow
183.393555 0.000000 m /d glyphshow
189.741211 0.000000 m /space glyphshow
192.919922 0.000000 m /two glyphshow
grestore
0.549 0.337 0.294 setrgbcolor
gsave
171 907.308125 m
191 907.308125 l
stroke
grestore
0.000 setgray
gsave
199.000000 903.808125 translate
0.000000 rotate
0.000000 0.000000 m /T glyphshow
6.108398 0.000000 m /F glyphshow
11.860352 0.000000 m /N glyphshow
19.340820 0.000000 m /space glyphshow
22.519531 0.000000 m /b glyphshow
28.867188 0.000000 m /e glyphshow
35.019531 0.000000 m /t glyphshow
38.940430 0.000000 m /w glyphshow
47.119141 0.000000 m /e glyphshow
53.271484 0.000000 m /e glyphshow
59.423828 0.000000 m /n glyphshow
65.761719 0.000000 m /space glyphshow
68.940430 0.000000 m /W glyphshow
78.828125 0.000000 m /i glyphshow
81.606445 0.000000 m /r glyphshow
85.717773 0.000000 m /e glyphshow
91.870117 0.000000 m /space glyphshow
95.048828 0.000000 m /B glyphshow
101.909180 0.000000 m /o glyphshow
108.027344 0.000000 m /n glyphshow
114.365234 0.000000 m /d glyphshow
120.712891 0.000000 m /space glyphshow
123.891602 0.000000 m /two glyphshow
130.253906 0.000000 m /space glyphshow
133.432617 0.000000 m /a glyphshow
139.560547 0.000000 m /n glyphshow
145.898438 0.000000 m /d glyphshow
152.246094 0.000000 m /space glyphshow
155.424805 0.000000 m /B glyphshow
162.285156 0.000000 m /a glyphshow
168.413086 0.000000 m /t glyphshow
172.333984 0.000000 m /h glyphshow
grestore
2.000 setlinewidth
2 setlinecap
[] 0 setdash
gsave
171 892.63625 m
191 892.63625 l
stroke
grestore
gsave
199.000000 889.136250 translate
0.000000 rotate
0.000000 0.000000 m /T glyphshow
6.092773 0.000000 m /o glyphshow
12.210938 0.000000 m /t glyphshow
16.131836 0.000000 m /a glyphshow
22.259766 0.000000 m /l glyphshow
25.038086 0.000000 m /space glyphshow
28.216797 0.000000 m /N glyphshow
35.697266 0.000000 m /o glyphshow
41.815430 0.000000 m /i glyphshow
44.593750 0.000000 m /s glyphshow
49.803711 0.000000 m /e glyphshow
grestore
0 setlinecap
[2 3.3] 0 setdash
0.890 0.467 0.761 setrgbcolor
gsave
171 877.964375 m
191 877.964375 l
stroke
grestore
0.000 setgray
gsave
199.000000 874.464375 translate
0.000000 rotate
0.000000 0.000000 m /T glyphshow
6.092773 0.000000 m /o glyphshow
12.210938 0.000000 m /t glyphshow
16.131836 0.000000 m /a glyphshow
22.259766 0.000000 m /l glyphshow
25.038086 0.000000 m /space glyphshow
28.216797 0.000000 m /e glyphshow
34.369141 0.000000 m /x glyphshow
40.287109 0.000000 m /t glyphshow
44.208008 0.000000 m /r glyphshow
48.319336 0.000000 m /a glyphshow
54.447266 0.000000 m /space glyphshow
57.625977 0.000000 m /e glyphshow
63.778320 0.000000 m /l glyphshow
66.556641 0.000000 m /e glyphshow
72.708984 0.000000 m /c glyphshow
78.207031 0.000000 m /t glyphshow
82.127930 0.000000 m /r glyphshow
86.239258 0.000000 m /o glyphshow
92.357422 0.000000 m /n glyphshow
98.695312 0.000000 m /i glyphshow
101.473633 0.000000 m /c glyphshow
106.971680 0.000000 m /space glyphshow
110.150391 0.000000 m /n glyphshow
116.488281 0.000000 m /o glyphshow
122.606445 0.000000 m /i glyphshow
125.384766 0.000000 m /s glyphshow
130.594727 0.000000 m /e glyphshow
grestore
1.500 setlinewidth
[1.5 2.475] 0 setdash
0.498 setgray
gsave
171 863.2925 m
191 863.2925 l
stroke
grestore
0.000 setgray
gsave
199.000000 859.792500 translate
0.000000 rotate
0.000000 0.000000 m /F glyphshow
5.751953 0.000000 m /F glyphshow
11.503906 0.000000 m /T glyphshow
17.612305 0.000000 m /space glyphshow
20.791016 0.000000 m /o glyphshow
26.909180 0.000000 m /f glyphshow
30.429688 0.000000 m /space glyphshow
33.608398 0.000000 m /P glyphshow
39.638672 0.000000 m /u glyphshow
45.976562 0.000000 m /l glyphshow
48.754883 0.000000 m /s glyphshow
53.964844 0.000000 m /e glyphshow
grestore

end
showpage
