%!PS-Adobe-3.0 EPSF-3.0
%%Title: Frequency Spectrum 20mK pulse 29 March 2018.eps
%%Creator: matplotlib version 2.1.2, http://matplotlib.org/
%%CreationDate: Sun Apr 22 21:26:16 2018
%%Orientation: portrait
%%BoundingBox: -54 0 666 792
%%EndComments
%%BeginProlog
/mpldict 10 dict def
mpldict begin
/m { moveto } bind def
/l { lineto } bind def
/r { rlineto } bind def
/c { curveto } bind def
/cl { closepath } bind def
/box {
m
1 index 0 r
0 exch r
neg 0 r
cl
} bind def
/clipbox {
box
clip
newpath
} bind def
%!PS-Adobe-3.0 Resource-Font
%%Title: DejaVu Sans
%%Copyright: Copyright (c) 2003 by Bitstream, Inc. All Rights Reserved. Copyright (c) 2006 by Tavmjong Bah. All Rights Reserved. DejaVu changes are in public domain 
%%Creator: Converted from TrueType to type 3 by PPR
25 dict begin
/_d{bind def}bind def
/_m{moveto}_d
/_l{lineto}_d
/_cl{closepath eofill}_d
/_c{curveto}_d
/_sc{7 -1 roll{setcachedevice}{pop pop pop pop pop pop}ifelse}_d
/_e{exec}_d
/FontName /DejaVuSans def
/PaintType 0 def
/FontMatrix[.001 0 0 .001 0 0]def
/FontBBox[-1021 -463 1793 1232]def
/FontType 3 def
/Encoding [ /space /hyphen /slash /zero /one /two /three /four /five /six /seven /eight /colon /equal /A /B /C /E /F /G /H /I /J /M /N /P /S /T /W /bracketleft /bracketright /a /b /c /d /e /f /h /i /l /m /n /o /q /r /s /t /u /v /x /y /z /minus ] def
/FontInfo 10 dict dup begin
/FamilyName (DejaVu Sans) def
/FullName (DejaVu Sans) def
/Notice (Copyright (c) 2003 by Bitstream, Inc. All Rights Reserved. Copyright (c) 2006 by Tavmjong Bah. All Rights Reserved. DejaVu changes are in public domain ) def
/Weight (Book) def
/Version (Version 2.35) def
/ItalicAngle 0.0 def
/isFixedPitch false def
/UnderlinePosition -130 def
/UnderlineThickness 90 def
end readonly def
/CharStrings 54 dict dup begin
/.notdef 0 def
/space{318 0 0 0 0 0 _sc
}_d
/hyphen{361 0 49 234 312 314 _sc
49 314 _m
312 314 _l
312 234 _l
49 234 _l
49 314 _l
_cl}_d
/slash{337 0 0 -92 337 729 _sc
254 729 _m
337 729 _l
83 -92 _l
0 -92 _l
254 729 _l
_cl}_d
/zero{636 0 66 -13 570 742 _sc
318 664 _m
267 664 229 639 203 589 _c
177 539 165 464 165 364 _c
165 264 177 189 203 139 _c
229 89 267 64 318 64 _c
369 64 407 89 433 139 _c
458 189 471 264 471 364 _c
471 464 458 539 433 589 _c
407 639 369 664 318 664 _c
318 742 _m
399 742 461 709 505 645 _c
548 580 570 486 570 364 _c
570 241 548 147 505 83 _c
461 19 399 -13 318 -13 _c
236 -13 173 19 130 83 _c
87 147 66 241 66 364 _c
66 486 87 580 130 645 _c
173 709 236 742 318 742 _c
_cl}_d
/one{636 0 110 0 544 729 _sc
124 83 _m
285 83 _l
285 639 _l
110 604 _l
110 694 _l
284 729 _l
383 729 _l
383 83 _l
544 83 _l
544 0 _l
124 0 _l
124 83 _l
_cl}_d
/two{{636 0 73 0 536 742 _sc
192 83 _m
536 83 _l
536 0 _l
73 0 _l
73 83 _l
110 121 161 173 226 239 _c
290 304 331 346 348 365 _c
380 400 402 430 414 455 _c
426 479 433 504 433 528 _c
433 566 419 598 392 622 _c
365 646 330 659 286 659 _c
255 659 222 653 188 643 _c
154 632 117 616 78 594 _c
78 694 _l
118 710 155 722 189 730 _c
223 738 255 742 284 742 _c
}_e{359 742 419 723 464 685 _c
509 647 532 597 532 534 _c
532 504 526 475 515 449 _c
504 422 484 390 454 354 _c
446 344 420 317 376 272 _c
332 227 271 164 192 83 _c
_cl}_e}_d
/three{{636 0 76 -13 556 742 _sc
406 393 _m
453 383 490 362 516 330 _c
542 298 556 258 556 212 _c
556 140 531 84 482 45 _c
432 6 362 -13 271 -13 _c
240 -13 208 -10 176 -4 _c
144 1 110 10 76 22 _c
76 117 _l
103 101 133 89 166 81 _c
198 73 232 69 268 69 _c
330 69 377 81 409 105 _c
441 129 458 165 458 212 _c
458 254 443 288 413 312 _c
383 336 341 349 287 349 _c
}_e{202 349 _l
202 430 _l
291 430 _l
339 430 376 439 402 459 _c
428 478 441 506 441 543 _c
441 580 427 609 401 629 _c
374 649 336 659 287 659 _c
260 659 231 656 200 650 _c
169 644 135 635 98 623 _c
98 711 _l
135 721 170 729 203 734 _c
235 739 266 742 296 742 _c
370 742 429 725 473 691 _c
517 657 539 611 539 553 _c
539 513 527 479 504 451 _c
481 423 448 403 406 393 _c
_cl}_e}_d
/four{636 0 49 0 580 729 _sc
378 643 _m
129 254 _l
378 254 _l
378 643 _l
352 729 _m
476 729 _l
476 254 _l
580 254 _l
580 172 _l
476 172 _l
476 0 _l
378 0 _l
378 172 _l
49 172 _l
49 267 _l
352 729 _l
_cl}_d
/five{{636 0 77 -13 549 729 _sc
108 729 _m
495 729 _l
495 646 _l
198 646 _l
198 467 _l
212 472 227 476 241 478 _c
255 480 270 482 284 482 _c
365 482 429 459 477 415 _c
525 370 549 310 549 234 _c
549 155 524 94 475 51 _c
426 8 357 -13 269 -13 _c
238 -13 207 -10 175 -6 _c
143 -1 111 6 77 17 _c
77 116 _l
106 100 136 88 168 80 _c
199 72 232 69 267 69 _c
}_e{323 69 368 83 401 113 _c
433 143 450 183 450 234 _c
450 284 433 324 401 354 _c
368 384 323 399 267 399 _c
241 399 214 396 188 390 _c
162 384 135 375 108 363 _c
108 729 _l
_cl}_e}_d
/six{{636 0 70 -13 573 742 _sc
330 404 _m
286 404 251 388 225 358 _c
199 328 186 286 186 234 _c
186 181 199 139 225 109 _c
251 79 286 64 330 64 _c
374 64 409 79 435 109 _c
461 139 474 181 474 234 _c
474 286 461 328 435 358 _c
409 388 374 404 330 404 _c
526 713 _m
526 623 _l
501 635 476 644 451 650 _c
425 656 400 659 376 659 _c
310 659 260 637 226 593 _c
}_e{192 549 172 482 168 394 _c
187 422 211 444 240 459 _c
269 474 301 482 336 482 _c
409 482 467 459 509 415 _c
551 371 573 310 573 234 _c
573 159 550 99 506 54 _c
462 9 403 -13 330 -13 _c
246 -13 181 19 137 83 _c
92 147 70 241 70 364 _c
70 479 97 571 152 639 _c
206 707 280 742 372 742 _c
396 742 421 739 447 735 _c
472 730 498 723 526 713 _c
_cl}_e}_d
/seven{636 0 82 0 551 729 _sc
82 729 _m
551 729 _l
551 687 _l
286 0 _l
183 0 _l
432 646 _l
82 646 _l
82 729 _l
_cl}_d
/eight{{636 0 68 -13 568 742 _sc
318 346 _m
271 346 234 333 207 308 _c
180 283 167 249 167 205 _c
167 161 180 126 207 101 _c
234 76 271 64 318 64 _c
364 64 401 76 428 102 _c
455 127 469 161 469 205 _c
469 249 455 283 429 308 _c
402 333 365 346 318 346 _c
219 388 _m
177 398 144 418 120 447 _c
96 476 85 511 85 553 _c
85 611 105 657 147 691 _c
188 725 245 742 318 742 _c
}_e{390 742 447 725 489 691 _c
530 657 551 611 551 553 _c
551 511 539 476 515 447 _c
491 418 459 398 417 388 _c
464 377 501 355 528 323 _c
554 291 568 251 568 205 _c
568 134 546 80 503 43 _c
459 5 398 -13 318 -13 _c
237 -13 175 5 132 43 _c
89 80 68 134 68 205 _c
68 251 81 291 108 323 _c
134 355 171 377 219 388 _c
183 544 _m
183 506 194 476 218 455 _c
}_e{242 434 275 424 318 424 _c
360 424 393 434 417 455 _c
441 476 453 506 453 544 _c
453 582 441 611 417 632 _c
393 653 360 664 318 664 _c
275 664 242 653 218 632 _c
194 611 183 582 183 544 _c
_cl}_e}_d
/colon{337 0 117 0 220 517 _sc
117 124 _m
220 124 _l
220 0 _l
117 0 _l
117 124 _l
117 517 _m
220 517 _l
220 393 _l
117 393 _l
117 517 _l
_cl}_d
/equal{838 0 106 172 732 454 _sc
106 454 _m
732 454 _l
732 372 _l
106 372 _l
106 454 _l
106 255 _m
732 255 _l
732 172 _l
106 172 _l
106 255 _l
_cl}_d
/A{684 0 8 0 676 729 _sc
342 632 _m
208 269 _l
476 269 _l
342 632 _l
286 729 _m
398 729 _l
676 0 _l
573 0 _l
507 187 _l
178 187 _l
112 0 _l
8 0 _l
286 729 _l
_cl}_d
/B{{686 0 98 0 615 729 _sc
197 348 _m
197 81 _l
355 81 _l
408 81 447 92 473 114 _c
498 136 511 169 511 215 _c
511 260 498 293 473 315 _c
447 337 408 348 355 348 _c
197 348 _l
197 648 _m
197 428 _l
343 428 _l
391 428 426 437 450 455 _c
474 473 486 500 486 538 _c
486 574 474 602 450 620 _c
426 638 391 648 343 648 _c
197 648 _l
98 729 _m
350 729 _l
}_e{425 729 483 713 524 682 _c
564 650 585 606 585 549 _c
585 504 574 468 553 442 _c
532 416 502 399 462 393 _c
510 382 548 360 575 327 _c
601 294 615 253 615 204 _c
615 138 592 88 548 53 _c
504 17 441 0 360 0 _c
98 0 _l
98 729 _l
_cl}_e}_d
/C{{698 0 56 -13 644 742 _sc
644 673 _m
644 569 _l
610 599 575 622 537 638 _c
499 653 460 661 418 661 _c
334 661 270 635 226 584 _c
182 533 160 460 160 364 _c
160 268 182 194 226 143 _c
270 92 334 67 418 67 _c
460 67 499 74 537 90 _c
575 105 610 128 644 159 _c
644 56 _l
609 32 572 15 534 4 _c
496 -7 455 -13 412 -13 _c
302 -13 215 20 151 87 _c
}_e{87 154 56 246 56 364 _c
56 481 87 573 151 641 _c
215 708 302 742 412 742 _c
456 742 497 736 535 725 _c
573 713 610 696 644 673 _c
_cl}_e}_d
/E{632 0 98 0 568 729 _sc
98 729 _m
559 729 _l
559 646 _l
197 646 _l
197 430 _l
544 430 _l
544 347 _l
197 347 _l
197 83 _l
568 83 _l
568 0 _l
98 0 _l
98 729 _l
_cl}_d
/F{575 0 98 0 517 729 _sc
98 729 _m
517 729 _l
517 646 _l
197 646 _l
197 431 _l
486 431 _l
486 348 _l
197 348 _l
197 0 _l
98 0 _l
98 729 _l
_cl}_d
/G{{775 0 56 -13 693 742 _sc
595 104 _m
595 300 _l
434 300 _l
434 381 _l
693 381 _l
693 68 _l
655 40 613 20 567 7 _c
521 -6 472 -13 420 -13 _c
306 -13 216 20 152 86 _c
88 152 56 245 56 364 _c
56 482 88 575 152 642 _c
216 708 306 742 420 742 _c
467 742 512 736 555 724 _c
598 712 638 695 674 673 _c
674 568 _l
637 598 598 621 557 637 _c
516 653 473 661 428 661 _c
}_e{338 661 271 636 227 586 _c
182 536 160 462 160 364 _c
160 265 182 191 227 141 _c
271 91 338 67 428 67 _c
462 67 493 70 521 76 _c
549 82 573 91 595 104 _c
_cl}_e}_d
/H{752 0 98 0 654 729 _sc
98 729 _m
197 729 _l
197 430 _l
555 430 _l
555 729 _l
654 729 _l
654 0 _l
555 0 _l
555 347 _l
197 347 _l
197 0 _l
98 0 _l
98 729 _l
_cl}_d
/I{295 0 98 0 197 729 _sc
98 729 _m
197 729 _l
197 0 _l
98 0 _l
98 729 _l
_cl}_d
/J{295 0 -51 -199 197 729 _sc
98 729 _m
197 729 _l
197 51 _l
197 -36 180 -99 147 -139 _c
113 -179 60 -199 -13 -199 _c
-51 -199 _l
-51 -116 _l
-20 -116 _l
22 -116 53 -103 71 -79 _c
89 -55 98 -11 98 51 _c
98 729 _l
_cl}_d
/M{863 0 98 0 765 729 _sc
98 729 _m
245 729 _l
431 233 _l
618 729 _l
765 729 _l
765 0 _l
669 0 _l
669 640 _l
481 140 _l
382 140 _l
194 640 _l
194 0 _l
98 0 _l
98 729 _l
_cl}_d
/N{748 0 98 0 650 729 _sc
98 729 _m
231 729 _l
554 119 _l
554 729 _l
650 729 _l
650 0 _l
517 0 _l
194 610 _l
194 0 _l
98 0 _l
98 729 _l
_cl}_d
/P{603 0 98 0 569 729 _sc
197 648 _m
197 374 _l
321 374 _l
367 374 402 385 427 409 _c
452 433 465 467 465 511 _c
465 555 452 588 427 612 _c
402 636 367 648 321 648 _c
197 648 _l
98 729 _m
321 729 _l
402 729 464 710 506 673 _c
548 636 569 582 569 511 _c
569 439 548 384 506 348 _c
464 311 402 293 321 293 _c
197 293 _l
197 0 _l
98 0 _l
98 729 _l
_cl}_d
/S{{635 0 66 -13 579 742 _sc
535 705 _m
535 609 _l
497 627 462 640 429 649 _c
395 657 363 662 333 662 _c
279 662 237 651 208 631 _c
179 610 165 580 165 542 _c
165 510 174 485 194 469 _c
213 452 250 439 304 429 _c
364 417 _l
437 403 491 378 526 343 _c
561 307 579 260 579 201 _c
579 130 555 77 508 41 _c
460 5 391 -13 300 -13 _c
265 -13 228 -9 189 -2 _c
}_e{150 5 110 16 69 32 _c
69 134 _l
109 111 148 94 186 83 _c
224 71 262 66 300 66 _c
356 66 399 77 430 99 _c
460 121 476 152 476 194 _c
476 230 465 258 443 278 _c
421 298 385 313 335 323 _c
275 335 _l
201 349 148 372 115 404 _c
82 435 66 478 66 534 _c
66 598 88 649 134 686 _c
179 723 242 742 322 742 _c
356 742 390 739 426 733 _c
461 727 497 717 535 705 _c
}_e{_cl}_e}_d
/T{611 0 -2 0 614 729 _sc
-2 729 _m
614 729 _l
614 646 _l
355 646 _l
355 0 _l
256 0 _l
256 646 _l
-2 646 _l
-2 729 _l
_cl}_d
/W{989 0 33 0 956 729 _sc
33 729 _m
133 729 _l
286 113 _l
439 729 _l
550 729 _l
703 113 _l
856 729 _l
956 729 _l
773 0 _l
649 0 _l
495 633 _l
340 0 _l
216 0 _l
33 729 _l
_cl}_d
/bracketleft{390 0 86 -131 293 760 _sc
86 760 _m
293 760 _l
293 690 _l
176 690 _l
176 -61 _l
293 -61 _l
293 -131 _l
86 -131 _l
86 760 _l
_cl}_d
/bracketright{390 0 97 -131 304 760 _sc
304 760 _m
304 -131 _l
97 -131 _l
97 -61 _l
214 -61 _l
214 690 _l
97 690 _l
97 760 _l
304 760 _l
_cl}_d
/a{{613 0 60 -13 522 560 _sc
343 275 _m
270 275 220 266 192 250 _c
164 233 150 205 150 165 _c
150 133 160 107 181 89 _c
202 70 231 61 267 61 _c
317 61 357 78 387 114 _c
417 149 432 196 432 255 _c
432 275 _l
343 275 _l
522 312 _m
522 0 _l
432 0 _l
432 83 _l
411 49 385 25 355 10 _c
325 -5 287 -13 243 -13 _c
187 -13 142 2 109 33 _c
76 64 60 106 60 159 _c
}_e{60 220 80 266 122 298 _c
163 329 224 345 306 345 _c
432 345 _l
432 354 _l
432 395 418 427 391 450 _c
364 472 326 484 277 484 _c
245 484 215 480 185 472 _c
155 464 127 453 100 439 _c
100 522 _l
132 534 164 544 195 550 _c
226 556 256 560 286 560 _c
365 560 424 539 463 498 _c
502 457 522 395 522 312 _c
_cl}_e}_d
/b{{635 0 91 -13 580 760 _sc
487 273 _m
487 339 473 390 446 428 _c
418 466 381 485 334 485 _c
286 485 249 466 222 428 _c
194 390 181 339 181 273 _c
181 207 194 155 222 117 _c
249 79 286 61 334 61 _c
381 61 418 79 446 117 _c
473 155 487 207 487 273 _c
181 464 _m
199 496 223 520 252 536 _c
281 552 316 560 356 560 _c
422 560 476 533 518 481 _c
559 428 580 359 580 273 _c
}_e{580 187 559 117 518 65 _c
476 13 422 -13 356 -13 _c
316 -13 281 -5 252 10 _c
223 25 199 49 181 82 _c
181 0 _l
91 0 _l
91 760 _l
181 760 _l
181 464 _l
_cl}_e}_d
/c{{550 0 55 -13 488 560 _sc
488 526 _m
488 442 _l
462 456 437 466 411 473 _c
385 480 360 484 334 484 _c
276 484 230 465 198 428 _c
166 391 150 339 150 273 _c
150 206 166 154 198 117 _c
230 80 276 62 334 62 _c
360 62 385 65 411 72 _c
437 79 462 90 488 104 _c
488 21 _l
462 9 436 0 410 -5 _c
383 -10 354 -13 324 -13 _c
242 -13 176 12 128 64 _c
}_e{79 115 55 185 55 273 _c
55 362 79 432 128 483 _c
177 534 244 560 330 560 _c
358 560 385 557 411 551 _c
437 545 463 537 488 526 _c
_cl}_e}_d
/d{{635 0 55 -13 544 760 _sc
454 464 _m
454 760 _l
544 760 _l
544 0 _l
454 0 _l
454 82 _l
435 49 411 25 382 10 _c
353 -5 319 -13 279 -13 _c
213 -13 159 13 117 65 _c
75 117 55 187 55 273 _c
55 359 75 428 117 481 _c
159 533 213 560 279 560 _c
319 560 353 552 382 536 _c
411 520 435 496 454 464 _c
148 273 _m
148 207 161 155 188 117 _c
215 79 253 61 301 61 _c
}_e{348 61 385 79 413 117 _c
440 155 454 207 454 273 _c
454 339 440 390 413 428 _c
385 466 348 485 301 485 _c
253 485 215 466 188 428 _c
161 390 148 339 148 273 _c
_cl}_e}_d
/e{{615 0 55 -13 562 560 _sc
562 296 _m
562 252 _l
149 252 _l
153 190 171 142 205 110 _c
238 78 284 62 344 62 _c
378 62 412 66 444 74 _c
476 82 509 95 541 113 _c
541 28 _l
509 14 476 3 442 -3 _c
408 -9 373 -13 339 -13 _c
251 -13 182 12 131 62 _c
80 112 55 181 55 268 _c
55 357 79 428 127 481 _c
175 533 241 560 323 560 _c
397 560 455 536 498 489 _c
}_e{540 441 562 377 562 296 _c
472 322 _m
471 371 457 410 431 440 _c
404 469 368 484 324 484 _c
274 484 234 469 204 441 _c
174 413 156 373 152 322 _c
472 322 _l
_cl}_e}_d
/f{352 0 23 0 371 760 _sc
371 760 _m
371 685 _l
285 685 _l
253 685 230 678 218 665 _c
205 652 199 629 199 595 _c
199 547 _l
347 547 _l
347 477 _l
199 477 _l
199 0 _l
109 0 _l
109 477 _l
23 477 _l
23 547 _l
109 547 _l
109 585 _l
109 645 123 690 151 718 _c
179 746 224 760 286 760 _c
371 760 _l
_cl}_d
/h{634 0 91 0 549 760 _sc
549 330 _m
549 0 _l
459 0 _l
459 327 _l
459 379 448 417 428 443 _c
408 469 378 482 338 482 _c
289 482 251 466 223 435 _c
195 404 181 362 181 309 _c
181 0 _l
91 0 _l
91 760 _l
181 760 _l
181 462 _l
202 494 227 519 257 535 _c
286 551 320 560 358 560 _c
420 560 468 540 500 501 _c
532 462 549 405 549 330 _c
_cl}_d
/i{278 0 94 0 184 760 _sc
94 547 _m
184 547 _l
184 0 _l
94 0 _l
94 547 _l
94 760 _m
184 760 _l
184 646 _l
94 646 _l
94 760 _l
_cl}_d
/l{278 0 94 0 184 760 _sc
94 760 _m
184 760 _l
184 0 _l
94 0 _l
94 760 _l
_cl}_d
/m{{974 0 91 0 889 560 _sc
520 442 _m
542 482 569 511 600 531 _c
631 550 668 560 711 560 _c
767 560 811 540 842 500 _c
873 460 889 403 889 330 _c
889 0 _l
799 0 _l
799 327 _l
799 379 789 418 771 444 _c
752 469 724 482 686 482 _c
639 482 602 466 575 435 _c
548 404 535 362 535 309 _c
535 0 _l
445 0 _l
445 327 _l
445 379 435 418 417 444 _c
398 469 369 482 331 482 _c
}_e{285 482 248 466 221 435 _c
194 404 181 362 181 309 _c
181 0 _l
91 0 _l
91 547 _l
181 547 _l
181 462 _l
201 495 226 520 255 536 _c
283 552 317 560 357 560 _c
397 560 430 550 458 530 _c
486 510 506 480 520 442 _c
_cl}_e}_d
/n{634 0 91 0 549 560 _sc
549 330 _m
549 0 _l
459 0 _l
459 327 _l
459 379 448 417 428 443 _c
408 469 378 482 338 482 _c
289 482 251 466 223 435 _c
195 404 181 362 181 309 _c
181 0 _l
91 0 _l
91 547 _l
181 547 _l
181 462 _l
202 494 227 519 257 535 _c
286 551 320 560 358 560 _c
420 560 468 540 500 501 _c
532 462 549 405 549 330 _c
_cl}_d
/o{612 0 55 -13 557 560 _sc
306 484 _m
258 484 220 465 192 427 _c
164 389 150 338 150 273 _c
150 207 163 156 191 118 _c
219 80 257 62 306 62 _c
354 62 392 80 420 118 _c
448 156 462 207 462 273 _c
462 337 448 389 420 427 _c
392 465 354 484 306 484 _c
306 560 _m
384 560 445 534 490 484 _c
534 433 557 363 557 273 _c
557 183 534 113 490 63 _c
445 12 384 -13 306 -13 _c
227 -13 165 12 121 63 _c
77 113 55 183 55 273 _c
55 363 77 433 121 484 _c
165 534 227 560 306 560 _c
_cl}_d
/q{{635 0 55 -207 544 560 _sc
148 273 _m
148 207 161 155 188 117 _c
215 79 253 61 301 61 _c
348 61 385 79 413 117 _c
440 155 454 207 454 273 _c
454 339 440 390 413 428 _c
385 466 348 485 301 485 _c
253 485 215 466 188 428 _c
161 390 148 339 148 273 _c
454 82 _m
435 49 411 25 382 10 _c
353 -5 319 -13 279 -13 _c
213 -13 159 13 117 65 _c
75 117 55 187 55 273 _c
}_e{55 359 75 428 117 481 _c
159 533 213 560 279 560 _c
319 560 353 552 382 536 _c
411 520 435 496 454 464 _c
454 547 _l
544 547 _l
544 -207 _l
454 -207 _l
454 82 _l
_cl}_e}_d
/r{411 0 91 0 411 560 _sc
411 463 _m
401 469 390 473 378 476 _c
366 478 353 480 339 480 _c
288 480 249 463 222 430 _c
194 397 181 350 181 288 _c
181 0 _l
91 0 _l
91 547 _l
181 547 _l
181 462 _l
199 495 224 520 254 536 _c
284 552 321 560 365 560 _c
371 560 378 559 386 559 _c
393 558 401 557 411 555 _c
411 463 _l
_cl}_d
/s{{521 0 54 -13 472 560 _sc
443 531 _m
443 446 _l
417 458 391 468 364 475 _c
336 481 308 485 279 485 _c
234 485 200 478 178 464 _c
156 450 145 430 145 403 _c
145 382 153 366 169 354 _c
185 342 217 330 265 320 _c
296 313 _l
360 299 405 279 432 255 _c
458 230 472 195 472 151 _c
472 100 452 60 412 31 _c
372 1 316 -13 246 -13 _c
216 -13 186 -10 154 -5 _c
}_e{122 0 89 8 54 20 _c
54 113 _l
87 95 120 82 152 74 _c
184 65 216 61 248 61 _c
290 61 323 68 346 82 _c
368 96 380 117 380 144 _c
380 168 371 187 355 200 _c
339 213 303 226 247 238 _c
216 245 _l
160 257 119 275 95 299 _c
70 323 58 356 58 399 _c
58 450 76 490 112 518 _c
148 546 200 560 268 560 _c
301 560 332 557 362 552 _c
391 547 418 540 443 531 _c
}_e{_cl}_e}_d
/t{392 0 27 0 368 702 _sc
183 702 _m
183 547 _l
368 547 _l
368 477 _l
183 477 _l
183 180 _l
183 135 189 106 201 94 _c
213 81 238 75 276 75 _c
368 75 _l
368 0 _l
276 0 _l
206 0 158 13 132 39 _c
106 65 93 112 93 180 _c
93 477 _l
27 477 _l
27 547 _l
93 547 _l
93 702 _l
183 702 _l
_cl}_d
/u{634 0 85 -13 543 560 _sc
85 216 _m
85 547 _l
175 547 _l
175 219 _l
175 167 185 129 205 103 _c
225 77 255 64 296 64 _c
344 64 383 79 411 110 _c
439 141 453 183 453 237 _c
453 547 _l
543 547 _l
543 0 _l
453 0 _l
453 84 _l
431 50 405 26 377 10 _c
348 -5 315 -13 277 -13 _c
214 -13 166 6 134 45 _c
101 83 85 140 85 216 _c
311 560 _m
311 560 _l
_cl}_d
/v{592 0 30 0 562 547 _sc
30 547 _m
125 547 _l
296 88 _l
467 547 _l
562 547 _l
357 0 _l
235 0 _l
30 547 _l
_cl}_d
/x{592 0 29 0 559 547 _sc
549 547 _m
351 281 _l
559 0 _l
453 0 _l
294 215 _l
135 0 _l
29 0 _l
241 286 _l
47 547 _l
153 547 _l
298 352 _l
443 547 _l
549 547 _l
_cl}_d
/y{592 0 30 -207 562 547 _sc
322 -50 _m
296 -114 271 -157 247 -177 _c
223 -197 191 -207 151 -207 _c
79 -207 _l
79 -132 _l
132 -132 _l
156 -132 175 -126 189 -114 _c
203 -102 218 -75 235 -31 _c
251 9 _l
30 547 _l
125 547 _l
296 119 _l
467 547 _l
562 547 _l
322 -50 _l
_cl}_d
/z{525 0 43 0 482 547 _sc
55 547 _m
482 547 _l
482 465 _l
144 72 _l
482 72 _l
482 0 _l
43 0 _l
43 82 _l
381 475 _l
55 475 _l
55 547 _l
_cl}_d
/minus{838 0 106 272 732 355 _sc
106 355 _m
732 355 _l
732 272 _l
106 272 _l
106 355 _l
_cl}_d
end readonly def

/BuildGlyph
 {exch begin
 CharStrings exch
 2 copy known not{pop /.notdef}if
 true 3 1 roll get exec
 end}_d

/BuildChar {
 1 index /Encoding get exch get
 1 index /BuildGlyph get exec
}_d

FontName currentdict end definefont pop
%!PS-Adobe-3.0 Resource-Font
%%Title: DejaVu Sans Oblique
%%Copyright: Copyright (c) 2003 by Bitstream, Inc. All Rights Reserved. Copyright (c) 2006 by Tavmjong Bah. All Rights Reserved. DejaVu changes are in public domain 
%%Creator: Converted from TrueType to type 3 by PPR
25 dict begin
/_d{bind def}bind def
/_m{moveto}_d
/_l{lineto}_d
/_cl{closepath eofill}_d
/_c{curveto}_d
/_sc{7 -1 roll{setcachedevice}{pop pop pop pop pop pop}ifelse}_d
/_e{exec}_d
/FontName /DejaVuSans-Oblique def
/PaintType 0 def
/FontMatrix[.001 0 0 .001 0 0]def
/FontBBox[-1016 -350 1659 1068]def
/FontType 3 def
/Encoding [ /H /z /tau ] def
/FontInfo 10 dict dup begin
/FamilyName (DejaVu Sans) def
/FullName (DejaVu Sans Oblique) def
/Notice (Copyright (c) 2003 by Bitstream, Inc. All Rights Reserved. Copyright (c) 2006 by Tavmjong Bah. All Rights Reserved. DejaVu changes are in public domain ) def
/Weight (Oblique) def
/Version (Version 2.35) def
/ItalicAngle -11.0 def
/isFixedPitch false def
/UnderlinePosition -130 def
/UnderlineThickness 90 def
end readonly def
/CharStrings 4 dict dup begin
/.notdef 0 def
/H{752 0 27 0 725 729 _sc
169 729 _m
268 729 _l
210 430 _l
568 430 _l
626 729 _l
725 729 _l
583 0 _l
484 0 _l
552 347 _l
194 347 _l
126 0 _l
27 0 _l
169 729 _l
_cl}_d
/z{525 0 -2 0 543 547 _sc
116 547 _m
543 547 _l
527 465 _l
115 72 _l
455 72 _l
441 0 _l
-2 0 _l
13 82 _l
425 475 _l
102 475 _l
116 547 _l
_cl}_d
/tau{602 0 84 0 606 547 _sc
329 100 _m
337 84 359 76 395 76 _c
438 76 _l
423 0 _l
369 0 _l
310 0 270 15 250 47 _c
229 79 226 129 240 198 _c
290 457 _l
84 457 _l
102 547 _l
606 547 _l
589 457 _l
382 457 _l
330 193 _l
320 145 320 114 329 100 _c
_cl}_d
end readonly def

/BuildGlyph
 {exch begin
 CharStrings exch
 2 copy known not{pop /.notdef}if
 true 3 1 roll get exec
 end}_d

/BuildChar {
 1 index /Encoding get exch get
 1 index /BuildGlyph get exec
}_d

FontName currentdict end definefont pop
%!PS-Adobe-3.0 Resource-Font
%%Title: STIXSizeOneSym-Regular
%%Copyright: Copyright (c) 2001-2010 by the STI Pub Companies, consisting of the American Chemical Society, the American Institute of Physics, the American Mathematical Society, the American Physical Society, Elsevier, Inc., and The Institute of Electrical and Electronic Engineers, Inc. Portions copyright (c) 1998-2003 by MicroPress, Inc. Portions copyright (c) 1990 by Elsevier, Inc. All rights reserved.
%%Creator: Converted from TrueType to type 3 by PPR
25 dict begin
/_d{bind def}bind def
/_m{moveto}_d
/_l{lineto}_d
/_cl{closepath eofill}_d
/_c{curveto}_d
/_sc{7 -1 roll{setcachedevice}{pop pop pop pop pop pop}ifelse}_d
/_e{exec}_d
/FontName /STIXSizeOneSym-Regular def
/PaintType 0 def
/FontMatrix[.001 0 0 .001 0 0]def
/FontBBox[-1000 -363 1503 1566]def
/FontType 3 def
/Encoding [ /uni221A ] def
/FontInfo 10 dict dup begin
/FamilyName (STIXSizeOneSym) def
/FullName (STIXSizeOneSym-Regular) def
/Notice (Copyright (c) 2001-2010 by the STI Pub Companies, consisting of the American Chemical Society, the American Institute of Physics, the American Mathematical Society, the American Physical Society, Elsevier, Inc., and The Institute of Electrical and Electronic Engineers, Inc. Portions copyright (c) 1998-2003 by MicroPress, Inc. Portions copyright (c) 1990 by Elsevier, Inc. All rights reserved. STIX Fonts(TM) is a trademark of The Institute of Electrical and Electronics Engineers, Inc.) def
/Weight (Regular) def
/Version (Version 1.0.0) def
/ItalicAngle 0.0 def
/isFixedPitch false def
/UnderlinePosition -123 def
/UnderlineThickness 20 def
end readonly def
/CharStrings 2 dict dup begin
/.notdef 0 def
/uni221A{1057 0 112 -294 1089 1552 _sc
1089 1552 _m
527 -294 _l
485 -294 _l
254 456 _l
246 480 238 497 229 508 _c
219 518 207 524 192 524 _c
169 524 146 515 124 497 _c
112 517 _l
276 643 _l
301 643 _l
528 -93 _l
532 -93 _l
1032 1552 _l
1089 1552 _l
_cl}_d
end readonly def

/BuildGlyph
 {exch begin
 CharStrings exch
 2 copy known not{pop /.notdef}if
 true 3 1 roll get exec
 end}_d

/BuildChar {
 1 index /Encoding get exch get
 1 index /BuildGlyph get exec
}_d

FontName currentdict end definefont pop
end
%%EndProlog
mpldict begin
-54 0 translate
720 792 0 0 clipbox
gsave
0 0 m
720 0 l
720 792 l
0 792 l
cl
1.000 setgray
fill
grestore
gsave
90 99 m
648 99 l
648 696.96 l
90 696.96 l
cl
1.000 setgray
fill
grestore
0.800 setlinewidth
1 setlinejoin
2 setlinecap
[] 0 setdash
0.690 setgray
gsave
558 598 90 99 clipbox
171.727273 99 m
171.727273 696.96 l
stroke
grestore
0 setlinecap
0.000 setgray
gsave
/o {
gsave
newpath
translate
0.8 setlinewidth
1 setlinejoin
0 setlinecap
0 0 m
0 -3.5 l

gsave
0.000 setgray
fill
grestore
stroke
grestore
} bind def
171.727 99 o
grestore
gsave
153.727273 80.125000 translate
0.000000 rotate
/DejaVuSans findfont
15.0 scalefont
setfont
0.000000 0.601562 moveto
/one glyphshow

9.543457 0.601562 moveto
/zero glyphshow

/DejaVuSans findfont
10.5 scalefont
setfont
19.230469 6.343750 moveto
/minus glyphshow

28.028320 6.343750 moveto
/one glyphshow


grestore
2 setlinecap
0.690 setgray
gsave
558 598 90 99 clipbox
284.454545 99 m
284.454545 696.96 l
stroke
grestore
0 setlinecap
0.000 setgray
gsave
/o {
gsave
newpath
translate
0.8 setlinewidth
1 setlinejoin
0 setlinecap
0 0 m
0 -3.5 l

gsave
0.000 setgray
fill
grestore
stroke
grestore
} bind def
284.455 99 o
grestore
gsave
270.954545 80.125000 translate
0.000000 rotate
/DejaVuSans findfont
15.0 scalefont
setfont
0.000000 0.601562 moveto
/one glyphshow

9.543457 0.601562 moveto
/zero glyphshow

/DejaVuSans findfont
10.5 scalefont
setfont
19.230469 6.343750 moveto
/one glyphshow


grestore
2 setlinecap
0.690 setgray
gsave
558 598 90 99 clipbox
397.181818 99 m
397.181818 696.96 l
stroke
grestore
0 setlinecap
0.000 setgray
gsave
/o {
gsave
newpath
translate
0.8 setlinewidth
1 setlinejoin
0 setlinecap
0 0 m
0 -3.5 l

gsave
0.000 setgray
fill
grestore
stroke
grestore
} bind def
397.182 99 o
grestore
gsave
383.681818 80.125000 translate
0.000000 rotate
/DejaVuSans findfont
15.0 scalefont
setfont
0.000000 0.459375 moveto
/one glyphshow

9.543457 0.459375 moveto
/zero glyphshow

/DejaVuSans findfont
10.5 scalefont
setfont
19.230469 6.201563 moveto
/three glyphshow


grestore
2 setlinecap
0.690 setgray
gsave
558 598 90 99 clipbox
509.909091 99 m
509.909091 696.96 l
stroke
grestore
0 setlinecap
0.000 setgray
gsave
/o {
gsave
newpath
translate
0.8 setlinewidth
1 setlinejoin
0 setlinecap
0 0 m
0 -3.5 l

gsave
0.000 setgray
fill
grestore
stroke
grestore
} bind def
509.909 99 o
grestore
gsave
496.409091 80.125000 translate
0.000000 rotate
/DejaVuSans findfont
15.0 scalefont
setfont
0.000000 0.601562 moveto
/one glyphshow

9.543457 0.601562 moveto
/zero glyphshow

/DejaVuSans findfont
10.5 scalefont
setfont
19.230469 6.343750 moveto
/five glyphshow


grestore
2 setlinecap
0.690 setgray
gsave
558 598 90 99 clipbox
622.636364 99 m
622.636364 696.96 l
stroke
grestore
0 setlinecap
0.000 setgray
gsave
/o {
gsave
newpath
translate
0.8 setlinewidth
1 setlinejoin
0 setlinecap
0 0 m
0 -3.5 l

gsave
0.000 setgray
fill
grestore
stroke
grestore
} bind def
622.636 99 o
grestore
gsave
609.136364 80.125000 translate
0.000000 rotate
/DejaVuSans findfont
15.0 scalefont
setfont
0.000000 0.601562 moveto
/one glyphshow

9.543457 0.601562 moveto
/zero glyphshow

/DejaVuSans findfont
10.5 scalefont
setfont
19.230469 6.343750 moveto
/seven glyphshow


grestore
/DejaVuSans findfont
15.000 scalefont
setfont
gsave
311.718750 61.609375 translate
0.000000 rotate
0.000000 0.000000 m /F glyphshow
8.612305 0.000000 m /r glyphshow
14.779297 0.000000 m /e glyphshow
24.007812 0.000000 m /q glyphshow
33.529297 0.000000 m /u glyphshow
43.036133 0.000000 m /e glyphshow
52.264648 0.000000 m /n glyphshow
61.771484 0.000000 m /c glyphshow
70.018555 0.000000 m /y glyphshow
78.895508 0.000000 m /space glyphshow
83.663574 0.000000 m /bracketleft glyphshow
89.515625 0.000000 m /H glyphshow
100.794922 0.000000 m /z glyphshow
108.668457 0.000000 m /bracketright glyphshow
grestore
2 setlinecap
0.690 setgray
gsave
558 598 90 99 clipbox
90 208.827625 m
648 208.827625 l
stroke
grestore
0 setlinecap
0.000 setgray
gsave
/o {
gsave
newpath
translate
0.8 setlinewidth
1 setlinejoin
0 setlinecap
0 0 m
-3.5 0 l

gsave
0.000 setgray
fill
grestore
stroke
grestore
} bind def
90 208.828 o
grestore
gsave
41.000000 202.890125 translate
0.000000 rotate
/DejaVuSans findfont
15.0 scalefont
setfont
0.000000 0.459375 moveto
/one glyphshow

9.543457 0.459375 moveto
/zero glyphshow

/DejaVuSans findfont
10.5 scalefont
setfont
19.230469 6.201563 moveto
/minus glyphshow

28.028320 6.201563 moveto
/two glyphshow

34.708740 6.201563 moveto
/zero glyphshow


grestore
2 setlinecap
0.690 setgray
gsave
558 598 90 99 clipbox
90 322.627098 m
648 322.627098 l
stroke
grestore
0 setlinecap
0.000 setgray
gsave
/o {
gsave
newpath
translate
0.8 setlinewidth
1 setlinejoin
0 setlinecap
0 0 m
-3.5 0 l

gsave
0.000 setgray
fill
grestore
stroke
grestore
} bind def
90 322.627 o
grestore
gsave
41.000000 316.689598 translate
0.000000 rotate
/DejaVuSans findfont
15.0 scalefont
setfont
0.000000 0.459375 moveto
/one glyphshow

9.543457 0.459375 moveto
/zero glyphshow

/DejaVuSans findfont
10.5 scalefont
setfont
19.230469 6.201563 moveto
/minus glyphshow

28.028320 6.201563 moveto
/one glyphshow

34.708740 6.201563 moveto
/eight glyphshow


grestore
2 setlinecap
0.690 setgray
gsave
558 598 90 99 clipbox
90 436.42657 m
648 436.42657 l
stroke
grestore
0 setlinecap
0.000 setgray
gsave
/o {
gsave
newpath
translate
0.8 setlinewidth
1 setlinejoin
0 setlinecap
0 0 m
-3.5 0 l

gsave
0.000 setgray
fill
grestore
stroke
grestore
} bind def
90 436.427 o
grestore
gsave
41.000000 430.489070 translate
0.000000 rotate
/DejaVuSans findfont
15.0 scalefont
setfont
0.000000 0.459375 moveto
/one glyphshow

9.543457 0.459375 moveto
/zero glyphshow

/DejaVuSans findfont
10.5 scalefont
setfont
19.230469 6.201563 moveto
/minus glyphshow

28.028320 6.201563 moveto
/one glyphshow

34.708740 6.201563 moveto
/six glyphshow


grestore
2 setlinecap
0.690 setgray
gsave
558 598 90 99 clipbox
90 550.226043 m
648 550.226043 l
stroke
grestore
0 setlinecap
0.000 setgray
gsave
/o {
gsave
newpath
translate
0.8 setlinewidth
1 setlinejoin
0 setlinecap
0 0 m
-3.5 0 l

gsave
0.000 setgray
fill
grestore
stroke
grestore
} bind def
90 550.226 o
grestore
gsave
41.000000 544.288543 translate
0.000000 rotate
/DejaVuSans findfont
15.0 scalefont
setfont
0.000000 0.601562 moveto
/one glyphshow

9.543457 0.601562 moveto
/zero glyphshow

/DejaVuSans findfont
10.5 scalefont
setfont
19.230469 6.343750 moveto
/minus glyphshow

28.028320 6.343750 moveto
/one glyphshow

34.708740 6.343750 moveto
/four glyphshow


grestore
2 setlinecap
0.690 setgray
gsave
558 598 90 99 clipbox
90 664.025515 m
648 664.025515 l
stroke
grestore
0 setlinecap
0.000 setgray
gsave
/o {
gsave
newpath
translate
0.8 setlinewidth
1 setlinejoin
0 setlinecap
0 0 m
-3.5 0 l

gsave
0.000 setgray
fill
grestore
stroke
grestore
} bind def
90 664.026 o
grestore
gsave
41.000000 658.088015 translate
0.000000 rotate
/DejaVuSans findfont
15.0 scalefont
setfont
0.000000 0.459375 moveto
/one glyphshow

9.543457 0.459375 moveto
/zero glyphshow

/DejaVuSans findfont
10.5 scalefont
setfont
19.230469 6.201563 moveto
/minus glyphshow

28.028320 6.201563 moveto
/one glyphshow

34.708740 6.201563 moveto
/two glyphshow


grestore
gsave
33.875000 314.480000 translate
90.000000 rotate
/DejaVuSans findfont
15.0 scalefont
setfont
0.000000 0.475000 moveto
/C glyphshow

10.473633 0.475000 moveto
/u glyphshow

19.980469 0.475000 moveto
/r glyphshow

26.147461 0.475000 moveto
/r glyphshow

32.314453 0.475000 moveto
/e glyphshow

41.542969 0.475000 moveto
/n glyphshow

51.049805 0.475000 moveto
/t glyphshow

56.931152 0.475000 moveto
/space glyphshow

61.699219 0.475000 moveto
/N glyphshow

72.919922 0.475000 moveto
/o glyphshow

82.097168 0.475000 moveto
/i glyphshow

86.264648 0.475000 moveto
/s glyphshow

94.079590 0.475000 moveto
/e glyphshow

103.308105 0.475000 moveto
/space glyphshow

108.076172 0.475000 moveto
/bracketleft glyphshow

113.928223 0.475000 moveto
/A glyphshow

124.189453 0.475000 moveto
/slash glyphshow

/STIXSizeOneSym-Regular findfont
8.46023688663 scalefont
setfont
129.243164 2.975000 moveto
/uni221A glyphshow

138.178116 15.125000 22.902832 0.937500 rectfill
/DejaVuSans-Oblique findfont
15.0 scalefont
setfont
140.053116 0.125000 moveto
/H glyphshow

151.332413 0.125000 moveto
/z glyphshow

/DejaVuSans findfont
15.0 scalefont
setfont
161.080948 0.475000 moveto
/bracketright glyphshow


grestore
2.000 setlinewidth
2 setlinecap
0.122 0.467 0.706 setrgbcolor
gsave
558 598 90 99 clipbox
115.363636 616.027277 m
202.194103 616.134815 l
216.411957 616.367584 l
225.552007 616.733952 l
232.153153 617.213572 l
237.738739 617.847017 l
242.308763 618.583389 l
246.371007 619.449363 l
250.433251 620.553779 l
253.987715 621.741294 l
257.542179 623.150308 l
261.096642 624.784579 l
265.158886 626.916204 l
269.22113 629.295802 l
274.298935 632.534342 l
291.563473 643.814304 l
295.625717 646.091011 l
299.687961 648.102057 l
303.242424 649.623985 l
306.796888 650.921078 l
310.351351 652.00264 l
314.413595 652.998357 l
318.475839 653.771883 l
323.045864 654.424457 l
328.63145 654.981961 l
335.232596 655.401899 l
343.864865 655.709859 l
356.559378 655.912471 l
382.963964 656.050816 l
441.358722 656.155847 l
519.556921 656.06048 l
534.282555 655.831021 l
543.422604 655.472904 l
550.023751 655.000493 l
555.609337 654.371699 l
560.179361 653.63476 l
564.241605 652.760796 l
567.796069 651.791458 l
571.350532 650.60247 l
574.904996 649.171505 l
578.459459 647.484211 l
582.013923 645.536368 l
585.568387 643.334529 l
589.630631 640.528347 l
593.692875 637.447465 l
598.262899 633.705441 l
603.848485 628.819921 l
610.449631 622.728703 l
619.0819 614.43627 l
622.636364 610.954016 l
622.636364 610.954016 l
stroke
grestore
1.000 0.498 0.055 setrgbcolor
gsave
558 598 90 99 clipbox
115.363636 625.666329 m
244.847666 625.555728 l
259.06552 625.318344 l
268.205569 624.949679 l
274.806716 624.476014 l
280.392301 623.865519 l
285.470106 623.087989 l
290.040131 622.171318 l
294.610156 621.032861 l
299.687961 619.521092 l
305.781327 617.452589 l
317.968059 613.254859 l
323.045864 611.789413 l
327.615889 610.69806 l
332.185913 609.827338 l
337.263718 609.094944 l
342.849304 608.524798 l
349.45045 608.087476 l
357.574939 607.782321 l
368.74611 607.603062 l
384.995086 607.584483 l
460.146601 607.763564 l
521.080262 607.658683 l
534.790336 607.432592 l
543.422604 607.092197 l
550.023751 606.623846 l
555.609337 605.999314 l
560.179361 605.266331 l
564.241605 604.396076 l
567.796069 603.429986 l
571.350532 602.244113 l
574.904996 600.816022 l
578.459459 599.131286 l
582.013923 597.185647 l
585.568387 594.985653 l
589.630631 592.181171 l
593.692875 589.101607 l
598.262899 585.360695 l
603.848485 580.476128 l
610.449631 574.385644 l
619.0819 566.093796 l
622.636364 562.611717 l
622.636364 562.611717 l
stroke
grestore
0.173 0.627 0.173 setrgbcolor
gsave
558 598 90 99 clipbox
115.363636 445.654028 m
245.863227 577.23901 l
260.081081 591.256736 l
268.71335 599.48737 l
275.314496 605.498671 l
280.900082 610.285523 l
285.470106 613.921815 l
289.532351 616.889448 l
293.594595 619.566555 l
297.149058 621.646299 l
300.703522 623.468425 l
304.257985 625.031778 l
307.812449 626.345755 l
311.366912 627.428837 l
315.429156 628.416035 l
319.4914 629.176439 l
324.061425 629.813534 l
329.647011 630.354617 l
336.248157 630.760243 l
344.880426 631.056655 l
357.574939 631.251228 l
384.487305 631.385047 l
442.882064 631.475173 l
497.214578 631.367267 l
512.447993 631.126755 l
522.603604 630.754562 l
530.220311 630.255318 l
535.805897 629.685249 l
540.375921 629.02386 l
544.438165 628.232134 l
547.992629 627.335341 l
551.547093 626.202013 l
554.593776 625.006262 l
557.640459 623.57127 l
560.687142 621.867989 l
563.733825 619.87082 l
566.780508 617.559668 l
569.827191 614.921806 l
572.873874 611.953318 l
575.920557 608.659984 l
578.96724 605.057509 l
582.521704 600.498027 l
586.583948 594.88482 l
591.153972 588.178358 l
598.262899 577.29527 l
607.402948 563.377646 l
612.480753 556.053324 l
617.050778 549.844318 l
621.113022 544.665695 l
622.636364 542.807859 l
622.636364 542.807859 l
stroke
grestore
0.839 0.153 0.157 setrgbcolor
gsave
558 598 90 99 clipbox
115.363636 523.30352 m
252.464373 523.194353 l
267.190008 522.953741 l
276.837838 522.581116 l
284.454545 522.075807 l
291.563473 521.393352 l
300.195741 520.328888 l
314.921376 518.486132 l
322.538084 517.803386 l
330.154791 517.347003 l
339.802621 517.010806 l
354.020475 516.773177 l
388.041769 516.271123 l
409.36855 515.928057 l
421.047502 515.976268 l
430.187551 516.226944 l
437.296478 516.639144 l
442.882064 517.174443 l
447.452088 517.810325 l
451.514333 518.571558 l
455.576577 519.560667 l
459.13104 520.645629 l
462.685504 521.960912 l
466.239967 523.524106 l
469.794431 525.343582 l
473.348894 527.41704 l
476.903358 529.731694 l
480.965602 532.644416 l
485.535627 536.212107 l
490.613432 540.460609 l
497.214578 546.292647 l
507.877969 556.071513 l
523.619165 570.469803 l
532.759214 578.522804 l
539.36036 584.060484 l
544.438165 588.047457 l
548.50041 590.983291 l
552.054873 593.306648 l
555.101556 595.074158 l
558.148239 596.599514 l
561.194922 597.850565 l
563.733825 598.662688 l
566.272727 599.250399 l
568.81163 599.603094 l
571.350532 599.713955 l
573.889435 599.58028 l
576.428337 599.203585 l
578.96724 598.589483 l
581.506143 597.747333 l
584.045045 596.689704 l
587.091728 595.15749 l
590.138411 593.366021 l
593.692875 590.989461 l
597.247338 588.350455 l
601.309582 585.070692 l
606.387387 580.659698 l
611.972973 575.506531 l
618.57412 569.116081 l
622.636364 565.053199 l
622.636364 565.053199 l
stroke
grestore
0.580 0.404 0.741 setrgbcolor
gsave
558 598 90 99 clipbox
115.363636 346.965486 m
119.933661 350.588943 l
125.011466 354.916495 l
131.104832 360.422071 l
138.72154 367.625771 l
149.38493 378.052414 l
166.649468 395.293094 l
212.857494 441.870447 l
248.90991 478.075373 l
261.604423 490.535048 l
270.236691 498.705376 l
276.330057 504.196051 l
281.407862 508.506184 l
285.977887 512.109483 l
290.040131 515.041934 l
293.594595 517.36669 l
297.149058 519.444986 l
300.703522 521.265176 l
304.257985 522.825941 l
307.812449 524.136459 l
311.366912 525.214917 l
315.429156 526.194899 l
319.4914 526.945254 l
324.061425 527.566262 l
329.13923 528.040388 l
335.232596 528.38644 l
342.341523 528.565016 l
349.958231 528.539497 l
357.067158 528.306041 l
363.160524 527.896335 l
368.238329 527.350343 l
372.808354 526.645896 l
376.870598 525.805051 l
380.932842 524.720364 l
384.487305 523.541964 l
388.041769 522.129265 l
391.596233 520.471758 l
395.150696 518.569894 l
399.21294 516.113385 l
403.275184 513.389899 l
408.352989 509.688062 l
414.954136 504.567936 l
426.125307 495.869294 l
431.203112 492.218258 l
435.265356 489.551552 l
439.3276 487.165464 l
442.882064 485.33546 l
446.436527 483.758252 l
449.990991 482.433087 l
453.545455 481.348175 l
457.099918 480.482929 l
461.162162 479.728985 l
465.732187 479.127912 l
470.809992 478.69476 l
476.903358 478.399835 l
485.535627 478.220818 l
508.89353 477.863366 l
517.018018 477.442271 l
524.634726 476.815007 l
531.743653 476.000728 l
537.837019 475.071705 l
542.407043 474.169607 l
546.469287 473.157646 l
550.023751 472.058474 l
553.578215 470.709484 l
556.624898 469.316021 l
559.671581 467.670646 l
562.718264 465.744967 l
565.764947 463.515507 l
568.81163 460.965663 l
571.858313 458.087294 l
574.904996 454.881777 l
577.951679 451.360417 l
581.506143 446.881469 l
585.060606 442.049788 l
589.630631 435.419114 l
595.216216 426.882586 l
610.957412 402.573041 l
616.542998 394.499839 l
621.620803 387.533632 l
622.636364 386.181234 l
622.636364 386.181234 l
stroke
grestore
0.549 0.337 0.294 setrgbcolor
gsave
558 598 90 99 clipbox
115.363636 409.43076 m
123.488124 417.180808 l
135.167076 428.666868 l
155.478296 449.014133 l
258.049959 552.106738 l
267.697789 561.363317 l
274.806716 567.874066 l
280.392301 572.68988 l
284.962326 576.357014 l
289.02457 579.357444 l
293.086814 582.071603 l
296.641278 584.186025 l
300.195741 586.043392 l
303.750205 587.640855 l
307.304668 588.986146 l
310.859132 590.096303 l
314.921376 591.107849 l
318.98362 591.884459 l
323.553645 592.528971 l
328.63145 593.022804 l
334.724816 593.385765 l
341.833743 593.578155 l
349.45045 593.564306 l
356.559378 593.342047 l
362.652744 592.944184 l
367.730549 592.410515 l
372.300573 591.719058 l
376.362817 590.890483 l
380.425061 589.817003 l
383.979525 588.645169 l
387.533989 587.232797 l
391.088452 585.565166 l
394.642916 583.637365 l
398.197379 581.455119 l
402.259623 578.669797 l
406.321867 575.607357 l
410.891892 571.882722 l
416.477477 567.013721 l
423.078624 560.936401 l
431.710893 552.65544 l
443.897625 540.622239 l
458.62326 525.772613 l
467.763309 516.282255 l
474.364455 509.13911 l
479.950041 502.78109 l
485.027846 496.651801 l
489.597871 490.774633 l
493.660115 485.212528 l
497.722359 479.29765 l
501.784603 473.011167 l
506.354627 465.493289 l
510.924652 457.526389 l
516.002457 448.200967 l
521.588043 437.453591 l
527.681409 425.251535 l
534.282555 411.559143 l
540.883702 397.377136 l
546.977068 383.75189 l
552.054873 371.876488 l
556.624898 360.666764 l
561.194922 348.855587 l
565.257166 337.775903 l
569.31941 326.09752 l
573.381654 313.793547 l
577.951679 299.204069 l
582.521704 283.861447 l
587.599509 266.021365 l
593.185094 245.588446 l
599.786241 220.60038 l
608.418509 186.987305 l
620.097461 140.524289 l
622.636364 130.327732 l
622.636364 130.327732 l
stroke
grestore
0.890 0.467 0.761 setrgbcolor
gsave
558 598 90 99 clipbox
115.363636 469.900537 m
245.863227 601.485036 l
260.081081 615.502568 l
268.71335 623.732913 l
275.314496 629.743805 l
280.900082 634.53009 l
285.470106 638.165683 l
289.532351 641.132432 l
293.594595 643.808307 l
297.149058 645.886582 l
300.703522 647.706744 l
304.257985 649.267471 l
307.812449 650.577938 l
311.366912 651.656328 l
315.429156 652.636203 l
319.4914 653.38641 l
324.061425 654.007179 l
329.13923 654.480912 l
335.232596 654.826218 l
342.341523 655.003295 l
349.958231 654.974838 l
357.067158 654.736392 l
363.160524 654.31938 l
368.238329 653.763816 l
372.808354 653.04662 l
376.870598 652.18969 l
380.425061 651.236086 l
383.979525 650.064181 l
387.533989 648.651712 l
391.088452 646.983953 l
394.642916 645.055981 l
398.197379 642.873509 l
402.259623 640.087836 l
406.321867 637.024912 l
410.891892 633.299519 l
416.477477 628.429159 l
423.078624 622.349367 l
431.710893 614.063304 l
443.897625 602.021894 l
462.685504 583.112009 l
479.44226 565.959315 l
489.597871 555.268107 l
497.214578 546.928073 l
503.307944 539.918045 l
508.385749 533.741627 l
512.955774 527.841802 l
517.018018 522.269207 l
521.080262 516.343601 l
525.142506 510.033251 l
529.20475 503.31927 l
533.266994 496.194486 l
537.329238 488.658644 l
541.899263 479.6889 l
546.469287 470.187115 l
551.039312 460.123323 l
555.101556 450.666297 l
559.1638 440.682968 l
563.226044 430.129559 l
567.288288 418.971039 l
571.350532 407.190025 l
575.920557 393.202157 l
580.490581 378.488321 l
585.568387 361.405466 l
592.169533 338.336422 l
604.356265 294.664698 l
614.511876 258.705923 l
622.636364 230.685833 l
622.636364 230.685833 l
stroke
grestore
0.498 setgray
gsave
558 598 90 99 clipbox
0 0 m
stroke
grestore
0.737 0.741 0.133 setrgbcolor
gsave
558 598 90 99 clipbox
0 0 m
stroke
grestore
0.090 0.745 0.812 setrgbcolor
gsave
558 598 90 99 clipbox
115.363636 410.967586 m
123.995905 419.266477 l
136.690418 431.812542 l
160.556102 455.776272 l
253.479934 549.273638 l
264.651106 560.132334 l
272.267813 567.241533 l
278.361179 572.627996 l
283.438984 576.817954 l
288.009009 580.284465 l
292.071253 583.073639 l
295.625717 585.259524 l
299.18018 587.191094 l
302.734644 588.862481 l
306.289107 590.278452 l
309.843571 591.453604 l
313.398034 592.410109 l
317.460278 593.269878 l
322.030303 593.989663 l
327.108108 594.547443 l
332.693694 594.939983 l
339.29484 595.185745 l
346.911548 595.245127 l
354.528256 595.081 l
361.129402 594.717956 l
366.714988 594.18797 l
371.285012 593.54642 l
375.347256 592.773184 l
379.4095 591.76582 l
382.963964 590.660039 l
386.518428 589.319824 l
390.072891 587.728154 l
393.627355 585.877333 l
397.181818 583.770298 l
400.736282 581.420245 l
404.798526 578.464803 l
409.36855 574.845063 l
414.446355 570.530523 l
420.539722 565.057606 l
429.17199 556.970406 l
452.529894 534.900144 l
459.13104 529.042341 l
464.716626 524.36544 l
469.794431 520.387188 l
474.872236 516.690004 l
480.457821 512.923278 l
488.074529 508.110453 l
496.199017 502.934616 l
501.276822 499.428657 l
505.846847 495.993201 l
510.416871 492.25777 l
514.986896 488.221639 l
520.064701 483.411043 l
525.650287 477.773824 l
531.235872 471.823395 l
536.821458 465.574963 l
542.407043 458.988556 l
546.977068 453.279228 l
551.039312 447.891366 l
555.101556 442.136257 l
558.65602 436.740512 l
562.210483 430.958042 l
565.764947 424.746928 l
569.31941 418.0758 l
572.873874 410.927081 l
576.428337 403.298797 l
580.490581 394.011864 l
584.552826 384.159929 l
589.12285 372.477634 l
594.200655 358.873594 l
600.294021 341.875302 l
607.910729 319.901125 l
617.558559 291.345212 l
622.636364 276.106897 l
622.636364 276.106897 l
stroke
grestore
0 setlinecap
[2 3.3] 0 setdash
0.122 0.467 0.706 setrgbcolor
gsave
558 598 90 99 clipbox
115.363636 427.10384 m
245.863227 558.688771 l
260.081081 572.706437 l
268.71335 580.936982 l
275.314496 586.948155 l
280.900082 591.734831 l
285.470106 595.370907 l
289.532351 598.338265 l
293.594595 601.01499 l
297.149058 603.094278 l
300.703522 604.915794 l
304.257985 606.478333 l
307.812449 607.791221 l
311.366912 608.872847 l
315.429156 609.857775 l
319.4914 610.615019 l
324.061425 611.247059 l
329.647011 611.778789 l
336.248157 612.166277 l
344.372645 612.409777 l
354.528256 612.481173 l
365.191646 612.329748 l
374.331695 611.983544 l
382.963964 611.435534 l
394.135135 610.478473 l
406.829648 609.440005 l
415.969697 608.937016 l
426.125307 608.616423 l
440.343161 608.414711 l
479.950041 607.971309 l
488.58231 607.60227 l
495.183456 607.099297 l
500.261261 606.504054 l
504.831286 605.749207 l
508.89353 604.851613 l
512.447993 603.851919 l
516.002457 602.618529 l
519.556921 601.122186 l
522.603604 599.612098 l
525.650287 597.880478 l
528.69697 595.920751 l
531.743653 593.730005 l
535.298116 590.881651 l
538.85258 587.718878 l
542.407043 584.24012 l
545.961507 580.438502 l
549.515971 576.299945 l
553.070434 571.802935 l
556.624898 566.92009 l
560.179361 561.621357 l
563.733825 555.878374 l
567.288288 549.66929 l
570.842752 542.983239 l
574.397215 535.823749 l
578.459459 527.087934 l
582.521704 517.815921 l
587.091728 506.844996 l
593.185094 491.568664 l
618.066339 428.328128 l
622.636364 417.258612 l
622.636364 417.258612 l
stroke
grestore
1.000 0.498 0.055 setrgbcolor
gsave
558 598 90 99 clipbox
115.363636 442.299569 m
245.863227 573.884555 l
260.081081 587.902281 l
268.71335 596.132915 l
275.314496 602.144215 l
280.900082 606.931067 l
285.470106 610.56736 l
289.532351 613.534992 l
293.594595 616.212099 l
297.149058 618.291843 l
300.703522 620.113968 l
304.257985 621.677321 l
307.812449 622.991297 l
311.366912 624.074377 l
315.429156 625.061574 l
319.4914 625.821976 l
324.061425 626.459067 l
329.647011 627.000143 l
336.248157 627.405755 l
344.880426 627.702135 l
357.574939 627.896596 l
384.487305 628.029526 l
443.389844 628.117849 l
496.706798 628.009926 l
511.940213 627.770117 l
522.095823 627.40171 l
529.712531 626.911955 l
535.805897 626.294513 l
540.375921 625.629176 l
544.438165 624.834012 l
547.992629 623.934128 l
551.547093 622.797454 l
554.593776 621.59846 l
557.640459 620.159695 l
560.687142 618.451892 l
563.733825 616.449181 l
566.780508 614.13113 l
569.827191 611.484588 l
572.873874 608.505107 l
575.920557 605.197789 l
578.96724 601.577483 l
582.521704 596.990863 l
586.583948 591.335478 l
591.153972 584.561796 l
597.755119 574.310519 l
609.941851 555.289477 l
616.035217 546.223483 l
622.636364 536.832186 l
622.636364 536.832186 l
stroke
grestore
0.173 0.627 0.173 setrgbcolor
gsave
558 598 90 99 clipbox
115.363636 379.658254 m
119.42588 382.764582 l
123.995905 386.52972 l
129.581491 391.436301 l
136.182637 397.544225 l
144.814906 405.849313 l
157.509419 418.399455 l
181.375102 442.364629 l
251.956593 513.34167 l
263.635545 524.734362 l
271.252252 531.886421 l
277.345618 537.326641 l
282.423423 541.578318 l
286.993448 545.114728 l
291.055692 547.97671 l
294.610156 550.232769 l
298.164619 552.23806 l
301.719083 553.983768 l
305.273546 555.47163 l
308.82801 556.713611 l
312.382473 557.730012 l
316.444717 558.648536 l
320.506962 559.347918 l
325.076986 559.923207 l
330.662572 560.392401 l
337.263718 560.704052 l
344.880426 560.823674 l
352.497133 560.721932 l
359.09828 560.430374 l
364.683866 559.984869 l
369.761671 559.362104 l
374.331695 558.566684 l
378.393939 557.624769 l
381.948403 556.585367 l
385.502867 555.31896 l
389.05733 553.806698 l
392.611794 552.038555 l
396.166257 550.015106 l
399.720721 547.747702 l
403.782965 544.884532 l
408.352989 541.366937 l
413.430794 537.169594 l
420.031941 531.407711 l
440.343161 513.430057 l
445.420966 509.341244 l
449.48321 506.330151 l
453.037674 503.934 l
456.592138 501.796462 l
460.146601 499.942803 l
463.193284 498.589284 l
466.239967 497.45127 l
469.794431 496.381206 l
473.348894 495.560252 l
477.411138 494.878651 l
481.981163 494.367296 l
487.566749 493.997359 l
495.691237 493.721068 l
507.370188 493.313538 l
513.971335 492.851591 l
520.064701 492.208199 l
526.665848 491.27815 l
533.266994 490.12629 l
539.36036 488.844995 l
544.438165 487.546776 l
548.50041 486.284669 l
552.054873 484.958634 l
555.101556 483.616047 l
558.148239 482.048012 l
561.194922 480.222761 l
564.241605 478.112442 l
567.288288 475.695248 l
570.334971 472.95725 l
573.381654 469.893725 l
576.428337 466.509881 l
579.47502 462.820904 l
583.029484 458.164657 l
587.091728 452.444214 l
591.661753 445.616247 l
598.262899 435.320475 l
609.941851 417.070541 l
616.035217 407.990261 l
622.128583 399.295289 l
622.636364 398.585256 l
622.636364 398.585256 l
stroke
grestore
0.839 0.153 0.157 setrgbcolor
gsave
558 598 90 99 clipbox
115.363636 411.301105 m
123.488124 419.027195 l
134.659296 429.992611 l
153.447174 448.791749 l
210.318591 506.149667 l
248.402129 544.412012 l
261.604423 557.376281 l
270.236691 565.546619 l
276.330057 571.037298 l
281.407862 575.347433 l
285.977887 578.950733 l
290.040131 581.883185 l
293.594595 584.207942 l
297.149058 586.286238 l
300.703522 588.106428 l
304.257985 589.667193 l
307.812449 590.977711 l
311.366912 592.056169 l
315.429156 593.03615 l
319.4914 593.786505 l
324.061425 594.407512 l
329.13923 594.881637 l
335.232596 595.227687 l
342.341523 595.406258 l
349.958231 595.380729 l
357.067158 595.147257 l
363.160524 594.737528 l
368.238329 594.191505 l
372.808354 593.487017 l
376.870598 592.646121 l
380.932842 591.561361 l
384.487305 590.382876 l
388.041769 588.970064 l
391.596233 587.312406 l
395.150696 585.410342 l
399.21294 582.953525 l
403.275184 580.229617 l
408.352989 576.527037 l
414.954136 571.405433 l
426.125307 562.702325 l
431.203112 559.048235 l
435.265356 556.378639 l
439.3276 553.989357 l
442.882064 552.156419 l
446.436527 550.576272 l
449.990991 549.248278 l
453.545455 548.160745 l
457.099918 547.293148 l
461.162162 546.536885 l
465.732187 545.93366 l
470.809992 545.498598 l
476.903358 545.201862 l
485.535627 545.020738 l
508.89353 544.65716 l
517.018018 544.232834 l
524.634726 543.60084 l
531.743653 542.779107 l
537.329238 541.92845 l
541.899263 541.038018 l
545.961507 540.039605 l
549.515971 538.954603 l
553.070434 537.621059 l
556.117117 536.240502 l
559.1638 534.605807 l
562.210483 532.685958 l
565.257166 530.453969 l
568.303849 527.888755 l
571.350532 524.976641 l
574.397215 521.712325 l
577.443898 518.099203 l
580.490581 514.149005 l
584.045045 509.140183 l
587.599509 503.738722 l
591.661753 497.144797 l
596.231777 489.277415 l
601.309582 480.0937 l
607.402948 468.615398 l
615.019656 453.77521 l
622.636364 438.546987 l
622.636364 438.546987 l
stroke
grestore
0.580 0.404 0.741 setrgbcolor
gsave
558 598 90 99 clipbox
115.363636 669.261812 m
241.293202 669.154356 l
255.511057 668.921684 l
264.143325 668.582688 l
270.744472 668.119112 l
276.330057 667.503509 l
280.900082 666.783103 l
284.962326 665.929334 l
288.51679 664.982382 l
292.071253 663.820123 l
295.625717 662.419635 l
299.18018 660.765473 l
302.734644 658.851982 l
306.289107 656.684218 l
310.351351 653.91501 l
314.413595 650.867856 l
318.98362 647.159498 l
324.569206 642.310098 l
331.170352 636.258829 l
339.802621 628.027629 l
360.113841 608.225236 l
371.792793 597.0381 l
382.456183 587.142984 l
407.845209 563.783932 l
421.555283 550.668568 l
435.265356 537.620108 l
442.374283 531.143317 l
447.959869 526.334987 l
452.529894 522.663964 l
456.592138 519.653469 l
460.654382 516.923608 l
464.208845 514.791172 l
467.763309 512.91201 l
471.317772 511.288967 l
474.872236 509.913979 l
478.426699 508.76919 l
482.488943 507.710156 l
486.551188 506.874414 l
491.628993 506.073383 l
497.722359 505.358046 l
507.370188 504.492009 l
521.588043 503.192079 l
529.712531 502.229813 l
536.313677 501.234906 l
541.391482 500.256027 l
545.453726 499.270689 l
549.00819 498.207561 l
552.562654 496.905556 l
555.609337 495.559497 l
558.65602 493.965744 l
561.702703 492.092582 l
564.749386 489.912041 l
567.796069 487.401797 l
570.842752 484.54675 l
573.889435 481.340079 l
576.936118 477.783671 l
579.982801 473.887869 l
583.537265 468.938037 l
587.091728 463.589493 l
591.153972 457.047706 l
595.723997 449.228244 l
600.801802 440.085646 l
606.895168 428.64312 l
614.511876 413.833573 l
622.636364 397.602521 l
622.636364 397.602521 l
stroke
grestore
0.549 0.337 0.294 setrgbcolor
gsave
558 598 90 99 clipbox
115.363636 534.537494 m
241.293202 534.430038 l
255.511057 534.197366 l
264.143325 533.85837 l
270.744472 533.394793 l
276.330057 532.77919 l
280.900082 532.058784 l
284.962326 531.205015 l
288.51679 530.258062 l
292.071253 529.095803 l
295.625717 527.695315 l
299.18018 526.041152 l
302.734644 524.12766 l
306.289107 521.959894 l
310.351351 519.190685 l
314.413595 516.143529 l
318.98362 512.435166 l
324.569206 507.585758 l
331.170352 501.534475 l
339.802621 493.303238 l
359.606061 473.993483 l
371.792793 462.312791 l
382.456183 452.416299 l
407.337428 429.521193 l
420.031941 417.359009 l
437.804259 400.331198 l
445.420966 393.358837 l
451.514333 388.081001 l
456.592138 383.957183 l
461.669943 380.121291 l
466.747748 376.573533 l
472.841114 372.621605 l
487.058968 363.578923 l
492.136773 359.991003 l
496.706798 356.485447 l
501.276822 352.703849 l
506.354627 348.192159 l
511.432432 343.387106 l
517.018018 337.810496 l
523.619165 330.89243 l
530.728092 323.103609 l
537.329238 315.548962 l
542.914824 308.83888 l
547.992629 302.378896 l
552.054873 296.876939 l
556.117117 290.997258 l
559.671581 285.48206 l
563.226044 279.57054 l
566.780508 273.22251 l
570.334971 266.409574 l
573.889435 259.117947 l
577.443898 251.349756 l
581.506143 241.911554 l
585.568387 231.921939 l
590.138411 220.104345 l
595.216216 206.374924 l
601.309582 189.255831 l
608.92629 167.158374 l
618.57412 138.444569 l
622.636364 126.18 l
622.636364 126.18 l
stroke
grestore
3.000 setlinewidth
2 setlinecap
[] 0 setdash
0.000 setgray
gsave
558 598 90 99 clipbox
115.363636 669.78 m
258.55774 669.671907 l
273.791155 669.430874 l
284.454545 669.045398 l
294.610156 668.448854 l
319.999181 666.81206 l
331.170352 666.440656 l
369.25389 665.414026 l
376.870598 664.855067 l
383.979525 664.111527 l
392.611794 662.968101 l
406.321867 661.140769 l
413.430794 660.441816 l
421.047502 659.930321 l
429.679771 659.584786 l
441.358722 659.357707 l
460.654382 659.236715 l
517.525799 658.971595 l
530.728092 658.655707 l
539.868141 658.225694 l
546.469287 657.706257 l
552.054873 657.048458 l
556.624898 656.304292 l
560.687142 655.445199 l
564.749386 654.363002 l
568.303849 653.205793 l
571.858313 651.830689 l
575.412776 650.221842 l
578.96724 648.370258 l
582.521704 646.275427 l
586.583948 643.594744 l
590.646192 640.633074 l
595.216216 637.009085 l
600.294021 632.685552 l
606.387387 627.185974 l
614.004095 619.987306 l
622.636364 611.566866 l
622.636364 611.566866 l
stroke
grestore
0.800 setlinewidth
0 setlinejoin
[] 0 setdash
gsave
90 99 m
90 696.96 l
stroke
grestore
gsave
648 99 m
648 696.96 l
stroke
grestore
gsave
90 99 m
648 99 l
stroke
grestore
gsave
90 696.96 m
648 696.96 l
stroke
grestore
gsave
97.000000 702.960000 translate
0.000000 rotate
/DejaVuSans findfont
20.0 scalefont
setfont
0.000000 0.953125 moveto
/F glyphshow

11.503906 0.953125 moveto
/r glyphshow

19.726562 0.953125 moveto
/e glyphshow

32.031250 0.953125 moveto
/q glyphshow

44.726562 0.953125 moveto
/u glyphshow

57.402344 0.953125 moveto
/e glyphshow

69.707031 0.953125 moveto
/n glyphshow

82.382812 0.953125 moveto
/c glyphshow

93.378906 0.953125 moveto
/y glyphshow

105.214844 0.953125 moveto
/space glyphshow

111.572266 0.953125 moveto
/v glyphshow

123.408203 0.953125 moveto
/s glyphshow

133.828125 0.953125 moveto
/space glyphshow

140.185547 0.953125 moveto
/N glyphshow

155.146484 0.953125 moveto
/o glyphshow

167.382812 0.953125 moveto
/i glyphshow

172.939453 0.953125 moveto
/s glyphshow

183.359375 0.953125 moveto
/e glyphshow

195.664062 0.953125 moveto
/colon glyphshow

202.402344 0.953125 moveto
/space glyphshow

208.759766 0.953125 moveto
/one glyphshow

221.484375 0.953125 moveto
/c glyphshow

232.480469 0.953125 moveto
/m glyphshow

/DejaVuSans findfont
14.0 scalefont
setfont
252.154297 8.609375 moveto
/three glyphshow

/DejaVuSans findfont
20.0 scalefont
setfont
261.608398 0.953125 moveto
/space glyphshow

267.965820 0.953125 moveto
/S glyphshow

280.661133 0.953125 moveto
/i glyphshow

286.217773 0.953125 moveto
/space glyphshow

292.575195 0.953125 moveto
/A glyphshow

306.256836 0.953125 moveto
/b glyphshow

318.952148 0.953125 moveto
/s glyphshow

329.372070 0.953125 moveto
/o glyphshow

341.608398 0.953125 moveto
/r glyphshow

349.831055 0.953125 moveto
/b glyphshow

362.526367 0.953125 moveto
/e glyphshow

374.831055 0.953125 moveto
/r glyphshow

383.053711 0.953125 moveto
/space glyphshow

/DejaVuSans-Oblique findfont
20.0 scalefont
setfont
389.411133 0.953125 moveto
/tau glyphshow

/DejaVuSans findfont
20.0 scalefont
setfont
401.452148 0.953125 moveto
/equal glyphshow

418.209961 0.953125 moveto
/one glyphshow

430.934570 0.953125 moveto
/zero glyphshow

443.659180 0.953125 moveto
/m glyphshow

463.141602 0.953125 moveto
/s glyphshow

473.561523 0.953125 moveto
/space glyphshow

479.918945 0.953125 moveto
/W glyphshow

499.694336 0.953125 moveto
/space glyphshow

506.051758 0.953125 moveto
/T glyphshow

518.268555 0.953125 moveto
/E glyphshow

530.905273 0.953125 moveto
/S glyphshow


grestore
1.000 setlinewidth
0 setlinecap
0.800 setgray
gsave
236.185938 104.75 m
501.814062 104.75 l
503.347396 104.75 504.114062 105.516667 504.114062 107.05 c
504.114062 392.775 l
504.114062 394.308333 503.347396 395.075 501.814062 395.075 c
236.185938 395.075 l
234.652604 395.075 233.885938 394.308333 233.885938 392.775 c
233.885938 107.05 l
233.885938 105.516667 234.652604 104.75 236.185938 104.75 c
cl
gsave
1.000 setgray
fill
grestore
stroke
grestore
2.000 setlinewidth
1 setlinejoin
2 setlinecap
[] 0 setdash
0.122 0.467 0.706 setrgbcolor
gsave
238.485938 385.765625 m
261.485937 385.765625 l
stroke
grestore
0.000 setgray
/DejaVuSans findfont
11.500 scalefont
setfont
gsave
270.685938 381.740625 translate
0.000000 rotate
0.000000 0.000000 m /I glyphshow
3.391602 0.000000 m /n glyphshow
10.680176 0.000000 m /t glyphshow
15.189209 0.000000 m /e glyphshow
22.264404 0.000000 m /r glyphshow
26.992432 0.000000 m /n glyphshow
34.281006 0.000000 m /a glyphshow
41.328125 0.000000 m /l glyphshow
44.523193 0.000000 m /space glyphshow
48.178711 0.000000 m /J glyphshow
51.570312 0.000000 m /o glyphshow
58.606201 0.000000 m /h glyphshow
65.894775 0.000000 m /n glyphshow
73.183350 0.000000 m /s glyphshow
79.174805 0.000000 m /o glyphshow
86.210693 0.000000 m /n glyphshow
93.499268 0.000000 m /space glyphshow
97.154785 0.000000 m /N glyphshow
105.757324 0.000000 m /o glyphshow
112.793213 0.000000 m /i glyphshow
115.988281 0.000000 m /s glyphshow
121.979736 0.000000 m /e glyphshow
grestore
1.000 0.498 0.055 setrgbcolor
gsave
238.485938 368.890625 m
261.485937 368.890625 l
stroke
grestore
0.000 setgray
gsave
270.685938 364.865625 translate
0.000000 rotate
0.000000 0.000000 m /E glyphshow
7.266113 0.000000 m /x glyphshow
14.071777 0.000000 m /t glyphshow
18.580811 0.000000 m /e glyphshow
25.656006 0.000000 m /r glyphshow
30.384033 0.000000 m /n glyphshow
37.672607 0.000000 m /a glyphshow
44.719727 0.000000 m /l glyphshow
47.914795 0.000000 m /space glyphshow
51.570312 0.000000 m /J glyphshow
54.961914 0.000000 m /o glyphshow
61.997803 0.000000 m /h glyphshow
69.286377 0.000000 m /n glyphshow
76.574951 0.000000 m /s glyphshow
82.566406 0.000000 m /o glyphshow
89.602295 0.000000 m /n glyphshow
96.890869 0.000000 m /space glyphshow
100.546387 0.000000 m /N glyphshow
109.148926 0.000000 m /o glyphshow
116.184814 0.000000 m /i glyphshow
119.379883 0.000000 m /s glyphshow
125.371338 0.000000 m /e glyphshow
grestore
0.173 0.627 0.173 setrgbcolor
gsave
238.485938 352.015625 m
261.485937 352.015625 l
stroke
grestore
0.000 setgray
gsave
270.685938 347.990625 translate
0.000000 rotate
0.000000 0.000000 m /T glyphshow
7.024658 0.000000 m /h glyphshow
14.313232 0.000000 m /e glyphshow
21.388428 0.000000 m /r glyphshow
26.116455 0.000000 m /m glyphshow
37.318848 0.000000 m /a glyphshow
44.365967 0.000000 m /l glyphshow
47.561035 0.000000 m /space glyphshow
51.216553 0.000000 m /N glyphshow
59.819092 0.000000 m /o glyphshow
66.854980 0.000000 m /i glyphshow
70.050049 0.000000 m /s glyphshow
76.041504 0.000000 m /e glyphshow
83.116699 0.000000 m /space glyphshow
86.772217 0.000000 m /G glyphshow
95.683594 0.000000 m /o glyphshow
102.719482 0.000000 m /l glyphshow
105.914551 0.000000 m /d glyphshow
113.214355 0.000000 m /space glyphshow
116.869873 0.000000 m /P glyphshow
123.804688 0.000000 m /a glyphshow
130.851807 0.000000 m /d glyphshow
138.151611 0.000000 m /space glyphshow
141.807129 0.000000 m /two glyphshow
149.123779 0.000000 m /hyphen glyphshow
153.257812 0.000000 m /T glyphshow
160.282471 0.000000 m /E glyphshow
167.548584 0.000000 m /S glyphshow
grestore
0.839 0.153 0.157 setrgbcolor
gsave
238.485938 335.140625 m
261.485937 335.140625 l
stroke
grestore
0.000 setgray
gsave
270.685938 331.115625 translate
0.000000 rotate
0.000000 0.000000 m /T glyphshow
7.024658 0.000000 m /h glyphshow
14.313232 0.000000 m /e glyphshow
21.388428 0.000000 m /r glyphshow
26.116455 0.000000 m /m glyphshow
37.318848 0.000000 m /a glyphshow
44.365967 0.000000 m /l glyphshow
47.561035 0.000000 m /space glyphshow
51.216553 0.000000 m /N glyphshow
59.819092 0.000000 m /o glyphshow
66.854980 0.000000 m /i glyphshow
70.050049 0.000000 m /s glyphshow
76.041504 0.000000 m /e glyphshow
83.116699 0.000000 m /space glyphshow
86.772217 0.000000 m /T glyphshow
93.796875 0.000000 m /E glyphshow
101.062988 0.000000 m /S glyphshow
108.362793 0.000000 m /hyphen glyphshow
112.512451 0.000000 m /M glyphshow
122.434570 0.000000 m /e glyphshow
129.509766 0.000000 m /a glyphshow
136.556885 0.000000 m /n glyphshow
143.845459 0.000000 m /d glyphshow
151.145264 0.000000 m /e glyphshow
158.220459 0.000000 m /r glyphshow
grestore
0.580 0.404 0.741 setrgbcolor
gsave
238.485938 318.265625 m
261.485937 318.265625 l
stroke
grestore
0.000 setgray
gsave
270.685938 314.240625 translate
0.000000 rotate
0.000000 0.000000 m /T glyphshow
7.024658 0.000000 m /h glyphshow
14.313232 0.000000 m /e glyphshow
21.388428 0.000000 m /r glyphshow
26.116455 0.000000 m /m glyphshow
37.318848 0.000000 m /a glyphshow
44.365967 0.000000 m /l glyphshow
47.561035 0.000000 m /space glyphshow
51.216553 0.000000 m /N glyphshow
59.819092 0.000000 m /o glyphshow
66.854980 0.000000 m /i glyphshow
70.050049 0.000000 m /s glyphshow
76.041504 0.000000 m /e glyphshow
83.116699 0.000000 m /space glyphshow
86.772217 0.000000 m /S glyphshow
94.072021 0.000000 m /i glyphshow
97.267090 0.000000 m /l glyphshow
100.462158 0.000000 m /i glyphshow
103.657227 0.000000 m /c glyphshow
109.979980 0.000000 m /o glyphshow
117.015869 0.000000 m /n glyphshow
124.304443 0.000000 m /space glyphshow
127.959961 0.000000 m /W glyphshow
139.330811 0.000000 m /a glyphshow
146.377930 0.000000 m /f glyphshow
150.426514 0.000000 m /e glyphshow
157.501709 0.000000 m /r glyphshow
162.229736 0.000000 m /hyphen glyphshow
166.363770 0.000000 m /T glyphshow
173.388428 0.000000 m /E glyphshow
180.654541 0.000000 m /S glyphshow
grestore
0.549 0.337 0.294 setrgbcolor
gsave
238.485938 301.390625 m
261.485937 301.390625 l
stroke
grestore
0.000 setgray
gsave
270.685938 297.365625 translate
0.000000 rotate
0.000000 0.000000 m /T glyphshow
7.024658 0.000000 m /h glyphshow
14.313232 0.000000 m /e glyphshow
21.388428 0.000000 m /r glyphshow
26.116455 0.000000 m /m glyphshow
37.318848 0.000000 m /a glyphshow
44.365967 0.000000 m /l glyphshow
47.561035 0.000000 m /space glyphshow
51.216553 0.000000 m /N glyphshow
59.819092 0.000000 m /o glyphshow
66.854980 0.000000 m /i glyphshow
70.050049 0.000000 m /s glyphshow
76.041504 0.000000 m /e glyphshow
83.116699 0.000000 m /space glyphshow
86.772217 0.000000 m /A glyphshow
94.639160 0.000000 m /b glyphshow
101.938965 0.000000 m /s glyphshow
107.930420 0.000000 m /o glyphshow
114.966309 0.000000 m /r glyphshow
119.694336 0.000000 m /b glyphshow
126.994141 0.000000 m /e glyphshow
134.069336 0.000000 m /r glyphshow
138.797363 0.000000 m /hyphen glyphshow
142.947021 0.000000 m /G glyphshow
151.858398 0.000000 m /l glyphshow
155.053467 0.000000 m /u glyphshow
162.342041 0.000000 m /e glyphshow
grestore
0.890 0.467 0.761 setrgbcolor
gsave
238.485938 284.515625 m
261.485937 284.515625 l
stroke
grestore
0.000 setgray
gsave
270.685938 280.490625 translate
0.000000 rotate
0.000000 0.000000 m /T glyphshow
7.024658 0.000000 m /h glyphshow
14.313232 0.000000 m /e glyphshow
21.388428 0.000000 m /r glyphshow
26.116455 0.000000 m /m glyphshow
37.318848 0.000000 m /a glyphshow
44.365967 0.000000 m /l glyphshow
47.561035 0.000000 m /space glyphshow
51.216553 0.000000 m /N glyphshow
59.819092 0.000000 m /o glyphshow
66.854980 0.000000 m /i glyphshow
70.050049 0.000000 m /s glyphshow
76.041504 0.000000 m /e glyphshow
83.116699 0.000000 m /space glyphshow
86.772217 0.000000 m /A glyphshow
94.639160 0.000000 m /b glyphshow
101.938965 0.000000 m /s glyphshow
107.930420 0.000000 m /o glyphshow
114.966309 0.000000 m /r glyphshow
119.694336 0.000000 m /b glyphshow
126.994141 0.000000 m /e glyphshow
134.069336 0.000000 m /r glyphshow
138.797363 0.000000 m /hyphen glyphshow
142.947021 0.000000 m /G glyphshow
151.858398 0.000000 m /o glyphshow
158.894287 0.000000 m /l glyphshow
162.089355 0.000000 m /d glyphshow
169.389160 0.000000 m /space glyphshow
173.044678 0.000000 m /P glyphshow
179.979492 0.000000 m /a glyphshow
187.026611 0.000000 m /d glyphshow
194.326416 0.000000 m /space glyphshow
197.981934 0.000000 m /one glyphshow
grestore
0.498 setgray
gsave
238.485938 267.640625 m
261.485937 267.640625 l
stroke
grestore
0.000 setgray
gsave
270.685938 263.615625 translate
0.000000 rotate
0.000000 0.000000 m /T glyphshow
7.024658 0.000000 m /h glyphshow
14.313232 0.000000 m /e glyphshow
21.388428 0.000000 m /r glyphshow
26.116455 0.000000 m /m glyphshow
37.318848 0.000000 m /a glyphshow
44.365967 0.000000 m /l glyphshow
47.561035 0.000000 m /space glyphshow
51.216553 0.000000 m /N glyphshow
59.819092 0.000000 m /o glyphshow
66.854980 0.000000 m /i glyphshow
70.050049 0.000000 m /s glyphshow
76.041504 0.000000 m /e glyphshow
83.116699 0.000000 m /space glyphshow
86.772217 0.000000 m /A glyphshow
94.639160 0.000000 m /b glyphshow
101.938965 0.000000 m /s glyphshow
107.930420 0.000000 m /o glyphshow
114.966309 0.000000 m /r glyphshow
119.694336 0.000000 m /b glyphshow
126.994141 0.000000 m /e glyphshow
134.069336 0.000000 m /r glyphshow
138.797363 0.000000 m /hyphen glyphshow
142.947021 0.000000 m /B glyphshow
150.836426 0.000000 m /a glyphshow
157.883545 0.000000 m /t glyphshow
162.392578 0.000000 m /h glyphshow
grestore
0.737 0.741 0.133 setrgbcolor
gsave
238.485938 250.765625 m
261.485937 250.765625 l
stroke
grestore
0.000 setgray
gsave
270.685938 246.740625 translate
0.000000 rotate
0.000000 0.000000 m /N glyphshow
8.602539 0.000000 m /o glyphshow
15.638428 0.000000 m /i glyphshow
18.833496 0.000000 m /s glyphshow
24.824951 0.000000 m /e glyphshow
31.900146 0.000000 m /space glyphshow
35.555664 0.000000 m /f glyphshow
39.604248 0.000000 m /r glyphshow
44.332275 0.000000 m /o glyphshow
51.368164 0.000000 m /m glyphshow
62.570557 0.000000 m /space glyphshow
66.226074 0.000000 m /t glyphshow
70.735107 0.000000 m /h glyphshow
78.023682 0.000000 m /e glyphshow
85.098877 0.000000 m /space glyphshow
88.754395 0.000000 m /P glyphshow
95.689209 0.000000 m /u glyphshow
102.977783 0.000000 m /l glyphshow
106.172852 0.000000 m /s glyphshow
112.164307 0.000000 m /e glyphshow
grestore
0.090 0.745 0.812 setrgbcolor
gsave
238.485938 233.890625 m
261.485937 233.890625 l
stroke
grestore
0.000 setgray
gsave
270.685938 229.865625 translate
0.000000 rotate
0.000000 0.000000 m /T glyphshow
7.024658 0.000000 m /h glyphshow
14.313232 0.000000 m /e glyphshow
21.388428 0.000000 m /r glyphshow
26.116455 0.000000 m /m glyphshow
37.318848 0.000000 m /a glyphshow
44.365967 0.000000 m /l glyphshow
47.561035 0.000000 m /space glyphshow
51.216553 0.000000 m /N glyphshow
59.819092 0.000000 m /o glyphshow
66.854980 0.000000 m /i glyphshow
70.050049 0.000000 m /s glyphshow
76.041504 0.000000 m /e glyphshow
83.116699 0.000000 m /space glyphshow
86.772217 0.000000 m /G glyphshow
95.683594 0.000000 m /l glyphshow
98.878662 0.000000 m /u glyphshow
106.167236 0.000000 m /e glyphshow
113.242432 0.000000 m /hyphen glyphshow
117.392090 0.000000 m /S glyphshow
124.691895 0.000000 m /i glyphshow
127.886963 0.000000 m /l glyphshow
131.082031 0.000000 m /i glyphshow
134.277100 0.000000 m /c glyphshow
140.599854 0.000000 m /o glyphshow
147.635742 0.000000 m /n glyphshow
154.924316 0.000000 m /space glyphshow
158.579834 0.000000 m /W glyphshow
169.950684 0.000000 m /a glyphshow
176.997803 0.000000 m /f glyphshow
181.046387 0.000000 m /e glyphshow
188.121582 0.000000 m /r glyphshow
grestore
0 setlinecap
[2 3.3] 0 setdash
0.122 0.467 0.706 setrgbcolor
gsave
238.485938 217.015625 m
261.485937 217.015625 l
stroke
grestore
0.000 setgray
gsave
270.685938 212.990625 translate
0.000000 rotate
0.000000 0.000000 m /T glyphshow
7.024658 0.000000 m /h glyphshow
14.313232 0.000000 m /e glyphshow
21.388428 0.000000 m /r glyphshow
26.116455 0.000000 m /m glyphshow
37.318848 0.000000 m /a glyphshow
44.365967 0.000000 m /l glyphshow
47.561035 0.000000 m /space glyphshow
51.216553 0.000000 m /N glyphshow
59.819092 0.000000 m /o glyphshow
66.854980 0.000000 m /i glyphshow
70.050049 0.000000 m /s glyphshow
76.041504 0.000000 m /e glyphshow
83.116699 0.000000 m /space glyphshow
86.772217 0.000000 m /G glyphshow
95.683594 0.000000 m /o glyphshow
102.719482 0.000000 m /l glyphshow
105.914551 0.000000 m /d glyphshow
113.214355 0.000000 m /space glyphshow
116.869873 0.000000 m /P glyphshow
123.804688 0.000000 m /a glyphshow
130.851807 0.000000 m /d glyphshow
138.151611 0.000000 m /space glyphshow
141.807129 0.000000 m /one glyphshow
149.123779 0.000000 m /hyphen glyphshow
153.273438 0.000000 m /W glyphshow
164.644287 0.000000 m /i glyphshow
167.839355 0.000000 m /r glyphshow
172.567383 0.000000 m /e glyphshow
179.642578 0.000000 m /b glyphshow
186.942383 0.000000 m /o glyphshow
193.978271 0.000000 m /n glyphshow
201.266846 0.000000 m /d glyphshow
208.566650 0.000000 m /space glyphshow
212.222168 0.000000 m /one glyphshow
grestore
1.000 0.498 0.055 setrgbcolor
gsave
238.485938 200.140625 m
261.485937 200.140625 l
stroke
grestore
0.000 setgray
gsave
270.685938 196.115625 translate
0.000000 rotate
0.000000 0.000000 m /T glyphshow
7.024658 0.000000 m /h glyphshow
14.313232 0.000000 m /e glyphshow
21.388428 0.000000 m /r glyphshow
26.116455 0.000000 m /m glyphshow
37.318848 0.000000 m /a glyphshow
44.365967 0.000000 m /l glyphshow
47.561035 0.000000 m /space glyphshow
51.216553 0.000000 m /N glyphshow
59.819092 0.000000 m /o glyphshow
66.854980 0.000000 m /i glyphshow
70.050049 0.000000 m /s glyphshow
76.041504 0.000000 m /e glyphshow
83.116699 0.000000 m /space glyphshow
86.772217 0.000000 m /W glyphshow
98.143066 0.000000 m /i glyphshow
101.338135 0.000000 m /r glyphshow
106.066162 0.000000 m /e glyphshow
113.141357 0.000000 m /b glyphshow
120.441162 0.000000 m /o glyphshow
127.477051 0.000000 m /n glyphshow
134.765625 0.000000 m /d glyphshow
142.065430 0.000000 m /space glyphshow
145.720947 0.000000 m /one glyphshow
153.037598 0.000000 m /hyphen glyphshow
157.187256 0.000000 m /G glyphshow
166.098633 0.000000 m /o glyphshow
173.134521 0.000000 m /l glyphshow
176.329590 0.000000 m /d glyphshow
183.629395 0.000000 m /space glyphshow
187.284912 0.000000 m /P glyphshow
194.219727 0.000000 m /a glyphshow
201.266846 0.000000 m /d glyphshow
208.566650 0.000000 m /space glyphshow
212.222168 0.000000 m /two glyphshow
grestore
0.173 0.627 0.173 setrgbcolor
gsave
238.485938 183.265625 m
261.485937 183.265625 l
stroke
grestore
0.000 setgray
gsave
270.685938 179.240625 translate
0.000000 rotate
0.000000 0.000000 m /T glyphshow
7.024658 0.000000 m /h glyphshow
14.313232 0.000000 m /e glyphshow
21.388428 0.000000 m /r glyphshow
26.116455 0.000000 m /m glyphshow
37.318848 0.000000 m /a glyphshow
44.365967 0.000000 m /l glyphshow
47.561035 0.000000 m /space glyphshow
51.216553 0.000000 m /N glyphshow
59.819092 0.000000 m /o glyphshow
66.854980 0.000000 m /i glyphshow
70.050049 0.000000 m /s glyphshow
76.041504 0.000000 m /e glyphshow
83.116699 0.000000 m /space glyphshow
86.772217 0.000000 m /S glyphshow
94.072021 0.000000 m /i glyphshow
97.267090 0.000000 m /l glyphshow
100.462158 0.000000 m /i glyphshow
103.657227 0.000000 m /c glyphshow
109.979980 0.000000 m /o glyphshow
117.015869 0.000000 m /n glyphshow
124.304443 0.000000 m /space glyphshow
127.959961 0.000000 m /W glyphshow
139.330811 0.000000 m /a glyphshow
146.377930 0.000000 m /f glyphshow
150.426514 0.000000 m /e glyphshow
157.501709 0.000000 m /r glyphshow
162.229736 0.000000 m /hyphen glyphshow
166.379395 0.000000 m /G glyphshow
175.290771 0.000000 m /o glyphshow
182.326660 0.000000 m /l glyphshow
185.521729 0.000000 m /d glyphshow
192.821533 0.000000 m /space glyphshow
196.477051 0.000000 m /P glyphshow
203.411865 0.000000 m /a glyphshow
210.458984 0.000000 m /d glyphshow
217.758789 0.000000 m /space glyphshow
221.414307 0.000000 m /two glyphshow
grestore
0.839 0.153 0.157 setrgbcolor
gsave
238.485938 166.390625 m
261.485937 166.390625 l
stroke
grestore
0.000 setgray
gsave
270.685938 162.365625 translate
0.000000 rotate
0.000000 0.000000 m /T glyphshow
7.024658 0.000000 m /h glyphshow
14.313232 0.000000 m /e glyphshow
21.388428 0.000000 m /r glyphshow
26.116455 0.000000 m /m glyphshow
37.318848 0.000000 m /a glyphshow
44.365967 0.000000 m /l glyphshow
47.561035 0.000000 m /space glyphshow
51.216553 0.000000 m /N glyphshow
59.819092 0.000000 m /o glyphshow
66.854980 0.000000 m /i glyphshow
70.050049 0.000000 m /s glyphshow
76.041504 0.000000 m /e glyphshow
83.116699 0.000000 m /space glyphshow
86.772217 0.000000 m /S glyphshow
94.072021 0.000000 m /i glyphshow
97.267090 0.000000 m /l glyphshow
100.462158 0.000000 m /i glyphshow
103.657227 0.000000 m /c glyphshow
109.979980 0.000000 m /o glyphshow
117.015869 0.000000 m /n glyphshow
124.304443 0.000000 m /space glyphshow
127.959961 0.000000 m /W glyphshow
139.330811 0.000000 m /a glyphshow
146.377930 0.000000 m /f glyphshow
150.426514 0.000000 m /e glyphshow
157.501709 0.000000 m /r glyphshow
162.229736 0.000000 m /hyphen glyphshow
166.379395 0.000000 m /M glyphshow
176.301514 0.000000 m /e glyphshow
183.376709 0.000000 m /a glyphshow
190.423828 0.000000 m /n glyphshow
197.712402 0.000000 m /d glyphshow
205.012207 0.000000 m /e glyphshow
212.087402 0.000000 m /r glyphshow
grestore
0.580 0.404 0.741 setrgbcolor
gsave
238.485938 149.515625 m
261.485937 149.515625 l
stroke
grestore
0.000 setgray
gsave
270.685938 145.490625 translate
0.000000 rotate
0.000000 0.000000 m /T glyphshow
7.024658 0.000000 m /h glyphshow
14.313232 0.000000 m /e glyphshow
21.388428 0.000000 m /r glyphshow
26.116455 0.000000 m /m glyphshow
37.318848 0.000000 m /a glyphshow
44.365967 0.000000 m /l glyphshow
47.561035 0.000000 m /space glyphshow
51.216553 0.000000 m /N glyphshow
59.819092 0.000000 m /o glyphshow
66.854980 0.000000 m /i glyphshow
70.050049 0.000000 m /s glyphshow
76.041504 0.000000 m /e glyphshow
83.116699 0.000000 m /space glyphshow
86.772217 0.000000 m /M glyphshow
96.694336 0.000000 m /e glyphshow
103.769531 0.000000 m /a glyphshow
110.816650 0.000000 m /n glyphshow
118.105225 0.000000 m /d glyphshow
125.405029 0.000000 m /e glyphshow
132.480225 0.000000 m /r glyphshow
137.208252 0.000000 m /hyphen glyphshow
141.357910 0.000000 m /W glyphshow
152.728760 0.000000 m /i glyphshow
155.923828 0.000000 m /r glyphshow
160.651855 0.000000 m /e glyphshow
167.727051 0.000000 m /b glyphshow
175.026855 0.000000 m /o glyphshow
182.062744 0.000000 m /n glyphshow
189.351318 0.000000 m /d glyphshow
196.651123 0.000000 m /space glyphshow
200.306641 0.000000 m /two glyphshow
grestore
0.549 0.337 0.294 setrgbcolor
gsave
238.485938 132.640625 m
261.485937 132.640625 l
stroke
grestore
0.000 setgray
gsave
270.685938 128.615625 translate
0.000000 rotate
0.000000 0.000000 m /T glyphshow
7.024658 0.000000 m /h glyphshow
14.313232 0.000000 m /e glyphshow
21.388428 0.000000 m /r glyphshow
26.116455 0.000000 m /m glyphshow
37.318848 0.000000 m /a glyphshow
44.365967 0.000000 m /l glyphshow
47.561035 0.000000 m /space glyphshow
51.216553 0.000000 m /N glyphshow
59.819092 0.000000 m /o glyphshow
66.854980 0.000000 m /i glyphshow
70.050049 0.000000 m /s glyphshow
76.041504 0.000000 m /e glyphshow
83.116699 0.000000 m /space glyphshow
86.772217 0.000000 m /W glyphshow
98.143066 0.000000 m /i glyphshow
101.338135 0.000000 m /r glyphshow
106.066162 0.000000 m /e glyphshow
113.141357 0.000000 m /b glyphshow
120.441162 0.000000 m /o glyphshow
127.477051 0.000000 m /n glyphshow
134.765625 0.000000 m /d glyphshow
142.065430 0.000000 m /space glyphshow
145.720947 0.000000 m /two glyphshow
153.037598 0.000000 m /hyphen glyphshow
157.187256 0.000000 m /B glyphshow
165.076660 0.000000 m /a glyphshow
172.123779 0.000000 m /t glyphshow
176.632812 0.000000 m /h glyphshow
grestore
3.000 setlinewidth
2 setlinecap
[] 0 setdash
gsave
238.485938 115.765625 m
261.485937 115.765625 l
stroke
grestore
gsave
270.685938 111.740625 translate
0.000000 rotate
0.000000 0.000000 m /T glyphshow
6.993408 0.000000 m /o glyphshow
14.029297 0.000000 m /t glyphshow
18.538330 0.000000 m /a glyphshow
25.585449 0.000000 m /l glyphshow
28.780518 0.000000 m /space glyphshow
32.436035 0.000000 m /N glyphshow
41.038574 0.000000 m /o glyphshow
48.074463 0.000000 m /i glyphshow
51.269531 0.000000 m /s glyphshow
57.260986 0.000000 m /e glyphshow
grestore

end
showpage
