%!PS-Adobe-3.0 EPSF-3.0
%%Title: Frequency Spectrum 20mK pulse 1 May 2018 NEP.eps
%%Creator: matplotlib version 2.1.2, http://matplotlib.org/
%%CreationDate: Tue May  1 07:52:37 2018
%%Orientation: portrait
%%BoundingBox: -54 0 666 792
%%EndComments
%%BeginProlog
/mpldict 10 dict def
mpldict begin
/m { moveto } bind def
/l { lineto } bind def
/r { rlineto } bind def
/c { curveto } bind def
/cl { closepath } bind def
/box {
m
1 index 0 r
0 exch r
neg 0 r
cl
} bind def
/clipbox {
box
clip
newpath
} bind def
%!PS-Adobe-3.0 Resource-Font
%%Title: DejaVu Sans
%%Copyright: Copyright (c) 2003 by Bitstream, Inc. All Rights Reserved. Copyright (c) 2006 by Tavmjong Bah. All Rights Reserved. DejaVu changes are in public domain 
%%Creator: Converted from TrueType to type 3 by PPR
25 dict begin
/_d{bind def}bind def
/_m{moveto}_d
/_l{lineto}_d
/_cl{closepath eofill}_d
/_c{curveto}_d
/_sc{7 -1 roll{setcachedevice}{pop pop pop pop pop pop}ifelse}_d
/_e{exec}_d
/FontName /DejaVuSans def
/PaintType 0 def
/FontMatrix[.001 0 0 .001 0 0]def
/FontBBox[-1021 -463 1793 1232]def
/FontType 3 def
/Encoding [ /space /hyphen /slash /zero /one /two /three /four /five /six /seven /nine /colon /equal /A /B /E /F /G /H /I /J /M /N /P /S /T /W /bracketleft /bracketright /a /b /c /d /e /f /h /i /l /m /n /o /q /r /s /t /u /v /x /y /z /minus ] def
/FontInfo 10 dict dup begin
/FamilyName (DejaVu Sans) def
/FullName (DejaVu Sans) def
/Notice (Copyright (c) 2003 by Bitstream, Inc. All Rights Reserved. Copyright (c) 2006 by Tavmjong Bah. All Rights Reserved. DejaVu changes are in public domain ) def
/Weight (Book) def
/Version (Version 2.35) def
/ItalicAngle 0.0 def
/isFixedPitch false def
/UnderlinePosition -130 def
/UnderlineThickness 90 def
end readonly def
/CharStrings 53 dict dup begin
/.notdef 0 def
/space{318 0 0 0 0 0 _sc
}_d
/hyphen{361 0 49 234 312 314 _sc
49 314 _m
312 314 _l
312 234 _l
49 234 _l
49 314 _l
_cl}_d
/slash{337 0 0 -92 337 729 _sc
254 729 _m
337 729 _l
83 -92 _l
0 -92 _l
254 729 _l
_cl}_d
/zero{636 0 66 -13 570 742 _sc
318 664 _m
267 664 229 639 203 589 _c
177 539 165 464 165 364 _c
165 264 177 189 203 139 _c
229 89 267 64 318 64 _c
369 64 407 89 433 139 _c
458 189 471 264 471 364 _c
471 464 458 539 433 589 _c
407 639 369 664 318 664 _c
318 742 _m
399 742 461 709 505 645 _c
548 580 570 486 570 364 _c
570 241 548 147 505 83 _c
461 19 399 -13 318 -13 _c
236 -13 173 19 130 83 _c
87 147 66 241 66 364 _c
66 486 87 580 130 645 _c
173 709 236 742 318 742 _c
_cl}_d
/one{636 0 110 0 544 729 _sc
124 83 _m
285 83 _l
285 639 _l
110 604 _l
110 694 _l
284 729 _l
383 729 _l
383 83 _l
544 83 _l
544 0 _l
124 0 _l
124 83 _l
_cl}_d
/two{{636 0 73 0 536 742 _sc
192 83 _m
536 83 _l
536 0 _l
73 0 _l
73 83 _l
110 121 161 173 226 239 _c
290 304 331 346 348 365 _c
380 400 402 430 414 455 _c
426 479 433 504 433 528 _c
433 566 419 598 392 622 _c
365 646 330 659 286 659 _c
255 659 222 653 188 643 _c
154 632 117 616 78 594 _c
78 694 _l
118 710 155 722 189 730 _c
223 738 255 742 284 742 _c
}_e{359 742 419 723 464 685 _c
509 647 532 597 532 534 _c
532 504 526 475 515 449 _c
504 422 484 390 454 354 _c
446 344 420 317 376 272 _c
332 227 271 164 192 83 _c
_cl}_e}_d
/three{{636 0 76 -13 556 742 _sc
406 393 _m
453 383 490 362 516 330 _c
542 298 556 258 556 212 _c
556 140 531 84 482 45 _c
432 6 362 -13 271 -13 _c
240 -13 208 -10 176 -4 _c
144 1 110 10 76 22 _c
76 117 _l
103 101 133 89 166 81 _c
198 73 232 69 268 69 _c
330 69 377 81 409 105 _c
441 129 458 165 458 212 _c
458 254 443 288 413 312 _c
383 336 341 349 287 349 _c
}_e{202 349 _l
202 430 _l
291 430 _l
339 430 376 439 402 459 _c
428 478 441 506 441 543 _c
441 580 427 609 401 629 _c
374 649 336 659 287 659 _c
260 659 231 656 200 650 _c
169 644 135 635 98 623 _c
98 711 _l
135 721 170 729 203 734 _c
235 739 266 742 296 742 _c
370 742 429 725 473 691 _c
517 657 539 611 539 553 _c
539 513 527 479 504 451 _c
481 423 448 403 406 393 _c
_cl}_e}_d
/four{636 0 49 0 580 729 _sc
378 643 _m
129 254 _l
378 254 _l
378 643 _l
352 729 _m
476 729 _l
476 254 _l
580 254 _l
580 172 _l
476 172 _l
476 0 _l
378 0 _l
378 172 _l
49 172 _l
49 267 _l
352 729 _l
_cl}_d
/five{{636 0 77 -13 549 729 _sc
108 729 _m
495 729 _l
495 646 _l
198 646 _l
198 467 _l
212 472 227 476 241 478 _c
255 480 270 482 284 482 _c
365 482 429 459 477 415 _c
525 370 549 310 549 234 _c
549 155 524 94 475 51 _c
426 8 357 -13 269 -13 _c
238 -13 207 -10 175 -6 _c
143 -1 111 6 77 17 _c
77 116 _l
106 100 136 88 168 80 _c
199 72 232 69 267 69 _c
}_e{323 69 368 83 401 113 _c
433 143 450 183 450 234 _c
450 284 433 324 401 354 _c
368 384 323 399 267 399 _c
241 399 214 396 188 390 _c
162 384 135 375 108 363 _c
108 729 _l
_cl}_e}_d
/six{{636 0 70 -13 573 742 _sc
330 404 _m
286 404 251 388 225 358 _c
199 328 186 286 186 234 _c
186 181 199 139 225 109 _c
251 79 286 64 330 64 _c
374 64 409 79 435 109 _c
461 139 474 181 474 234 _c
474 286 461 328 435 358 _c
409 388 374 404 330 404 _c
526 713 _m
526 623 _l
501 635 476 644 451 650 _c
425 656 400 659 376 659 _c
310 659 260 637 226 593 _c
}_e{192 549 172 482 168 394 _c
187 422 211 444 240 459 _c
269 474 301 482 336 482 _c
409 482 467 459 509 415 _c
551 371 573 310 573 234 _c
573 159 550 99 506 54 _c
462 9 403 -13 330 -13 _c
246 -13 181 19 137 83 _c
92 147 70 241 70 364 _c
70 479 97 571 152 639 _c
206 707 280 742 372 742 _c
396 742 421 739 447 735 _c
472 730 498 723 526 713 _c
_cl}_e}_d
/seven{636 0 82 0 551 729 _sc
82 729 _m
551 729 _l
551 687 _l
286 0 _l
183 0 _l
432 646 _l
82 646 _l
82 729 _l
_cl}_d
/nine{{636 0 63 -13 566 742 _sc
110 15 _m
110 105 _l
134 93 159 84 185 78 _c
210 72 235 69 260 69 _c
324 69 374 90 408 134 _c
442 178 462 244 468 334 _c
448 306 424 284 396 269 _c
367 254 335 247 300 247 _c
226 247 168 269 126 313 _c
84 357 63 417 63 494 _c
63 568 85 628 129 674 _c
173 719 232 742 306 742 _c
390 742 455 709 499 645 _c
543 580 566 486 566 364 _c
}_e{566 248 538 157 484 89 _c
429 21 356 -13 264 -13 _c
239 -13 214 -10 189 -6 _c
163 -2 137 5 110 15 _c
306 324 _m
350 324 385 339 411 369 _c
437 399 450 441 450 494 _c
450 546 437 588 411 618 _c
385 648 350 664 306 664 _c
262 664 227 648 201 618 _c
175 588 162 546 162 494 _c
162 441 175 399 201 369 _c
227 339 262 324 306 324 _c
_cl}_e}_d
/colon{337 0 117 0 220 517 _sc
117 124 _m
220 124 _l
220 0 _l
117 0 _l
117 124 _l
117 517 _m
220 517 _l
220 393 _l
117 393 _l
117 517 _l
_cl}_d
/equal{838 0 106 172 732 454 _sc
106 454 _m
732 454 _l
732 372 _l
106 372 _l
106 454 _l
106 255 _m
732 255 _l
732 172 _l
106 172 _l
106 255 _l
_cl}_d
/A{684 0 8 0 676 729 _sc
342 632 _m
208 269 _l
476 269 _l
342 632 _l
286 729 _m
398 729 _l
676 0 _l
573 0 _l
507 187 _l
178 187 _l
112 0 _l
8 0 _l
286 729 _l
_cl}_d
/B{{686 0 98 0 615 729 _sc
197 348 _m
197 81 _l
355 81 _l
408 81 447 92 473 114 _c
498 136 511 169 511 215 _c
511 260 498 293 473 315 _c
447 337 408 348 355 348 _c
197 348 _l
197 648 _m
197 428 _l
343 428 _l
391 428 426 437 450 455 _c
474 473 486 500 486 538 _c
486 574 474 602 450 620 _c
426 638 391 648 343 648 _c
197 648 _l
98 729 _m
350 729 _l
}_e{425 729 483 713 524 682 _c
564 650 585 606 585 549 _c
585 504 574 468 553 442 _c
532 416 502 399 462 393 _c
510 382 548 360 575 327 _c
601 294 615 253 615 204 _c
615 138 592 88 548 53 _c
504 17 441 0 360 0 _c
98 0 _l
98 729 _l
_cl}_e}_d
/E{632 0 98 0 568 729 _sc
98 729 _m
559 729 _l
559 646 _l
197 646 _l
197 430 _l
544 430 _l
544 347 _l
197 347 _l
197 83 _l
568 83 _l
568 0 _l
98 0 _l
98 729 _l
_cl}_d
/F{575 0 98 0 517 729 _sc
98 729 _m
517 729 _l
517 646 _l
197 646 _l
197 431 _l
486 431 _l
486 348 _l
197 348 _l
197 0 _l
98 0 _l
98 729 _l
_cl}_d
/G{{775 0 56 -13 693 742 _sc
595 104 _m
595 300 _l
434 300 _l
434 381 _l
693 381 _l
693 68 _l
655 40 613 20 567 7 _c
521 -6 472 -13 420 -13 _c
306 -13 216 20 152 86 _c
88 152 56 245 56 364 _c
56 482 88 575 152 642 _c
216 708 306 742 420 742 _c
467 742 512 736 555 724 _c
598 712 638 695 674 673 _c
674 568 _l
637 598 598 621 557 637 _c
516 653 473 661 428 661 _c
}_e{338 661 271 636 227 586 _c
182 536 160 462 160 364 _c
160 265 182 191 227 141 _c
271 91 338 67 428 67 _c
462 67 493 70 521 76 _c
549 82 573 91 595 104 _c
_cl}_e}_d
/H{752 0 98 0 654 729 _sc
98 729 _m
197 729 _l
197 430 _l
555 430 _l
555 729 _l
654 729 _l
654 0 _l
555 0 _l
555 347 _l
197 347 _l
197 0 _l
98 0 _l
98 729 _l
_cl}_d
/I{295 0 98 0 197 729 _sc
98 729 _m
197 729 _l
197 0 _l
98 0 _l
98 729 _l
_cl}_d
/J{295 0 -51 -199 197 729 _sc
98 729 _m
197 729 _l
197 51 _l
197 -36 180 -99 147 -139 _c
113 -179 60 -199 -13 -199 _c
-51 -199 _l
-51 -116 _l
-20 -116 _l
22 -116 53 -103 71 -79 _c
89 -55 98 -11 98 51 _c
98 729 _l
_cl}_d
/M{863 0 98 0 765 729 _sc
98 729 _m
245 729 _l
431 233 _l
618 729 _l
765 729 _l
765 0 _l
669 0 _l
669 640 _l
481 140 _l
382 140 _l
194 640 _l
194 0 _l
98 0 _l
98 729 _l
_cl}_d
/N{748 0 98 0 650 729 _sc
98 729 _m
231 729 _l
554 119 _l
554 729 _l
650 729 _l
650 0 _l
517 0 _l
194 610 _l
194 0 _l
98 0 _l
98 729 _l
_cl}_d
/P{603 0 98 0 569 729 _sc
197 648 _m
197 374 _l
321 374 _l
367 374 402 385 427 409 _c
452 433 465 467 465 511 _c
465 555 452 588 427 612 _c
402 636 367 648 321 648 _c
197 648 _l
98 729 _m
321 729 _l
402 729 464 710 506 673 _c
548 636 569 582 569 511 _c
569 439 548 384 506 348 _c
464 311 402 293 321 293 _c
197 293 _l
197 0 _l
98 0 _l
98 729 _l
_cl}_d
/S{{635 0 66 -13 579 742 _sc
535 705 _m
535 609 _l
497 627 462 640 429 649 _c
395 657 363 662 333 662 _c
279 662 237 651 208 631 _c
179 610 165 580 165 542 _c
165 510 174 485 194 469 _c
213 452 250 439 304 429 _c
364 417 _l
437 403 491 378 526 343 _c
561 307 579 260 579 201 _c
579 130 555 77 508 41 _c
460 5 391 -13 300 -13 _c
265 -13 228 -9 189 -2 _c
}_e{150 5 110 16 69 32 _c
69 134 _l
109 111 148 94 186 83 _c
224 71 262 66 300 66 _c
356 66 399 77 430 99 _c
460 121 476 152 476 194 _c
476 230 465 258 443 278 _c
421 298 385 313 335 323 _c
275 335 _l
201 349 148 372 115 404 _c
82 435 66 478 66 534 _c
66 598 88 649 134 686 _c
179 723 242 742 322 742 _c
356 742 390 739 426 733 _c
461 727 497 717 535 705 _c
}_e{_cl}_e}_d
/T{611 0 -2 0 614 729 _sc
-2 729 _m
614 729 _l
614 646 _l
355 646 _l
355 0 _l
256 0 _l
256 646 _l
-2 646 _l
-2 729 _l
_cl}_d
/W{989 0 33 0 956 729 _sc
33 729 _m
133 729 _l
286 113 _l
439 729 _l
550 729 _l
703 113 _l
856 729 _l
956 729 _l
773 0 _l
649 0 _l
495 633 _l
340 0 _l
216 0 _l
33 729 _l
_cl}_d
/bracketleft{390 0 86 -131 293 760 _sc
86 760 _m
293 760 _l
293 690 _l
176 690 _l
176 -61 _l
293 -61 _l
293 -131 _l
86 -131 _l
86 760 _l
_cl}_d
/bracketright{390 0 97 -131 304 760 _sc
304 760 _m
304 -131 _l
97 -131 _l
97 -61 _l
214 -61 _l
214 690 _l
97 690 _l
97 760 _l
304 760 _l
_cl}_d
/a{{613 0 60 -13 522 560 _sc
343 275 _m
270 275 220 266 192 250 _c
164 233 150 205 150 165 _c
150 133 160 107 181 89 _c
202 70 231 61 267 61 _c
317 61 357 78 387 114 _c
417 149 432 196 432 255 _c
432 275 _l
343 275 _l
522 312 _m
522 0 _l
432 0 _l
432 83 _l
411 49 385 25 355 10 _c
325 -5 287 -13 243 -13 _c
187 -13 142 2 109 33 _c
76 64 60 106 60 159 _c
}_e{60 220 80 266 122 298 _c
163 329 224 345 306 345 _c
432 345 _l
432 354 _l
432 395 418 427 391 450 _c
364 472 326 484 277 484 _c
245 484 215 480 185 472 _c
155 464 127 453 100 439 _c
100 522 _l
132 534 164 544 195 550 _c
226 556 256 560 286 560 _c
365 560 424 539 463 498 _c
502 457 522 395 522 312 _c
_cl}_e}_d
/b{{635 0 91 -13 580 760 _sc
487 273 _m
487 339 473 390 446 428 _c
418 466 381 485 334 485 _c
286 485 249 466 222 428 _c
194 390 181 339 181 273 _c
181 207 194 155 222 117 _c
249 79 286 61 334 61 _c
381 61 418 79 446 117 _c
473 155 487 207 487 273 _c
181 464 _m
199 496 223 520 252 536 _c
281 552 316 560 356 560 _c
422 560 476 533 518 481 _c
559 428 580 359 580 273 _c
}_e{580 187 559 117 518 65 _c
476 13 422 -13 356 -13 _c
316 -13 281 -5 252 10 _c
223 25 199 49 181 82 _c
181 0 _l
91 0 _l
91 760 _l
181 760 _l
181 464 _l
_cl}_e}_d
/c{{550 0 55 -13 488 560 _sc
488 526 _m
488 442 _l
462 456 437 466 411 473 _c
385 480 360 484 334 484 _c
276 484 230 465 198 428 _c
166 391 150 339 150 273 _c
150 206 166 154 198 117 _c
230 80 276 62 334 62 _c
360 62 385 65 411 72 _c
437 79 462 90 488 104 _c
488 21 _l
462 9 436 0 410 -5 _c
383 -10 354 -13 324 -13 _c
242 -13 176 12 128 64 _c
}_e{79 115 55 185 55 273 _c
55 362 79 432 128 483 _c
177 534 244 560 330 560 _c
358 560 385 557 411 551 _c
437 545 463 537 488 526 _c
_cl}_e}_d
/d{{635 0 55 -13 544 760 _sc
454 464 _m
454 760 _l
544 760 _l
544 0 _l
454 0 _l
454 82 _l
435 49 411 25 382 10 _c
353 -5 319 -13 279 -13 _c
213 -13 159 13 117 65 _c
75 117 55 187 55 273 _c
55 359 75 428 117 481 _c
159 533 213 560 279 560 _c
319 560 353 552 382 536 _c
411 520 435 496 454 464 _c
148 273 _m
148 207 161 155 188 117 _c
215 79 253 61 301 61 _c
}_e{348 61 385 79 413 117 _c
440 155 454 207 454 273 _c
454 339 440 390 413 428 _c
385 466 348 485 301 485 _c
253 485 215 466 188 428 _c
161 390 148 339 148 273 _c
_cl}_e}_d
/e{{615 0 55 -13 562 560 _sc
562 296 _m
562 252 _l
149 252 _l
153 190 171 142 205 110 _c
238 78 284 62 344 62 _c
378 62 412 66 444 74 _c
476 82 509 95 541 113 _c
541 28 _l
509 14 476 3 442 -3 _c
408 -9 373 -13 339 -13 _c
251 -13 182 12 131 62 _c
80 112 55 181 55 268 _c
55 357 79 428 127 481 _c
175 533 241 560 323 560 _c
397 560 455 536 498 489 _c
}_e{540 441 562 377 562 296 _c
472 322 _m
471 371 457 410 431 440 _c
404 469 368 484 324 484 _c
274 484 234 469 204 441 _c
174 413 156 373 152 322 _c
472 322 _l
_cl}_e}_d
/f{352 0 23 0 371 760 _sc
371 760 _m
371 685 _l
285 685 _l
253 685 230 678 218 665 _c
205 652 199 629 199 595 _c
199 547 _l
347 547 _l
347 477 _l
199 477 _l
199 0 _l
109 0 _l
109 477 _l
23 477 _l
23 547 _l
109 547 _l
109 585 _l
109 645 123 690 151 718 _c
179 746 224 760 286 760 _c
371 760 _l
_cl}_d
/h{634 0 91 0 549 760 _sc
549 330 _m
549 0 _l
459 0 _l
459 327 _l
459 379 448 417 428 443 _c
408 469 378 482 338 482 _c
289 482 251 466 223 435 _c
195 404 181 362 181 309 _c
181 0 _l
91 0 _l
91 760 _l
181 760 _l
181 462 _l
202 494 227 519 257 535 _c
286 551 320 560 358 560 _c
420 560 468 540 500 501 _c
532 462 549 405 549 330 _c
_cl}_d
/i{278 0 94 0 184 760 _sc
94 547 _m
184 547 _l
184 0 _l
94 0 _l
94 547 _l
94 760 _m
184 760 _l
184 646 _l
94 646 _l
94 760 _l
_cl}_d
/l{278 0 94 0 184 760 _sc
94 760 _m
184 760 _l
184 0 _l
94 0 _l
94 760 _l
_cl}_d
/m{{974 0 91 0 889 560 _sc
520 442 _m
542 482 569 511 600 531 _c
631 550 668 560 711 560 _c
767 560 811 540 842 500 _c
873 460 889 403 889 330 _c
889 0 _l
799 0 _l
799 327 _l
799 379 789 418 771 444 _c
752 469 724 482 686 482 _c
639 482 602 466 575 435 _c
548 404 535 362 535 309 _c
535 0 _l
445 0 _l
445 327 _l
445 379 435 418 417 444 _c
398 469 369 482 331 482 _c
}_e{285 482 248 466 221 435 _c
194 404 181 362 181 309 _c
181 0 _l
91 0 _l
91 547 _l
181 547 _l
181 462 _l
201 495 226 520 255 536 _c
283 552 317 560 357 560 _c
397 560 430 550 458 530 _c
486 510 506 480 520 442 _c
_cl}_e}_d
/n{634 0 91 0 549 560 _sc
549 330 _m
549 0 _l
459 0 _l
459 327 _l
459 379 448 417 428 443 _c
408 469 378 482 338 482 _c
289 482 251 466 223 435 _c
195 404 181 362 181 309 _c
181 0 _l
91 0 _l
91 547 _l
181 547 _l
181 462 _l
202 494 227 519 257 535 _c
286 551 320 560 358 560 _c
420 560 468 540 500 501 _c
532 462 549 405 549 330 _c
_cl}_d
/o{612 0 55 -13 557 560 _sc
306 484 _m
258 484 220 465 192 427 _c
164 389 150 338 150 273 _c
150 207 163 156 191 118 _c
219 80 257 62 306 62 _c
354 62 392 80 420 118 _c
448 156 462 207 462 273 _c
462 337 448 389 420 427 _c
392 465 354 484 306 484 _c
306 560 _m
384 560 445 534 490 484 _c
534 433 557 363 557 273 _c
557 183 534 113 490 63 _c
445 12 384 -13 306 -13 _c
227 -13 165 12 121 63 _c
77 113 55 183 55 273 _c
55 363 77 433 121 484 _c
165 534 227 560 306 560 _c
_cl}_d
/q{{635 0 55 -207 544 560 _sc
148 273 _m
148 207 161 155 188 117 _c
215 79 253 61 301 61 _c
348 61 385 79 413 117 _c
440 155 454 207 454 273 _c
454 339 440 390 413 428 _c
385 466 348 485 301 485 _c
253 485 215 466 188 428 _c
161 390 148 339 148 273 _c
454 82 _m
435 49 411 25 382 10 _c
353 -5 319 -13 279 -13 _c
213 -13 159 13 117 65 _c
75 117 55 187 55 273 _c
}_e{55 359 75 428 117 481 _c
159 533 213 560 279 560 _c
319 560 353 552 382 536 _c
411 520 435 496 454 464 _c
454 547 _l
544 547 _l
544 -207 _l
454 -207 _l
454 82 _l
_cl}_e}_d
/r{411 0 91 0 411 560 _sc
411 463 _m
401 469 390 473 378 476 _c
366 478 353 480 339 480 _c
288 480 249 463 222 430 _c
194 397 181 350 181 288 _c
181 0 _l
91 0 _l
91 547 _l
181 547 _l
181 462 _l
199 495 224 520 254 536 _c
284 552 321 560 365 560 _c
371 560 378 559 386 559 _c
393 558 401 557 411 555 _c
411 463 _l
_cl}_d
/s{{521 0 54 -13 472 560 _sc
443 531 _m
443 446 _l
417 458 391 468 364 475 _c
336 481 308 485 279 485 _c
234 485 200 478 178 464 _c
156 450 145 430 145 403 _c
145 382 153 366 169 354 _c
185 342 217 330 265 320 _c
296 313 _l
360 299 405 279 432 255 _c
458 230 472 195 472 151 _c
472 100 452 60 412 31 _c
372 1 316 -13 246 -13 _c
216 -13 186 -10 154 -5 _c
}_e{122 0 89 8 54 20 _c
54 113 _l
87 95 120 82 152 74 _c
184 65 216 61 248 61 _c
290 61 323 68 346 82 _c
368 96 380 117 380 144 _c
380 168 371 187 355 200 _c
339 213 303 226 247 238 _c
216 245 _l
160 257 119 275 95 299 _c
70 323 58 356 58 399 _c
58 450 76 490 112 518 _c
148 546 200 560 268 560 _c
301 560 332 557 362 552 _c
391 547 418 540 443 531 _c
}_e{_cl}_e}_d
/t{392 0 27 0 368 702 _sc
183 702 _m
183 547 _l
368 547 _l
368 477 _l
183 477 _l
183 180 _l
183 135 189 106 201 94 _c
213 81 238 75 276 75 _c
368 75 _l
368 0 _l
276 0 _l
206 0 158 13 132 39 _c
106 65 93 112 93 180 _c
93 477 _l
27 477 _l
27 547 _l
93 547 _l
93 702 _l
183 702 _l
_cl}_d
/u{634 0 85 -13 543 560 _sc
85 216 _m
85 547 _l
175 547 _l
175 219 _l
175 167 185 129 205 103 _c
225 77 255 64 296 64 _c
344 64 383 79 411 110 _c
439 141 453 183 453 237 _c
453 547 _l
543 547 _l
543 0 _l
453 0 _l
453 84 _l
431 50 405 26 377 10 _c
348 -5 315 -13 277 -13 _c
214 -13 166 6 134 45 _c
101 83 85 140 85 216 _c
311 560 _m
311 560 _l
_cl}_d
/v{592 0 30 0 562 547 _sc
30 547 _m
125 547 _l
296 88 _l
467 547 _l
562 547 _l
357 0 _l
235 0 _l
30 547 _l
_cl}_d
/x{592 0 29 0 559 547 _sc
549 547 _m
351 281 _l
559 0 _l
453 0 _l
294 215 _l
135 0 _l
29 0 _l
241 286 _l
47 547 _l
153 547 _l
298 352 _l
443 547 _l
549 547 _l
_cl}_d
/y{592 0 30 -207 562 547 _sc
322 -50 _m
296 -114 271 -157 247 -177 _c
223 -197 191 -207 151 -207 _c
79 -207 _l
79 -132 _l
132 -132 _l
156 -132 175 -126 189 -114 _c
203 -102 218 -75 235 -31 _c
251 9 _l
30 547 _l
125 547 _l
296 119 _l
467 547 _l
562 547 _l
322 -50 _l
_cl}_d
/z{525 0 43 0 482 547 _sc
55 547 _m
482 547 _l
482 465 _l
144 72 _l
482 72 _l
482 0 _l
43 0 _l
43 82 _l
381 475 _l
55 475 _l
55 547 _l
_cl}_d
/minus{838 0 106 272 732 355 _sc
106 355 _m
732 355 _l
732 272 _l
106 272 _l
106 355 _l
_cl}_d
end readonly def

/BuildGlyph
 {exch begin
 CharStrings exch
 2 copy known not{pop /.notdef}if
 true 3 1 roll get exec
 end}_d

/BuildChar {
 1 index /Encoding get exch get
 1 index /BuildGlyph get exec
}_d

FontName currentdict end definefont pop
%!PS-Adobe-3.0 Resource-Font
%%Title: DejaVu Sans Oblique
%%Copyright: Copyright (c) 2003 by Bitstream, Inc. All Rights Reserved. Copyright (c) 2006 by Tavmjong Bah. All Rights Reserved. DejaVu changes are in public domain 
%%Creator: Converted from TrueType to type 3 by PPR
25 dict begin
/_d{bind def}bind def
/_m{moveto}_d
/_l{lineto}_d
/_cl{closepath eofill}_d
/_c{curveto}_d
/_sc{7 -1 roll{setcachedevice}{pop pop pop pop pop pop}ifelse}_d
/_e{exec}_d
/FontName /DejaVuSans-Oblique def
/PaintType 0 def
/FontMatrix[.001 0 0 .001 0 0]def
/FontBBox[-1016 -350 1659 1068]def
/FontType 3 def
/Encoding [ /H /z /tau ] def
/FontInfo 10 dict dup begin
/FamilyName (DejaVu Sans) def
/FullName (DejaVu Sans Oblique) def
/Notice (Copyright (c) 2003 by Bitstream, Inc. All Rights Reserved. Copyright (c) 2006 by Tavmjong Bah. All Rights Reserved. DejaVu changes are in public domain ) def
/Weight (Oblique) def
/Version (Version 2.35) def
/ItalicAngle -11.0 def
/isFixedPitch false def
/UnderlinePosition -130 def
/UnderlineThickness 90 def
end readonly def
/CharStrings 4 dict dup begin
/.notdef 0 def
/H{752 0 27 0 725 729 _sc
169 729 _m
268 729 _l
210 430 _l
568 430 _l
626 729 _l
725 729 _l
583 0 _l
484 0 _l
552 347 _l
194 347 _l
126 0 _l
27 0 _l
169 729 _l
_cl}_d
/z{525 0 -2 0 543 547 _sc
116 547 _m
543 547 _l
527 465 _l
115 72 _l
455 72 _l
441 0 _l
-2 0 _l
13 82 _l
425 475 _l
102 475 _l
116 547 _l
_cl}_d
/tau{602 0 84 0 606 547 _sc
329 100 _m
337 84 359 76 395 76 _c
438 76 _l
423 0 _l
369 0 _l
310 0 270 15 250 47 _c
229 79 226 129 240 198 _c
290 457 _l
84 457 _l
102 547 _l
606 547 _l
589 457 _l
382 457 _l
330 193 _l
320 145 320 114 329 100 _c
_cl}_d
end readonly def

/BuildGlyph
 {exch begin
 CharStrings exch
 2 copy known not{pop /.notdef}if
 true 3 1 roll get exec
 end}_d

/BuildChar {
 1 index /Encoding get exch get
 1 index /BuildGlyph get exec
}_d

FontName currentdict end definefont pop
%!PS-Adobe-3.0 Resource-Font
%%Title: STIXSizeOneSym-Regular
%%Copyright: Copyright (c) 2001-2010 by the STI Pub Companies, consisting of the American Chemical Society, the American Institute of Physics, the American Mathematical Society, the American Physical Society, Elsevier, Inc., and The Institute of Electrical and Electronic Engineers, Inc. Portions copyright (c) 1998-2003 by MicroPress, Inc. Portions copyright (c) 1990 by Elsevier, Inc. All rights reserved.
%%Creator: Converted from TrueType to type 3 by PPR
25 dict begin
/_d{bind def}bind def
/_m{moveto}_d
/_l{lineto}_d
/_cl{closepath eofill}_d
/_c{curveto}_d
/_sc{7 -1 roll{setcachedevice}{pop pop pop pop pop pop}ifelse}_d
/_e{exec}_d
/FontName /STIXSizeOneSym-Regular def
/PaintType 0 def
/FontMatrix[.001 0 0 .001 0 0]def
/FontBBox[-1000 -363 1503 1566]def
/FontType 3 def
/Encoding [ /uni221A ] def
/FontInfo 10 dict dup begin
/FamilyName (STIXSizeOneSym) def
/FullName (STIXSizeOneSym-Regular) def
/Notice (Copyright (c) 2001-2010 by the STI Pub Companies, consisting of the American Chemical Society, the American Institute of Physics, the American Mathematical Society, the American Physical Society, Elsevier, Inc., and The Institute of Electrical and Electronic Engineers, Inc. Portions copyright (c) 1998-2003 by MicroPress, Inc. Portions copyright (c) 1990 by Elsevier, Inc. All rights reserved. STIX Fonts(TM) is a trademark of The Institute of Electrical and Electronics Engineers, Inc.) def
/Weight (Regular) def
/Version (Version 1.0.0) def
/ItalicAngle 0.0 def
/isFixedPitch false def
/UnderlinePosition -123 def
/UnderlineThickness 20 def
end readonly def
/CharStrings 2 dict dup begin
/.notdef 0 def
/uni221A{1057 0 112 -294 1089 1552 _sc
1089 1552 _m
527 -294 _l
485 -294 _l
254 456 _l
246 480 238 497 229 508 _c
219 518 207 524 192 524 _c
169 524 146 515 124 497 _c
112 517 _l
276 643 _l
301 643 _l
528 -93 _l
532 -93 _l
1032 1552 _l
1089 1552 _l
_cl}_d
end readonly def

/BuildGlyph
 {exch begin
 CharStrings exch
 2 copy known not{pop /.notdef}if
 true 3 1 roll get exec
 end}_d

/BuildChar {
 1 index /Encoding get exch get
 1 index /BuildGlyph get exec
}_d

FontName currentdict end definefont pop
end
%%EndProlog
mpldict begin
-54 0 translate
720 792 0 0 clipbox
gsave
0 0 m
720 0 l
720 792 l
0 792 l
cl
1.000 setgray
fill
grestore
gsave
90 99 m
648 99 l
648 696.96 l
90 696.96 l
cl
1.000 setgray
fill
grestore
0.800 setlinewidth
1 setlinejoin
2 setlinecap
[] 0 setdash
0.690 setgray
gsave
558 598 90 99 clipbox
171.727273 99 m
171.727273 696.96 l
stroke
grestore
0 setlinecap
0.000 setgray
gsave
/o {
gsave
newpath
translate
0.8 setlinewidth
1 setlinejoin
0 setlinecap
0 0 m
0 -3.5 l

gsave
0.000 setgray
fill
grestore
stroke
grestore
} bind def
171.727 99 o
grestore
gsave
153.727273 80.125000 translate
0.000000 rotate
/DejaVuSans findfont
15.0 scalefont
setfont
0.000000 0.601562 moveto
/one glyphshow

9.543457 0.601562 moveto
/zero glyphshow

/DejaVuSans findfont
10.5 scalefont
setfont
19.230469 6.343750 moveto
/minus glyphshow

28.028320 6.343750 moveto
/one glyphshow


grestore
2 setlinecap
0.690 setgray
gsave
558 598 90 99 clipbox
284.454545 99 m
284.454545 696.96 l
stroke
grestore
0 setlinecap
0.000 setgray
gsave
/o {
gsave
newpath
translate
0.8 setlinewidth
1 setlinejoin
0 setlinecap
0 0 m
0 -3.5 l

gsave
0.000 setgray
fill
grestore
stroke
grestore
} bind def
284.455 99 o
grestore
gsave
270.954545 80.125000 translate
0.000000 rotate
/DejaVuSans findfont
15.0 scalefont
setfont
0.000000 0.601562 moveto
/one glyphshow

9.543457 0.601562 moveto
/zero glyphshow

/DejaVuSans findfont
10.5 scalefont
setfont
19.230469 6.343750 moveto
/one glyphshow


grestore
2 setlinecap
0.690 setgray
gsave
558 598 90 99 clipbox
397.181818 99 m
397.181818 696.96 l
stroke
grestore
0 setlinecap
0.000 setgray
gsave
/o {
gsave
newpath
translate
0.8 setlinewidth
1 setlinejoin
0 setlinecap
0 0 m
0 -3.5 l

gsave
0.000 setgray
fill
grestore
stroke
grestore
} bind def
397.182 99 o
grestore
gsave
383.681818 80.125000 translate
0.000000 rotate
/DejaVuSans findfont
15.0 scalefont
setfont
0.000000 0.459375 moveto
/one glyphshow

9.543457 0.459375 moveto
/zero glyphshow

/DejaVuSans findfont
10.5 scalefont
setfont
19.230469 6.201563 moveto
/three glyphshow


grestore
2 setlinecap
0.690 setgray
gsave
558 598 90 99 clipbox
509.909091 99 m
509.909091 696.96 l
stroke
grestore
0 setlinecap
0.000 setgray
gsave
/o {
gsave
newpath
translate
0.8 setlinewidth
1 setlinejoin
0 setlinecap
0 0 m
0 -3.5 l

gsave
0.000 setgray
fill
grestore
stroke
grestore
} bind def
509.909 99 o
grestore
gsave
496.409091 80.125000 translate
0.000000 rotate
/DejaVuSans findfont
15.0 scalefont
setfont
0.000000 0.601562 moveto
/one glyphshow

9.543457 0.601562 moveto
/zero glyphshow

/DejaVuSans findfont
10.5 scalefont
setfont
19.230469 6.343750 moveto
/five glyphshow


grestore
2 setlinecap
0.690 setgray
gsave
558 598 90 99 clipbox
622.636364 99 m
622.636364 696.96 l
stroke
grestore
0 setlinecap
0.000 setgray
gsave
/o {
gsave
newpath
translate
0.8 setlinewidth
1 setlinejoin
0 setlinecap
0 0 m
0 -3.5 l

gsave
0.000 setgray
fill
grestore
stroke
grestore
} bind def
622.636 99 o
grestore
gsave
609.136364 80.125000 translate
0.000000 rotate
/DejaVuSans findfont
15.0 scalefont
setfont
0.000000 0.601562 moveto
/one glyphshow

9.543457 0.601562 moveto
/zero glyphshow

/DejaVuSans findfont
10.5 scalefont
setfont
19.230469 6.343750 moveto
/seven glyphshow


grestore
/DejaVuSans findfont
15.000 scalefont
setfont
gsave
311.718750 61.609375 translate
0.000000 rotate
0.000000 0.000000 m /F glyphshow
8.612305 0.000000 m /r glyphshow
14.779297 0.000000 m /e glyphshow
24.007812 0.000000 m /q glyphshow
33.529297 0.000000 m /u glyphshow
43.036133 0.000000 m /e glyphshow
52.264648 0.000000 m /n glyphshow
61.771484 0.000000 m /c glyphshow
70.018555 0.000000 m /y glyphshow
78.895508 0.000000 m /space glyphshow
83.663574 0.000000 m /bracketleft glyphshow
89.515625 0.000000 m /H glyphshow
100.794922 0.000000 m /z glyphshow
108.668457 0.000000 m /bracketright glyphshow
grestore
2 setlinecap
0.690 setgray
gsave
558 598 90 99 clipbox
90 169.208772 m
648 169.208772 l
stroke
grestore
0 setlinecap
0.000 setgray
gsave
/o {
gsave
newpath
translate
0.8 setlinewidth
1 setlinejoin
0 setlinecap
0 0 m
-3.5 0 l

gsave
0.000 setgray
fill
grestore
stroke
grestore
} bind def
90 169.209 o
grestore
gsave
41.000000 163.271272 translate
0.000000 rotate
/DejaVuSans findfont
15.0 scalefont
setfont
0.000000 0.459375 moveto
/one glyphshow

9.543457 0.459375 moveto
/zero glyphshow

/DejaVuSans findfont
10.5 scalefont
setfont
19.230469 6.201563 moveto
/minus glyphshow

28.028320 6.201563 moveto
/two glyphshow

34.708740 6.201563 moveto
/two glyphshow


grestore
2 setlinecap
0.690 setgray
gsave
558 598 90 99 clipbox
90 247.784943 m
648 247.784943 l
stroke
grestore
0 setlinecap
0.000 setgray
gsave
/o {
gsave
newpath
translate
0.8 setlinewidth
1 setlinejoin
0 setlinecap
0 0 m
-3.5 0 l

gsave
0.000 setgray
fill
grestore
stroke
grestore
} bind def
90 247.785 o
grestore
gsave
41.000000 241.847443 translate
0.000000 rotate
/DejaVuSans findfont
15.0 scalefont
setfont
0.000000 0.459375 moveto
/one glyphshow

9.543457 0.459375 moveto
/zero glyphshow

/DejaVuSans findfont
10.5 scalefont
setfont
19.230469 6.201563 moveto
/minus glyphshow

28.028320 6.201563 moveto
/one glyphshow

34.708740 6.201563 moveto
/nine glyphshow


grestore
2 setlinecap
0.690 setgray
gsave
558 598 90 99 clipbox
90 326.361114 m
648 326.361114 l
stroke
grestore
0 setlinecap
0.000 setgray
gsave
/o {
gsave
newpath
translate
0.8 setlinewidth
1 setlinejoin
0 setlinecap
0 0 m
-3.5 0 l

gsave
0.000 setgray
fill
grestore
stroke
grestore
} bind def
90 326.361 o
grestore
gsave
41.000000 320.423614 translate
0.000000 rotate
/DejaVuSans findfont
15.0 scalefont
setfont
0.000000 0.459375 moveto
/one glyphshow

9.543457 0.459375 moveto
/zero glyphshow

/DejaVuSans findfont
10.5 scalefont
setfont
19.230469 6.201563 moveto
/minus glyphshow

28.028320 6.201563 moveto
/one glyphshow

34.708740 6.201563 moveto
/six glyphshow


grestore
2 setlinecap
0.690 setgray
gsave
558 598 90 99 clipbox
90 404.937285 m
648 404.937285 l
stroke
grestore
0 setlinecap
0.000 setgray
gsave
/o {
gsave
newpath
translate
0.8 setlinewidth
1 setlinejoin
0 setlinecap
0 0 m
-3.5 0 l

gsave
0.000 setgray
fill
grestore
stroke
grestore
} bind def
90 404.937 o
grestore
gsave
41.000000 398.999785 translate
0.000000 rotate
/DejaVuSans findfont
15.0 scalefont
setfont
0.000000 0.459375 moveto
/one glyphshow

9.543457 0.459375 moveto
/zero glyphshow

/DejaVuSans findfont
10.5 scalefont
setfont
19.230469 6.201563 moveto
/minus glyphshow

28.028320 6.201563 moveto
/one glyphshow

34.708740 6.201563 moveto
/three glyphshow


grestore
2 setlinecap
0.690 setgray
gsave
558 598 90 99 clipbox
90 483.513456 m
648 483.513456 l
stroke
grestore
0 setlinecap
0.000 setgray
gsave
/o {
gsave
newpath
translate
0.8 setlinewidth
1 setlinejoin
0 setlinecap
0 0 m
-3.5 0 l

gsave
0.000 setgray
fill
grestore
stroke
grestore
} bind def
90 483.513 o
grestore
gsave
41.000000 477.575956 translate
0.000000 rotate
/DejaVuSans findfont
15.0 scalefont
setfont
0.000000 0.459375 moveto
/one glyphshow

9.543457 0.459375 moveto
/zero glyphshow

/DejaVuSans findfont
10.5 scalefont
setfont
19.230469 6.201563 moveto
/minus glyphshow

28.028320 6.201563 moveto
/one glyphshow

34.708740 6.201563 moveto
/zero glyphshow


grestore
2 setlinecap
0.690 setgray
gsave
558 598 90 99 clipbox
90 562.089627 m
648 562.089627 l
stroke
grestore
0 setlinecap
0.000 setgray
gsave
/o {
gsave
newpath
translate
0.8 setlinewidth
1 setlinejoin
0 setlinecap
0 0 m
-3.5 0 l

gsave
0.000 setgray
fill
grestore
stroke
grestore
} bind def
90 562.09 o
grestore
gsave
47.000000 556.152127 translate
0.000000 rotate
/DejaVuSans findfont
15.0 scalefont
setfont
0.000000 0.601562 moveto
/one glyphshow

9.543457 0.601562 moveto
/zero glyphshow

/DejaVuSans findfont
10.5 scalefont
setfont
19.230469 6.343750 moveto
/minus glyphshow

28.028320 6.343750 moveto
/seven glyphshow


grestore
2 setlinecap
0.690 setgray
gsave
558 598 90 99 clipbox
90 640.665797 m
648 640.665797 l
stroke
grestore
0 setlinecap
0.000 setgray
gsave
/o {
gsave
newpath
translate
0.8 setlinewidth
1 setlinejoin
0 setlinecap
0 0 m
-3.5 0 l

gsave
0.000 setgray
fill
grestore
stroke
grestore
} bind def
90 640.666 o
grestore
gsave
47.000000 634.728297 translate
0.000000 rotate
/DejaVuSans findfont
15.0 scalefont
setfont
0.000000 0.601562 moveto
/one glyphshow

9.543457 0.601562 moveto
/zero glyphshow

/DejaVuSans findfont
10.5 scalefont
setfont
19.230469 6.343750 moveto
/minus glyphshow

28.028320 6.343750 moveto
/four glyphshow


grestore
gsave
33.875000 348.980000 translate
90.000000 rotate
/DejaVuSans findfont
15.0 scalefont
setfont
0.000000 0.475000 moveto
/N glyphshow

11.220703 0.475000 moveto
/E glyphshow

20.698242 0.475000 moveto
/P glyphshow

29.743652 0.475000 moveto
/space glyphshow

34.511719 0.475000 moveto
/bracketleft glyphshow

40.363770 0.475000 moveto
/W glyphshow

55.195312 0.475000 moveto
/slash glyphshow

/STIXSizeOneSym-Regular findfont
8.46023688663 scalefont
setfont
60.249023 2.975000 moveto
/uni221A glyphshow

69.183975 15.125000 22.902832 0.937500 rectfill
/DejaVuSans-Oblique findfont
15.0 scalefont
setfont
71.058975 0.125000 moveto
/H glyphshow

82.338272 0.125000 moveto
/z glyphshow

/DejaVuSans findfont
15.0 scalefont
setfont
92.086807 0.475000 moveto
/bracketright glyphshow


grestore
2.000 setlinewidth
2 setlinecap
0.122 0.467 0.706 setrgbcolor
gsave
558 598 90 99 clipbox
115.363636 250.034384 m
211.334152 250.142644 l
225.552007 250.373402 l
234.692056 250.72757 l
241.800983 251.219636 l
247.894349 251.87117 l
252.972154 252.625947 l
258.049959 253.606622 l
263.127764 254.829248 l
268.205569 256.2903 l
273.791155 258.146169 l
279.884521 260.415239 l
286.993448 263.300262 l
296.641278 267.475614 l
310.859132 273.9032 l
334.217035 284.731164 l
353.004914 293.648655 l
363.668305 298.935233 l
371.285012 302.934988 l
377.886159 306.647289 l
383.471744 310.031445 l
389.05733 313.684603 l
394.642916 317.629857 l
400.228501 321.862064 l
406.321867 326.768794 l
413.430794 332.794845 l
422.570844 340.866084 l
435.265356 352.405076 l
457.099918 372.597128 l
480.965602 394.930601 l
494.167895 407.569778 l
503.307944 416.623524 l
510.416871 423.968374 l
516.510238 430.565809 l
522.095823 436.916984 l
527.681409 443.592658 l
533.266994 450.603124 l
539.36036 458.62376 l
545.453726 467.017812 l
551.547093 475.779412 l
557.640459 484.916747 l
563.733825 494.439121 l
570.334971 505.175692 l
577.951679 518.025213 l
588.61507 536.521667 l
603.848485 562.916642 l
611.972973 576.530188 l
620.097461 589.698197 l
622.636364 593.734939 l
622.636364 593.734939 l
stroke
grestore
1.000 0.498 0.055 setrgbcolor
gsave
558 598 90 99 clipbox
115.363636 254.471427 m
269.22113 254.581713 l
283.438984 254.816605 l
292.579034 255.176891 l
299.687961 255.677046 l
305.781327 256.338649 l
310.859132 257.104341 l
315.936937 258.098303 l
321.014742 259.33664 l
326.092547 260.816178 l
331.678133 262.696907 l
337.771499 265.002096 l
344.880426 267.950745 l
353.004914 271.578757 l
361.129402 275.441265 l
368.74611 279.29831 l
375.347256 282.884257 l
381.440622 286.459395 l
387.026208 290.010041 l
392.104013 293.490529 l
397.689599 297.600893 l
403.275184 301.984196 l
409.876331 307.457091 l
418.000819 314.5109 l
428.66421 324.092665 l
445.420966 339.488683 l
472.333333 364.532267 l
489.09009 380.388517 l
499.2457 390.280427 l
506.862408 397.979511 l
513.463554 404.952413 l
519.556921 411.716894 l
525.142506 418.243056 l
530.728092 425.1022 l
536.313677 432.293733 l
542.407043 440.504019 l
548.50041 449.083221 l
554.593776 458.03318 l
560.687142 467.365056 l
567.288288 477.906673 l
574.397215 489.716778 l
583.029484 504.530872 l
607.402948 546.673566 l
615.527437 560.090516 l
622.636364 571.482037 l
622.636364 571.482037 l
stroke
grestore
0.173 0.627 0.173 setrgbcolor
gsave
558 598 90 99 clipbox
115.363636 171.608258 m
343.864865 277.913039 l
358.082719 284.776505 l
367.222768 289.415301 l
374.331695 293.258585 l
380.425061 296.79832 l
386.010647 300.299748 l
391.596233 304.083745 l
397.181818 308.161126 l
402.767404 312.513973 l
409.36855 317.95765 l
416.985258 324.539243 l
427.140868 333.628667 l
442.882064 348.058149 l
469.794431 373.065996 l
488.074529 390.308988 l
499.2457 401.144114 l
507.370188 409.324701 l
513.971335 416.26504 l
520.064701 422.978437 l
526.158067 430.029672 l
532.251433 437.423774 l
538.85258 445.781137 l
546.977068 456.45294 l
557.132678 470.182288 l
572.366093 491.182986 l
595.216216 523.075758 l
610.957412 545.373327 l
621.113022 560.114109 l
622.636364 562.365936 l
622.636364 562.365936 l
stroke
grestore
0.839 0.153 0.157 setrgbcolor
gsave
558 598 90 99 clipbox
115.363636 207.351832 m
257.542179 207.460931 l
271.760033 207.693347 l
280.900082 208.049964 l
288.009009 208.545256 l
294.102375 209.200785 l
299.18018 209.959857 l
304.257985 210.945703 l
309.33579 212.17434 l
314.413595 213.642306 l
319.999181 215.50722 l
326.092547 217.789079 l
333.201474 220.696224 l
341.833743 224.469694 l
352.497133 229.383417 l
362.652744 234.304991 l
370.777232 238.481482 l
377.378378 242.114116 l
383.471744 245.73102 l
389.05733 249.321126 l
394.135135 252.838437 l
399.720721 256.989513 l
405.306306 261.413494 l
411.907453 266.936833 l
419.524161 273.613314 l
428.66421 281.934865 l
438.312039 291.0207 l
446.944308 299.454515 l
454.053235 306.704219 l
460.146601 313.214324 l
466.239967 320.057004 l
472.333333 327.263048 l
478.426699 334.827117 l
485.027846 343.383828 l
492.644554 353.649926 l
500.769042 364.995807 l
508.385749 375.997584 l
515.494676 386.635606 l
522.095823 396.897417 l
528.69697 407.572294 l
535.298116 418.658008 l
542.914824 431.890009 l
552.562654 449.136713 l
567.288288 475.99142 l
590.138411 517.644012 l
599.786241 534.749191 l
607.402948 547.829952 l
614.511876 559.618406 l
622.128583 571.807188 l
622.636364 572.605899 l
622.636364 572.605899 l
stroke
grestore
0.580 0.404 0.741 setrgbcolor
gsave
558 598 90 99 clipbox
115.363636 126.18 m
121.457002 128.431825 l
128.56593 131.302508 l
137.705979 135.241208 l
151.416052 141.416414 l
178.328419 153.836111 l
330.662572 224.615183 l
396.166257 255.179954 l
410.384111 262.054277 l
419.524161 266.709283 l
426.633088 270.574305 l
432.726454 274.141709 l
438.312039 277.677569 l
443.389844 281.1453 l
448.467649 284.8651 l
454.053235 289.235706 l
460.146601 294.294813 l
467.255528 300.498616 l
475.887797 308.33662 l
486.551188 318.324891 l
497.214578 328.603031 l
506.354627 337.713151 l
513.971335 345.625814 l
520.572482 352.814893 l
526.665848 359.783717 l
532.759214 367.091731 l
539.36036 375.365874 l
546.977068 385.287713 l
556.624898 398.248855 l
570.334971 417.071311 l
594.708436 450.965274 l
618.066339 483.769565 l
622.636364 490.267649 l
622.636364 490.267649 l
stroke
grestore
0.549 0.337 0.294 setrgbcolor
gsave
558 598 90 99 clipbox
115.363636 154.933983 m
126.534808 159.867519 l
144.814906 168.223477 l
194.577396 191.307872 l
468.77887 318.598483 l
477.918919 322.537483 l
485.027846 325.362049 l
491.121212 327.551564 l
497.214578 329.494484 l
503.307944 331.199446 l
511.432432 333.215897 l
523.111384 336.107811 l
529.20475 337.84484 l
535.298116 339.815135 l
541.391482 342.014204 l
548.50041 344.81706 l
557.640459 348.673621 l
576.936118 357.14416 l
588.107289 361.901535 l
595.723997 364.91303 l
601.817363 367.099096 l
607.402948 368.875684 l
612.988534 370.40591 l
618.57412 371.69151 l
622.636364 372.493298 l
622.636364 372.493298 l
stroke
grestore
0.890 0.467 0.761 setrgbcolor
gsave
558 598 90 99 clipbox
115.363636 182.769399 m
516.002457 369.061229 l
595.723997 406.15275 l
622.636364 418.690087 l
622.636364 418.690087 l
stroke
grestore
0.498 setgray
gsave
558 598 90 99 clipbox
0 0 m
stroke
grestore
0.737 0.741 0.133 setrgbcolor
gsave
558 598 90 99 clipbox
0 0 m
stroke
grestore
0.090 0.745 0.812 setrgbcolor
gsave
558 598 90 99 clipbox
115.363636 155.641413 m
127.042588 160.835349 l
147.353808 170.151874 l
212.349713 200.326414 l
431.710893 302.380759 l
446.436527 309.482416 l
456.084357 314.366542 l
463.701065 318.457111 l
470.809992 322.533925 l
477.411138 326.57443 l
485.027846 331.511785 l
499.753481 341.422052 l
522.603604 356.888689 l
529.20475 361.72982 l
535.298116 366.467235 l
541.899263 371.877783 l
549.515971 378.408561 l
559.671581 387.422786 l
592.169533 416.489124 l
599.786241 422.884587 l
606.387387 428.12545 l
612.480753 432.663402 l
618.57412 436.909003 l
622.636364 439.598288 l
622.636364 439.598288 l
stroke
grestore
0 setlinecap
[2 3.3] 0 setdash
0.122 0.467 0.706 setrgbcolor
gsave
558 598 90 99 clipbox
115.363636 163.069246 m
348.434889 271.497899 l
362.652744 278.361783 l
371.792793 283.001181 l
378.90172 286.845227 l
384.995086 290.385855 l
390.580672 293.888268 l
396.166257 297.673327 l
401.751843 301.751731 l
407.337428 306.105445 l
413.938575 311.549833 l
421.555283 318.13173 l
431.710893 327.220519 l
447.452088 341.64492 l
479.950041 371.791334 l
622.636364 504.573172 l
622.636364 504.573172 l
stroke
grestore
1.000 0.498 0.055 setrgbcolor
gsave
558 598 90 99 clipbox
115.363636 170.064136 m
343.864865 276.36889 l
358.082719 283.232299 l
367.222768 287.871014 l
374.331695 291.714193 l
380.425061 295.253806 l
386.010647 298.755098 l
391.596233 302.538946 l
397.181818 306.61618 l
402.767404 310.968896 l
409.36855 316.412449 l
416.985258 322.993941 l
427.140868 332.083286 l
442.882064 346.512701 l
469.794431 371.520312 l
488.074529 388.762508 l
499.2457 399.596275 l
507.370188 407.775068 l
513.971335 414.713322 l
520.064701 421.424345 l
526.158067 428.472959 l
532.251433 435.864427 l
538.85258 444.219095 l
546.977068 454.887711 l
557.132678 468.612184 l
572.873874 490.300349 l
605.879607 536.239059 l
622.636364 559.615217 l
622.636364 559.615217 l
stroke
grestore
0.173 0.627 0.173 setrgbcolor
gsave
558 598 90 99 clipbox
115.363636 141.229118 m
120.949222 143.223375 l
127.550369 145.814281 l
136.182637 149.462386 l
147.861589 154.659824 l
168.172809 163.978237 l
234.184275 194.625149 l
414.446355 278.513056 l
428.66421 285.378871 l
437.804259 290.027621 l
444.913186 293.895836 l
450.498771 297.173805 l
455.576577 300.394361 l
460.654382 303.88453 l
465.732187 307.661827 l
470.809992 311.715285 l
476.395577 316.450904 l
482.996724 322.341562 l
491.121212 329.910954 l
500.261261 338.744821 l
508.89353 347.384177 l
516.510238 355.316183 l
523.111384 362.51252 l
529.20475 369.481401 l
535.298116 376.785702 l
541.899263 385.054318 l
549.515971 394.970148 l
559.1638 407.925359 l
573.381654 427.442103 l
600.801802 465.543504 l
622.636364 495.977462 l
622.636364 495.977462 l
stroke
grestore
0.839 0.153 0.157 setrgbcolor
gsave
558 598 90 99 clipbox
115.363636 155.794939 m
126.027027 160.486672 l
143.291564 168.36083 l
186.452907 188.37044 l
393.119574 284.504659 l
408.86077 292.068946 l
418.5086 296.943544 l
425.617527 300.76947 l
431.710893 304.290651 l
437.296478 307.774817 l
442.374283 311.190805 l
447.452088 314.858428 l
453.037674 319.175947 l
459.13104 324.186513 l
466.239967 330.347965 l
474.872236 338.151738 l
485.535627 348.110758 l
496.199017 358.358265 l
505.339066 367.430041 l
512.955774 375.295225 l
519.556921 382.430042 l
525.650287 389.341129 l
531.743653 396.590002 l
538.344799 404.805019 l
545.961507 414.668628 l
555.609337 427.563982 l
571.858313 449.730006 l
588.61507 472.4786 l
597.755119 484.520116 l
604.864046 493.544234 l
611.465192 501.57554 l
618.066339 509.248985 l
622.636364 514.372625 l
622.636364 514.372625 l
stroke
grestore
0.580 0.404 0.741 setrgbcolor
gsave
558 598 90 99 clipbox
115.363636 274.539277 m
337.771499 274.646934 l
351.989353 274.876373 l
361.129402 275.228667 l
368.238329 275.718421 l
374.331695 276.36739 l
379.4095 277.119862 l
384.487305 278.098553 l
389.565111 279.320226 l
394.642916 280.782305 l
400.228501 282.643006 l
406.321867 284.924103 l
413.430794 287.837143 l
422.063063 291.63208 l
431.710893 296.122866 l
440.343161 300.367147 l
447.959869 304.356234 l
454.053235 307.783333 l
459.638821 311.167802 l
464.716626 314.484866 l
469.794431 318.052146 l
475.380016 322.267695 l
480.965602 326.768543 l
487.058968 331.962806 l
493.660115 337.873574 l
500.769042 344.529924 l
507.877969 351.489599 l
514.479115 358.264934 l
520.572482 364.837986 l
526.665848 371.75701 l
532.759214 379.031524 l
539.36036 387.279774 l
546.977068 397.176384 l
556.624898 410.098108 l
574.397215 434.356888 l
589.12285 454.310339 l
598.262899 466.328772 l
605.371826 475.327197 l
611.972973 483.330901 l
618.57412 490.977745 l
622.636364 495.52509 l
622.636364 495.52509 l
stroke
grestore
0.549 0.337 0.294 setrgbcolor
gsave
558 598 90 99 clipbox
115.363636 212.523049 m
337.771499 212.630677 l
351.989353 212.860054 l
361.129402 213.212248 l
368.238329 213.701852 l
374.331695 214.350601 l
379.4095 215.102785 l
384.487305 216.081039 l
389.565111 217.30205 l
394.642916 218.763129 l
400.228501 220.622125 l
406.321867 222.900222 l
413.430794 225.807242 l
422.063063 229.588207 l
432.218673 234.286712 l
441.866503 238.989319 l
449.990991 243.190279 l
457.099918 247.11548 l
463.701065 251.009068 l
470.809992 255.458695 l
483.504505 263.740169 l
493.660115 270.225924 l
504.831286 277.059305 l
515.494676 283.646912 l
522.095823 287.994153 l
527.681409 291.924502 l
533.266994 296.111227 l
539.36036 300.957173 l
546.469287 306.915386 l
555.101556 314.458175 l
568.81163 326.779114 l
587.091728 343.164774 l
595.723997 350.59797 l
602.325143 356.012421 l
608.418509 360.731661 l
614.004095 364.791061 l
620.097461 368.934367 l
622.636364 370.584016 l
622.636364 370.584016 l
stroke
grestore
3.000 setlinewidth
2 setlinecap
[] 0 setdash
0.000 setgray
gsave
558 598 90 99 clipbox
115.363636 274.777858 m
209.810811 274.888871 l
224.028665 275.125338 l
233.168714 275.487835 l
240.277641 275.990661 l
246.371007 276.655121 l
251.448812 277.423205 l
256.526618 278.418879 l
261.604423 279.657222 l
266.682228 281.133685 l
272.267813 283.005368 l
278.361179 285.290356 l
285.470106 288.19397 l
294.610156 292.175316 l
306.289107 297.510621 l
318.475839 303.312154 l
328.123669 308.146317 l
335.232596 311.940173 l
341.325962 315.42684 l
346.911548 318.871018 l
352.497133 322.592927 l
358.082719 326.608912 l
363.668305 330.906648 l
369.761671 335.872995 l
377.378378 342.393525 l
387.026208 350.978185 l
401.244062 363.967557 l
424.094185 385.175135 l
442.374283 402.407131 l
453.545455 413.235843 l
461.669943 421.413028 l
468.271089 428.355951 l
474.364455 435.084169 l
479.950041 441.570041 l
485.535627 448.382348 l
491.628993 456.184026 l
497.722359 464.353087 l
504.323505 473.598595 l
510.924652 483.256301 l
517.018018 492.552012 l
523.619165 503.042815 l
530.728092 514.793166 l
539.36036 529.535388 l
563.226044 570.593302 l
571.350532 583.948971 l
580.490581 598.502338 l
598.77068 627.452215 l
605.371826 638.427909 l
611.465192 649.017688 l
617.050778 659.172372 l
622.636364 669.78 l
622.636364 669.78 l
stroke
grestore
0.800 setlinewidth
0 setlinejoin
[] 0 setdash
gsave
90 99 m
90 696.96 l
stroke
grestore
gsave
648 99 m
648 696.96 l
stroke
grestore
gsave
90 99 m
648 99 l
stroke
grestore
gsave
90 696.96 m
648 696.96 l
stroke
grestore
gsave
105.000000 702.960000 translate
0.000000 rotate
/DejaVuSans findfont
20.0 scalefont
setfont
0.000000 0.953125 moveto
/F glyphshow

11.503906 0.953125 moveto
/r glyphshow

19.726562 0.953125 moveto
/e glyphshow

32.031250 0.953125 moveto
/q glyphshow

44.726562 0.953125 moveto
/u glyphshow

57.402344 0.953125 moveto
/e glyphshow

69.707031 0.953125 moveto
/n glyphshow

82.382812 0.953125 moveto
/c glyphshow

93.378906 0.953125 moveto
/y glyphshow

105.214844 0.953125 moveto
/space glyphshow

111.572266 0.953125 moveto
/v glyphshow

123.408203 0.953125 moveto
/s glyphshow

133.828125 0.953125 moveto
/space glyphshow

140.185547 0.953125 moveto
/N glyphshow

155.146484 0.953125 moveto
/E glyphshow

167.783203 0.953125 moveto
/P glyphshow

179.843750 0.953125 moveto
/colon glyphshow

186.582031 0.953125 moveto
/space glyphshow

192.939453 0.953125 moveto
/one glyphshow

205.664062 0.953125 moveto
/c glyphshow

216.660156 0.953125 moveto
/m glyphshow

/DejaVuSans findfont
14.0 scalefont
setfont
236.333984 8.609375 moveto
/three glyphshow

/DejaVuSans findfont
20.0 scalefont
setfont
245.788086 0.953125 moveto
/space glyphshow

252.145508 0.953125 moveto
/S glyphshow

264.840820 0.953125 moveto
/i glyphshow

270.397461 0.953125 moveto
/space glyphshow

276.754883 0.953125 moveto
/A glyphshow

290.436523 0.953125 moveto
/b glyphshow

303.131836 0.953125 moveto
/s glyphshow

313.551758 0.953125 moveto
/o glyphshow

325.788086 0.953125 moveto
/r glyphshow

334.010742 0.953125 moveto
/b glyphshow

346.706055 0.953125 moveto
/e glyphshow

359.010742 0.953125 moveto
/r glyphshow

367.233398 0.953125 moveto
/space glyphshow

/DejaVuSans-Oblique findfont
20.0 scalefont
setfont
373.590820 0.953125 moveto
/tau glyphshow

/DejaVuSans findfont
20.0 scalefont
setfont
385.631836 0.953125 moveto
/equal glyphshow

402.389648 0.953125 moveto
/one glyphshow

415.114258 0.953125 moveto
/zero glyphshow

427.838867 0.953125 moveto
/m glyphshow

447.321289 0.953125 moveto
/s glyphshow

457.741211 0.953125 moveto
/space glyphshow

464.098633 0.953125 moveto
/W glyphshow

483.874023 0.953125 moveto
/space glyphshow

490.231445 0.953125 moveto
/T glyphshow

502.448242 0.953125 moveto
/E glyphshow

515.084961 0.953125 moveto
/S glyphshow


grestore
1.000 setlinewidth
0 setlinecap
0.800 setgray
gsave
98.05 400.885 m
303.31875 400.885 l
304.852083 400.885 305.61875 401.651667 305.61875 403.185 c
305.61875 688.91 l
305.61875 690.443333 304.852083 691.21 303.31875 691.21 c
98.05 691.21 l
96.516667 691.21 95.75 690.443333 95.75 688.91 c
95.75 403.185 l
95.75 401.651667 96.516667 400.885 98.05 400.885 c
cl
gsave
1.000 setgray
fill
grestore
stroke
grestore
2.000 setlinewidth
1 setlinejoin
2 setlinecap
[] 0 setdash
0.122 0.467 0.706 setrgbcolor
gsave
100.35 681.900625 m
123.35 681.900625 l
stroke
grestore
0.000 setgray
/DejaVuSans findfont
11.500 scalefont
setfont
gsave
132.550000 677.875625 translate
0.000000 rotate
0.000000 0.000000 m /I glyphshow
3.391602 0.000000 m /n glyphshow
10.680176 0.000000 m /t glyphshow
15.189209 0.000000 m /e glyphshow
22.264404 0.000000 m /r glyphshow
26.992432 0.000000 m /n glyphshow
34.281006 0.000000 m /a glyphshow
41.328125 0.000000 m /l glyphshow
44.523193 0.000000 m /space glyphshow
48.178711 0.000000 m /J glyphshow
51.570312 0.000000 m /o glyphshow
58.606201 0.000000 m /h glyphshow
65.894775 0.000000 m /n glyphshow
73.183350 0.000000 m /s glyphshow
79.174805 0.000000 m /o glyphshow
86.210693 0.000000 m /n glyphshow
93.499268 0.000000 m /space glyphshow
97.154785 0.000000 m /N glyphshow
105.757324 0.000000 m /o glyphshow
112.793213 0.000000 m /i glyphshow
115.988281 0.000000 m /s glyphshow
121.979736 0.000000 m /e glyphshow
129.054932 0.000000 m /space glyphshow
132.710449 0.000000 m /N glyphshow
141.312988 0.000000 m /E glyphshow
148.579102 0.000000 m /P glyphshow
grestore
1.000 0.498 0.055 setrgbcolor
gsave
100.35 665.025625 m
123.35 665.025625 l
stroke
grestore
0.000 setgray
gsave
132.550000 661.000625 translate
0.000000 rotate
0.000000 0.000000 m /E glyphshow
7.266113 0.000000 m /x glyphshow
14.071777 0.000000 m /t glyphshow
18.580811 0.000000 m /e glyphshow
25.656006 0.000000 m /r glyphshow
30.384033 0.000000 m /n glyphshow
37.672607 0.000000 m /a glyphshow
44.719727 0.000000 m /l glyphshow
47.914795 0.000000 m /space glyphshow
51.570312 0.000000 m /J glyphshow
54.961914 0.000000 m /o glyphshow
61.997803 0.000000 m /h glyphshow
69.286377 0.000000 m /n glyphshow
76.574951 0.000000 m /s glyphshow
82.566406 0.000000 m /o glyphshow
89.602295 0.000000 m /n glyphshow
96.890869 0.000000 m /space glyphshow
100.546387 0.000000 m /N glyphshow
109.148926 0.000000 m /o glyphshow
116.184814 0.000000 m /i glyphshow
119.379883 0.000000 m /s glyphshow
125.371338 0.000000 m /e glyphshow
132.446533 0.000000 m /space glyphshow
136.102051 0.000000 m /N glyphshow
144.704590 0.000000 m /E glyphshow
151.970703 0.000000 m /P glyphshow
grestore
0.173 0.627 0.173 setrgbcolor
gsave
100.35 648.150625 m
123.35 648.150625 l
stroke
grestore
0.000 setgray
gsave
132.550000 644.125625 translate
0.000000 rotate
0.000000 0.000000 m /N glyphshow
8.602539 0.000000 m /E glyphshow
15.868652 0.000000 m /P glyphshow
22.803467 0.000000 m /space glyphshow
26.458984 0.000000 m /G glyphshow
35.370361 0.000000 m /o glyphshow
42.406250 0.000000 m /l glyphshow
45.601318 0.000000 m /d glyphshow
52.901123 0.000000 m /space glyphshow
56.556641 0.000000 m /P glyphshow
63.491455 0.000000 m /a glyphshow
70.538574 0.000000 m /d glyphshow
77.838379 0.000000 m /space glyphshow
81.493896 0.000000 m /two glyphshow
88.810547 0.000000 m /hyphen glyphshow
92.944580 0.000000 m /T glyphshow
99.969238 0.000000 m /E glyphshow
107.235352 0.000000 m /S glyphshow
grestore
0.839 0.153 0.157 setrgbcolor
gsave
100.35 631.275625 m
123.35 631.275625 l
stroke
grestore
0.000 setgray
gsave
132.550000 627.250625 translate
0.000000 rotate
0.000000 0.000000 m /N glyphshow
8.602539 0.000000 m /E glyphshow
15.868652 0.000000 m /P glyphshow
22.803467 0.000000 m /space glyphshow
26.458984 0.000000 m /T glyphshow
33.483643 0.000000 m /E glyphshow
40.749756 0.000000 m /S glyphshow
48.049561 0.000000 m /hyphen glyphshow
52.199219 0.000000 m /M glyphshow
62.121338 0.000000 m /e glyphshow
69.196533 0.000000 m /a glyphshow
76.243652 0.000000 m /n glyphshow
83.532227 0.000000 m /d glyphshow
90.832031 0.000000 m /e glyphshow
97.907227 0.000000 m /r glyphshow
grestore
0.580 0.404 0.741 setrgbcolor
gsave
100.35 614.400625 m
123.35 614.400625 l
stroke
grestore
0.000 setgray
gsave
132.550000 610.375625 translate
0.000000 rotate
0.000000 0.000000 m /N glyphshow
8.602539 0.000000 m /E glyphshow
15.868652 0.000000 m /P glyphshow
22.803467 0.000000 m /space glyphshow
26.458984 0.000000 m /S glyphshow
33.758789 0.000000 m /i glyphshow
36.953857 0.000000 m /l glyphshow
40.148926 0.000000 m /i glyphshow
43.343994 0.000000 m /c glyphshow
49.666748 0.000000 m /o glyphshow
56.702637 0.000000 m /n glyphshow
63.991211 0.000000 m /space glyphshow
67.646729 0.000000 m /W glyphshow
79.017578 0.000000 m /a glyphshow
86.064697 0.000000 m /f glyphshow
90.113281 0.000000 m /e glyphshow
97.188477 0.000000 m /r glyphshow
101.916504 0.000000 m /hyphen glyphshow
106.050537 0.000000 m /T glyphshow
113.075195 0.000000 m /E glyphshow
120.341309 0.000000 m /S glyphshow
grestore
0.549 0.337 0.294 setrgbcolor
gsave
100.35 597.525625 m
123.35 597.525625 l
stroke
grestore
0.000 setgray
gsave
132.550000 593.500625 translate
0.000000 rotate
0.000000 0.000000 m /N glyphshow
8.602539 0.000000 m /E glyphshow
15.868652 0.000000 m /P glyphshow
22.803467 0.000000 m /space glyphshow
26.458984 0.000000 m /A glyphshow
34.325928 0.000000 m /b glyphshow
41.625732 0.000000 m /s glyphshow
47.617188 0.000000 m /o glyphshow
54.653076 0.000000 m /r glyphshow
59.381104 0.000000 m /b glyphshow
66.680908 0.000000 m /e glyphshow
73.756104 0.000000 m /r glyphshow
78.484131 0.000000 m /hyphen glyphshow
82.633789 0.000000 m /G glyphshow
91.545166 0.000000 m /l glyphshow
94.740234 0.000000 m /u glyphshow
102.028809 0.000000 m /e glyphshow
grestore
0.890 0.467 0.761 setrgbcolor
gsave
100.35 580.650625 m
123.35 580.650625 l
stroke
grestore
0.000 setgray
gsave
132.550000 576.625625 translate
0.000000 rotate
0.000000 0.000000 m /N glyphshow
8.602539 0.000000 m /E glyphshow
15.868652 0.000000 m /P glyphshow
22.803467 0.000000 m /space glyphshow
26.458984 0.000000 m /A glyphshow
34.325928 0.000000 m /b glyphshow
41.625732 0.000000 m /s glyphshow
47.617188 0.000000 m /o glyphshow
54.653076 0.000000 m /r glyphshow
59.381104 0.000000 m /b glyphshow
66.680908 0.000000 m /e glyphshow
73.756104 0.000000 m /r glyphshow
78.484131 0.000000 m /hyphen glyphshow
82.633789 0.000000 m /G glyphshow
91.545166 0.000000 m /o glyphshow
98.581055 0.000000 m /l glyphshow
101.776123 0.000000 m /d glyphshow
109.075928 0.000000 m /space glyphshow
112.731445 0.000000 m /P glyphshow
119.666260 0.000000 m /a glyphshow
126.713379 0.000000 m /d glyphshow
134.013184 0.000000 m /space glyphshow
137.668701 0.000000 m /one glyphshow
grestore
0.498 setgray
gsave
100.35 563.775625 m
123.35 563.775625 l
stroke
grestore
0.000 setgray
gsave
132.550000 559.750625 translate
0.000000 rotate
0.000000 0.000000 m /N glyphshow
8.602539 0.000000 m /E glyphshow
15.868652 0.000000 m /P glyphshow
22.803467 0.000000 m /space glyphshow
26.458984 0.000000 m /A glyphshow
34.325928 0.000000 m /b glyphshow
41.625732 0.000000 m /s glyphshow
47.617188 0.000000 m /o glyphshow
54.653076 0.000000 m /r glyphshow
59.381104 0.000000 m /b glyphshow
66.680908 0.000000 m /e glyphshow
73.756104 0.000000 m /r glyphshow
78.484131 0.000000 m /hyphen glyphshow
82.633789 0.000000 m /B glyphshow
90.523193 0.000000 m /a glyphshow
97.570312 0.000000 m /t glyphshow
102.079346 0.000000 m /h glyphshow
grestore
0.737 0.741 0.133 setrgbcolor
gsave
100.35 546.900625 m
123.35 546.900625 l
stroke
grestore
0.000 setgray
gsave
132.550000 542.875625 translate
0.000000 rotate
0.000000 0.000000 m /N glyphshow
8.602539 0.000000 m /E glyphshow
15.868652 0.000000 m /P glyphshow
22.803467 0.000000 m /space glyphshow
26.458984 0.000000 m /f glyphshow
30.507568 0.000000 m /r glyphshow
35.235596 0.000000 m /o glyphshow
42.271484 0.000000 m /m glyphshow
53.473877 0.000000 m /space glyphshow
57.129395 0.000000 m /t glyphshow
61.638428 0.000000 m /h glyphshow
68.927002 0.000000 m /e glyphshow
76.002197 0.000000 m /space glyphshow
79.657715 0.000000 m /P glyphshow
86.592529 0.000000 m /u glyphshow
93.881104 0.000000 m /l glyphshow
97.076172 0.000000 m /s glyphshow
103.067627 0.000000 m /e glyphshow
grestore
0.090 0.745 0.812 setrgbcolor
gsave
100.35 530.025625 m
123.35 530.025625 l
stroke
grestore
0.000 setgray
gsave
132.550000 526.000625 translate
0.000000 rotate
0.000000 0.000000 m /N glyphshow
8.602539 0.000000 m /E glyphshow
15.868652 0.000000 m /P glyphshow
22.803467 0.000000 m /space glyphshow
26.458984 0.000000 m /G glyphshow
35.370361 0.000000 m /l glyphshow
38.565430 0.000000 m /u glyphshow
45.854004 0.000000 m /e glyphshow
52.929199 0.000000 m /hyphen glyphshow
57.078857 0.000000 m /S glyphshow
64.378662 0.000000 m /i glyphshow
67.573730 0.000000 m /l glyphshow
70.768799 0.000000 m /i glyphshow
73.963867 0.000000 m /c glyphshow
80.286621 0.000000 m /o glyphshow
87.322510 0.000000 m /n glyphshow
94.611084 0.000000 m /space glyphshow
98.266602 0.000000 m /W glyphshow
109.637451 0.000000 m /a glyphshow
116.684570 0.000000 m /f glyphshow
120.733154 0.000000 m /e glyphshow
127.808350 0.000000 m /r glyphshow
grestore
0 setlinecap
[2 3.3] 0 setdash
0.122 0.467 0.706 setrgbcolor
gsave
100.35 513.150625 m
123.35 513.150625 l
stroke
grestore
0.000 setgray
gsave
132.550000 509.125625 translate
0.000000 rotate
0.000000 0.000000 m /N glyphshow
8.602539 0.000000 m /E glyphshow
15.868652 0.000000 m /P glyphshow
22.803467 0.000000 m /space glyphshow
26.458984 0.000000 m /G glyphshow
35.370361 0.000000 m /o glyphshow
42.406250 0.000000 m /l glyphshow
45.601318 0.000000 m /d glyphshow
52.901123 0.000000 m /space glyphshow
56.556641 0.000000 m /P glyphshow
63.491455 0.000000 m /a glyphshow
70.538574 0.000000 m /d glyphshow
77.838379 0.000000 m /space glyphshow
81.493896 0.000000 m /one glyphshow
88.810547 0.000000 m /hyphen glyphshow
92.960205 0.000000 m /W glyphshow
104.331055 0.000000 m /i glyphshow
107.526123 0.000000 m /r glyphshow
112.254150 0.000000 m /e glyphshow
119.329346 0.000000 m /b glyphshow
126.629150 0.000000 m /o glyphshow
133.665039 0.000000 m /n glyphshow
140.953613 0.000000 m /d glyphshow
148.253418 0.000000 m /space glyphshow
151.908936 0.000000 m /one glyphshow
grestore
1.000 0.498 0.055 setrgbcolor
gsave
100.35 496.275625 m
123.35 496.275625 l
stroke
grestore
0.000 setgray
gsave
132.550000 492.250625 translate
0.000000 rotate
0.000000 0.000000 m /N glyphshow
8.602539 0.000000 m /E glyphshow
15.868652 0.000000 m /P glyphshow
22.803467 0.000000 m /space glyphshow
26.458984 0.000000 m /W glyphshow
37.829834 0.000000 m /i glyphshow
41.024902 0.000000 m /r glyphshow
45.752930 0.000000 m /e glyphshow
52.828125 0.000000 m /b glyphshow
60.127930 0.000000 m /o glyphshow
67.163818 0.000000 m /n glyphshow
74.452393 0.000000 m /d glyphshow
81.752197 0.000000 m /space glyphshow
85.407715 0.000000 m /one glyphshow
92.724365 0.000000 m /hyphen glyphshow
96.874023 0.000000 m /G glyphshow
105.785400 0.000000 m /o glyphshow
112.821289 0.000000 m /l glyphshow
116.016357 0.000000 m /d glyphshow
123.316162 0.000000 m /space glyphshow
126.971680 0.000000 m /P glyphshow
133.906494 0.000000 m /a glyphshow
140.953613 0.000000 m /d glyphshow
148.253418 0.000000 m /space glyphshow
151.908936 0.000000 m /two glyphshow
grestore
0.173 0.627 0.173 setrgbcolor
gsave
100.35 479.400625 m
123.35 479.400625 l
stroke
grestore
0.000 setgray
gsave
132.550000 475.375625 translate
0.000000 rotate
0.000000 0.000000 m /N glyphshow
8.602539 0.000000 m /E glyphshow
15.868652 0.000000 m /P glyphshow
22.803467 0.000000 m /space glyphshow
26.458984 0.000000 m /S glyphshow
33.758789 0.000000 m /i glyphshow
36.953857 0.000000 m /l glyphshow
40.148926 0.000000 m /i glyphshow
43.343994 0.000000 m /c glyphshow
49.666748 0.000000 m /o glyphshow
56.702637 0.000000 m /n glyphshow
63.991211 0.000000 m /space glyphshow
67.646729 0.000000 m /W glyphshow
79.017578 0.000000 m /a glyphshow
86.064697 0.000000 m /f glyphshow
90.113281 0.000000 m /e glyphshow
97.188477 0.000000 m /r glyphshow
101.916504 0.000000 m /hyphen glyphshow
106.066162 0.000000 m /G glyphshow
114.977539 0.000000 m /o glyphshow
122.013428 0.000000 m /l glyphshow
125.208496 0.000000 m /d glyphshow
132.508301 0.000000 m /space glyphshow
136.163818 0.000000 m /P glyphshow
143.098633 0.000000 m /a glyphshow
150.145752 0.000000 m /d glyphshow
157.445557 0.000000 m /space glyphshow
161.101074 0.000000 m /two glyphshow
grestore
0.839 0.153 0.157 setrgbcolor
gsave
100.35 462.525625 m
123.35 462.525625 l
stroke
grestore
0.000 setgray
gsave
132.550000 458.500625 translate
0.000000 rotate
0.000000 0.000000 m /N glyphshow
8.602539 0.000000 m /E glyphshow
15.868652 0.000000 m /P glyphshow
22.803467 0.000000 m /space glyphshow
26.458984 0.000000 m /S glyphshow
33.758789 0.000000 m /i glyphshow
36.953857 0.000000 m /l glyphshow
40.148926 0.000000 m /i glyphshow
43.343994 0.000000 m /c glyphshow
49.666748 0.000000 m /o glyphshow
56.702637 0.000000 m /n glyphshow
63.991211 0.000000 m /space glyphshow
67.646729 0.000000 m /W glyphshow
79.017578 0.000000 m /a glyphshow
86.064697 0.000000 m /f glyphshow
90.113281 0.000000 m /e glyphshow
97.188477 0.000000 m /r glyphshow
101.916504 0.000000 m /hyphen glyphshow
106.066162 0.000000 m /M glyphshow
115.988281 0.000000 m /e glyphshow
123.063477 0.000000 m /a glyphshow
130.110596 0.000000 m /n glyphshow
137.399170 0.000000 m /d glyphshow
144.698975 0.000000 m /e glyphshow
151.774170 0.000000 m /r glyphshow
grestore
0.580 0.404 0.741 setrgbcolor
gsave
100.35 445.650625 m
123.35 445.650625 l
stroke
grestore
0.000 setgray
gsave
132.550000 441.625625 translate
0.000000 rotate
0.000000 0.000000 m /N glyphshow
8.602539 0.000000 m /E glyphshow
15.868652 0.000000 m /P glyphshow
22.803467 0.000000 m /space glyphshow
26.458984 0.000000 m /M glyphshow
36.381104 0.000000 m /e glyphshow
43.456299 0.000000 m /a glyphshow
50.503418 0.000000 m /n glyphshow
57.791992 0.000000 m /d glyphshow
65.091797 0.000000 m /e glyphshow
72.166992 0.000000 m /r glyphshow
76.895020 0.000000 m /hyphen glyphshow
81.044678 0.000000 m /W glyphshow
92.415527 0.000000 m /i glyphshow
95.610596 0.000000 m /r glyphshow
100.338623 0.000000 m /e glyphshow
107.413818 0.000000 m /b glyphshow
114.713623 0.000000 m /o glyphshow
121.749512 0.000000 m /n glyphshow
129.038086 0.000000 m /d glyphshow
136.337891 0.000000 m /space glyphshow
139.993408 0.000000 m /two glyphshow
grestore
0.549 0.337 0.294 setrgbcolor
gsave
100.35 428.775625 m
123.35 428.775625 l
stroke
grestore
0.000 setgray
gsave
132.550000 424.750625 translate
0.000000 rotate
0.000000 0.000000 m /N glyphshow
8.602539 0.000000 m /E glyphshow
15.868652 0.000000 m /P glyphshow
22.803467 0.000000 m /space glyphshow
26.458984 0.000000 m /W glyphshow
37.829834 0.000000 m /i glyphshow
41.024902 0.000000 m /r glyphshow
45.752930 0.000000 m /e glyphshow
52.828125 0.000000 m /b glyphshow
60.127930 0.000000 m /o glyphshow
67.163818 0.000000 m /n glyphshow
74.452393 0.000000 m /d glyphshow
81.752197 0.000000 m /space glyphshow
85.407715 0.000000 m /two glyphshow
92.724365 0.000000 m /hyphen glyphshow
96.874023 0.000000 m /B glyphshow
104.763428 0.000000 m /a glyphshow
111.810547 0.000000 m /t glyphshow
116.319580 0.000000 m /h glyphshow
grestore
3.000 setlinewidth
2 setlinecap
[] 0 setdash
gsave
100.35 411.900625 m
123.35 411.900625 l
stroke
grestore
gsave
132.550000 407.875625 translate
0.000000 rotate
0.000000 0.000000 m /T glyphshow
6.993408 0.000000 m /o glyphshow
14.029297 0.000000 m /t glyphshow
18.538330 0.000000 m /a glyphshow
25.585449 0.000000 m /l glyphshow
28.780518 0.000000 m /space glyphshow
32.436035 0.000000 m /N glyphshow
41.038574 0.000000 m /E glyphshow
48.304688 0.000000 m /P glyphshow
grestore

end
showpage
