%!PS-Adobe-3.0 EPSF-3.0
%%Title: nonlinear 20mK_nonzero_Gab_V1.eps
%%Creator: matplotlib version 2.1.2, http://matplotlib.org/
%%CreationDate: Thu Dec 27 09:50:17 2018
%%Orientation: portrait
%%BoundingBox: -342 -252 954 1044
%%EndComments
%%BeginProlog
/mpldict 8 dict def
mpldict begin
/m { moveto } bind def
/l { lineto } bind def
/r { rlineto } bind def
/c { curveto } bind def
/cl { closepath } bind def
/box {
m
1 index 0 r
0 exch r
neg 0 r
cl
} bind def
/clipbox {
box
clip
newpath
} bind def
%!PS-Adobe-3.0 Resource-Font
%%Title: DejaVu Sans
%%Copyright: Copyright (c) 2003 by Bitstream, Inc. All Rights Reserved. Copyright (c) 2006 by Tavmjong Bah. All Rights Reserved. DejaVu changes are in public domain 
%%Creator: Converted from TrueType to type 3 by PPR
25 dict begin
/_d{bind def}bind def
/_m{moveto}_d
/_l{lineto}_d
/_cl{closepath eofill}_d
/_c{curveto}_d
/_sc{7 -1 roll{setcachedevice}{pop pop pop pop pop pop}ifelse}_d
/_e{exec}_d
/FontName /DejaVuSans def
/PaintType 0 def
/FontMatrix[.001 0 0 .001 0 0]def
/FontBBox[-1021 -463 1793 1232]def
/FontType 3 def
/Encoding [ /space /hyphen /period /zero /one /two /three /four /five /six /seven /eight /nine /C /E /I /K /N /O /P /R /S /T /W /bracketleft /bracketright /a /c /e /h /i /l /m /n /o /p /r /s /t /u /v /w /y /minus ] def
/FontInfo 10 dict dup begin
/FamilyName (DejaVu Sans) def
/FullName (DejaVu Sans) def
/Notice (Copyright (c) 2003 by Bitstream, Inc. All Rights Reserved. Copyright (c) 2006 by Tavmjong Bah. All Rights Reserved. DejaVu changes are in public domain ) def
/Weight (Book) def
/Version (Version 2.35) def
/ItalicAngle 0.0 def
/isFixedPitch false def
/UnderlinePosition -130 def
/UnderlineThickness 90 def
end readonly def
/CharStrings 45 dict dup begin
/.notdef 0 def
/space{318 0 0 0 0 0 _sc
}_d
/hyphen{361 0 49 234 312 314 _sc
49 314 _m
312 314 _l
312 234 _l
49 234 _l
49 314 _l
_cl}_d
/period{318 0 107 0 210 124 _sc
107 124 _m
210 124 _l
210 0 _l
107 0 _l
107 124 _l
_cl}_d
/zero{636 0 66 -13 570 742 _sc
318 664 _m
267 664 229 639 203 589 _c
177 539 165 464 165 364 _c
165 264 177 189 203 139 _c
229 89 267 64 318 64 _c
369 64 407 89 433 139 _c
458 189 471 264 471 364 _c
471 464 458 539 433 589 _c
407 639 369 664 318 664 _c
318 742 _m
399 742 461 709 505 645 _c
548 580 570 486 570 364 _c
570 241 548 147 505 83 _c
461 19 399 -13 318 -13 _c
236 -13 173 19 130 83 _c
87 147 66 241 66 364 _c
66 486 87 580 130 645 _c
173 709 236 742 318 742 _c
_cl}_d
/one{636 0 110 0 544 729 _sc
124 83 _m
285 83 _l
285 639 _l
110 604 _l
110 694 _l
284 729 _l
383 729 _l
383 83 _l
544 83 _l
544 0 _l
124 0 _l
124 83 _l
_cl}_d
/two{{636 0 73 0 536 742 _sc
192 83 _m
536 83 _l
536 0 _l
73 0 _l
73 83 _l
110 121 161 173 226 239 _c
290 304 331 346 348 365 _c
380 400 402 430 414 455 _c
426 479 433 504 433 528 _c
433 566 419 598 392 622 _c
365 646 330 659 286 659 _c
255 659 222 653 188 643 _c
154 632 117 616 78 594 _c
78 694 _l
118 710 155 722 189 730 _c
223 738 255 742 284 742 _c
}_e{359 742 419 723 464 685 _c
509 647 532 597 532 534 _c
532 504 526 475 515 449 _c
504 422 484 390 454 354 _c
446 344 420 317 376 272 _c
332 227 271 164 192 83 _c
_cl}_e}_d
/three{{636 0 76 -13 556 742 _sc
406 393 _m
453 383 490 362 516 330 _c
542 298 556 258 556 212 _c
556 140 531 84 482 45 _c
432 6 362 -13 271 -13 _c
240 -13 208 -10 176 -4 _c
144 1 110 10 76 22 _c
76 117 _l
103 101 133 89 166 81 _c
198 73 232 69 268 69 _c
330 69 377 81 409 105 _c
441 129 458 165 458 212 _c
458 254 443 288 413 312 _c
383 336 341 349 287 349 _c
}_e{202 349 _l
202 430 _l
291 430 _l
339 430 376 439 402 459 _c
428 478 441 506 441 543 _c
441 580 427 609 401 629 _c
374 649 336 659 287 659 _c
260 659 231 656 200 650 _c
169 644 135 635 98 623 _c
98 711 _l
135 721 170 729 203 734 _c
235 739 266 742 296 742 _c
370 742 429 725 473 691 _c
517 657 539 611 539 553 _c
539 513 527 479 504 451 _c
481 423 448 403 406 393 _c
_cl}_e}_d
/four{636 0 49 0 580 729 _sc
378 643 _m
129 254 _l
378 254 _l
378 643 _l
352 729 _m
476 729 _l
476 254 _l
580 254 _l
580 172 _l
476 172 _l
476 0 _l
378 0 _l
378 172 _l
49 172 _l
49 267 _l
352 729 _l
_cl}_d
/five{{636 0 77 -13 549 729 _sc
108 729 _m
495 729 _l
495 646 _l
198 646 _l
198 467 _l
212 472 227 476 241 478 _c
255 480 270 482 284 482 _c
365 482 429 459 477 415 _c
525 370 549 310 549 234 _c
549 155 524 94 475 51 _c
426 8 357 -13 269 -13 _c
238 -13 207 -10 175 -6 _c
143 -1 111 6 77 17 _c
77 116 _l
106 100 136 88 168 80 _c
199 72 232 69 267 69 _c
}_e{323 69 368 83 401 113 _c
433 143 450 183 450 234 _c
450 284 433 324 401 354 _c
368 384 323 399 267 399 _c
241 399 214 396 188 390 _c
162 384 135 375 108 363 _c
108 729 _l
_cl}_e}_d
/six{{636 0 70 -13 573 742 _sc
330 404 _m
286 404 251 388 225 358 _c
199 328 186 286 186 234 _c
186 181 199 139 225 109 _c
251 79 286 64 330 64 _c
374 64 409 79 435 109 _c
461 139 474 181 474 234 _c
474 286 461 328 435 358 _c
409 388 374 404 330 404 _c
526 713 _m
526 623 _l
501 635 476 644 451 650 _c
425 656 400 659 376 659 _c
310 659 260 637 226 593 _c
}_e{192 549 172 482 168 394 _c
187 422 211 444 240 459 _c
269 474 301 482 336 482 _c
409 482 467 459 509 415 _c
551 371 573 310 573 234 _c
573 159 550 99 506 54 _c
462 9 403 -13 330 -13 _c
246 -13 181 19 137 83 _c
92 147 70 241 70 364 _c
70 479 97 571 152 639 _c
206 707 280 742 372 742 _c
396 742 421 739 447 735 _c
472 730 498 723 526 713 _c
_cl}_e}_d
/seven{636 0 82 0 551 729 _sc
82 729 _m
551 729 _l
551 687 _l
286 0 _l
183 0 _l
432 646 _l
82 646 _l
82 729 _l
_cl}_d
/eight{{636 0 68 -13 568 742 _sc
318 346 _m
271 346 234 333 207 308 _c
180 283 167 249 167 205 _c
167 161 180 126 207 101 _c
234 76 271 64 318 64 _c
364 64 401 76 428 102 _c
455 127 469 161 469 205 _c
469 249 455 283 429 308 _c
402 333 365 346 318 346 _c
219 388 _m
177 398 144 418 120 447 _c
96 476 85 511 85 553 _c
85 611 105 657 147 691 _c
188 725 245 742 318 742 _c
}_e{390 742 447 725 489 691 _c
530 657 551 611 551 553 _c
551 511 539 476 515 447 _c
491 418 459 398 417 388 _c
464 377 501 355 528 323 _c
554 291 568 251 568 205 _c
568 134 546 80 503 43 _c
459 5 398 -13 318 -13 _c
237 -13 175 5 132 43 _c
89 80 68 134 68 205 _c
68 251 81 291 108 323 _c
134 355 171 377 219 388 _c
183 544 _m
183 506 194 476 218 455 _c
}_e{242 434 275 424 318 424 _c
360 424 393 434 417 455 _c
441 476 453 506 453 544 _c
453 582 441 611 417 632 _c
393 653 360 664 318 664 _c
275 664 242 653 218 632 _c
194 611 183 582 183 544 _c
_cl}_e}_d
/nine{{636 0 63 -13 566 742 _sc
110 15 _m
110 105 _l
134 93 159 84 185 78 _c
210 72 235 69 260 69 _c
324 69 374 90 408 134 _c
442 178 462 244 468 334 _c
448 306 424 284 396 269 _c
367 254 335 247 300 247 _c
226 247 168 269 126 313 _c
84 357 63 417 63 494 _c
63 568 85 628 129 674 _c
173 719 232 742 306 742 _c
390 742 455 709 499 645 _c
543 580 566 486 566 364 _c
}_e{566 248 538 157 484 89 _c
429 21 356 -13 264 -13 _c
239 -13 214 -10 189 -6 _c
163 -2 137 5 110 15 _c
306 324 _m
350 324 385 339 411 369 _c
437 399 450 441 450 494 _c
450 546 437 588 411 618 _c
385 648 350 664 306 664 _c
262 664 227 648 201 618 _c
175 588 162 546 162 494 _c
162 441 175 399 201 369 _c
227 339 262 324 306 324 _c
_cl}_e}_d
/C{{698 0 56 -13 644 742 _sc
644 673 _m
644 569 _l
610 599 575 622 537 638 _c
499 653 460 661 418 661 _c
334 661 270 635 226 584 _c
182 533 160 460 160 364 _c
160 268 182 194 226 143 _c
270 92 334 67 418 67 _c
460 67 499 74 537 90 _c
575 105 610 128 644 159 _c
644 56 _l
609 32 572 15 534 4 _c
496 -7 455 -13 412 -13 _c
302 -13 215 20 151 87 _c
}_e{87 154 56 246 56 364 _c
56 481 87 573 151 641 _c
215 708 302 742 412 742 _c
456 742 497 736 535 725 _c
573 713 610 696 644 673 _c
_cl}_e}_d
/E{632 0 98 0 568 729 _sc
98 729 _m
559 729 _l
559 646 _l
197 646 _l
197 430 _l
544 430 _l
544 347 _l
197 347 _l
197 83 _l
568 83 _l
568 0 _l
98 0 _l
98 729 _l
_cl}_d
/I{295 0 98 0 197 729 _sc
98 729 _m
197 729 _l
197 0 _l
98 0 _l
98 729 _l
_cl}_d
/K{656 0 98 0 677 729 _sc
98 729 _m
197 729 _l
197 421 _l
524 729 _l
651 729 _l
289 389 _l
677 0 _l
547 0 _l
197 351 _l
197 0 _l
98 0 _l
98 729 _l
_cl}_d
/N{748 0 98 0 650 729 _sc
98 729 _m
231 729 _l
554 119 _l
554 729 _l
650 729 _l
650 0 _l
517 0 _l
194 610 _l
194 0 _l
98 0 _l
98 729 _l
_cl}_d
/O{787 0 56 -13 731 742 _sc
394 662 _m
322 662 265 635 223 582 _c
181 528 160 456 160 364 _c
160 272 181 199 223 146 _c
265 92 322 66 394 66 _c
465 66 522 92 564 146 _c
606 199 627 272 627 364 _c
627 456 606 528 564 582 _c
522 635 465 662 394 662 _c
394 742 _m
496 742 577 707 639 639 _c
700 571 731 479 731 364 _c
731 248 700 157 639 89 _c
577 21 496 -13 394 -13 _c
291 -13 209 21 148 89 _c
86 157 56 248 56 364 _c
56 479 86 571 148 639 _c
209 707 291 742 394 742 _c
_cl}_d
/P{603 0 98 0 569 729 _sc
197 648 _m
197 374 _l
321 374 _l
367 374 402 385 427 409 _c
452 433 465 467 465 511 _c
465 555 452 588 427 612 _c
402 636 367 648 321 648 _c
197 648 _l
98 729 _m
321 729 _l
402 729 464 710 506 673 _c
548 636 569 582 569 511 _c
569 439 548 384 506 348 _c
464 311 402 293 321 293 _c
197 293 _l
197 0 _l
98 0 _l
98 729 _l
_cl}_d
/R{{695 0 98 0 666 729 _sc
444 342 _m
465 334 486 319 506 296 _c
526 272 546 240 566 199 _c
666 0 _l
560 0 _l
467 187 _l
443 235 419 268 397 284 _c
374 300 343 308 304 308 _c
197 308 _l
197 0 _l
98 0 _l
98 729 _l
321 729 _l
404 729 466 711 507 677 _c
548 642 569 589 569 519 _c
569 473 558 434 537 404 _c
515 374 484 353 444 342 _c
197 648 _m
197 389 _l
321 389 _l
}_e{368 389 404 400 428 422 _c
452 444 465 476 465 519 _c
465 561 452 593 428 615 _c
404 637 368 648 321 648 _c
197 648 _l
_cl}_e}_d
/S{{635 0 66 -13 579 742 _sc
535 705 _m
535 609 _l
497 627 462 640 429 649 _c
395 657 363 662 333 662 _c
279 662 237 651 208 631 _c
179 610 165 580 165 542 _c
165 510 174 485 194 469 _c
213 452 250 439 304 429 _c
364 417 _l
437 403 491 378 526 343 _c
561 307 579 260 579 201 _c
579 130 555 77 508 41 _c
460 5 391 -13 300 -13 _c
265 -13 228 -9 189 -2 _c
}_e{150 5 110 16 69 32 _c
69 134 _l
109 111 148 94 186 83 _c
224 71 262 66 300 66 _c
356 66 399 77 430 99 _c
460 121 476 152 476 194 _c
476 230 465 258 443 278 _c
421 298 385 313 335 323 _c
275 335 _l
201 349 148 372 115 404 _c
82 435 66 478 66 534 _c
66 598 88 649 134 686 _c
179 723 242 742 322 742 _c
356 742 390 739 426 733 _c
461 727 497 717 535 705 _c
}_e{_cl}_e}_d
/T{611 0 -2 0 614 729 _sc
-2 729 _m
614 729 _l
614 646 _l
355 646 _l
355 0 _l
256 0 _l
256 646 _l
-2 646 _l
-2 729 _l
_cl}_d
/W{989 0 33 0 956 729 _sc
33 729 _m
133 729 _l
286 113 _l
439 729 _l
550 729 _l
703 113 _l
856 729 _l
956 729 _l
773 0 _l
649 0 _l
495 633 _l
340 0 _l
216 0 _l
33 729 _l
_cl}_d
/bracketleft{390 0 86 -131 293 760 _sc
86 760 _m
293 760 _l
293 690 _l
176 690 _l
176 -61 _l
293 -61 _l
293 -131 _l
86 -131 _l
86 760 _l
_cl}_d
/bracketright{390 0 97 -131 304 760 _sc
304 760 _m
304 -131 _l
97 -131 _l
97 -61 _l
214 -61 _l
214 690 _l
97 690 _l
97 760 _l
304 760 _l
_cl}_d
/a{{613 0 60 -13 522 560 _sc
343 275 _m
270 275 220 266 192 250 _c
164 233 150 205 150 165 _c
150 133 160 107 181 89 _c
202 70 231 61 267 61 _c
317 61 357 78 387 114 _c
417 149 432 196 432 255 _c
432 275 _l
343 275 _l
522 312 _m
522 0 _l
432 0 _l
432 83 _l
411 49 385 25 355 10 _c
325 -5 287 -13 243 -13 _c
187 -13 142 2 109 33 _c
76 64 60 106 60 159 _c
}_e{60 220 80 266 122 298 _c
163 329 224 345 306 345 _c
432 345 _l
432 354 _l
432 395 418 427 391 450 _c
364 472 326 484 277 484 _c
245 484 215 480 185 472 _c
155 464 127 453 100 439 _c
100 522 _l
132 534 164 544 195 550 _c
226 556 256 560 286 560 _c
365 560 424 539 463 498 _c
502 457 522 395 522 312 _c
_cl}_e}_d
/c{{550 0 55 -13 488 560 _sc
488 526 _m
488 442 _l
462 456 437 466 411 473 _c
385 480 360 484 334 484 _c
276 484 230 465 198 428 _c
166 391 150 339 150 273 _c
150 206 166 154 198 117 _c
230 80 276 62 334 62 _c
360 62 385 65 411 72 _c
437 79 462 90 488 104 _c
488 21 _l
462 9 436 0 410 -5 _c
383 -10 354 -13 324 -13 _c
242 -13 176 12 128 64 _c
}_e{79 115 55 185 55 273 _c
55 362 79 432 128 483 _c
177 534 244 560 330 560 _c
358 560 385 557 411 551 _c
437 545 463 537 488 526 _c
_cl}_e}_d
/e{{615 0 55 -13 562 560 _sc
562 296 _m
562 252 _l
149 252 _l
153 190 171 142 205 110 _c
238 78 284 62 344 62 _c
378 62 412 66 444 74 _c
476 82 509 95 541 113 _c
541 28 _l
509 14 476 3 442 -3 _c
408 -9 373 -13 339 -13 _c
251 -13 182 12 131 62 _c
80 112 55 181 55 268 _c
55 357 79 428 127 481 _c
175 533 241 560 323 560 _c
397 560 455 536 498 489 _c
}_e{540 441 562 377 562 296 _c
472 322 _m
471 371 457 410 431 440 _c
404 469 368 484 324 484 _c
274 484 234 469 204 441 _c
174 413 156 373 152 322 _c
472 322 _l
_cl}_e}_d
/h{634 0 91 0 549 760 _sc
549 330 _m
549 0 _l
459 0 _l
459 327 _l
459 379 448 417 428 443 _c
408 469 378 482 338 482 _c
289 482 251 466 223 435 _c
195 404 181 362 181 309 _c
181 0 _l
91 0 _l
91 760 _l
181 760 _l
181 462 _l
202 494 227 519 257 535 _c
286 551 320 560 358 560 _c
420 560 468 540 500 501 _c
532 462 549 405 549 330 _c
_cl}_d
/i{278 0 94 0 184 760 _sc
94 547 _m
184 547 _l
184 0 _l
94 0 _l
94 547 _l
94 760 _m
184 760 _l
184 646 _l
94 646 _l
94 760 _l
_cl}_d
/l{278 0 94 0 184 760 _sc
94 760 _m
184 760 _l
184 0 _l
94 0 _l
94 760 _l
_cl}_d
/m{{974 0 91 0 889 560 _sc
520 442 _m
542 482 569 511 600 531 _c
631 550 668 560 711 560 _c
767 560 811 540 842 500 _c
873 460 889 403 889 330 _c
889 0 _l
799 0 _l
799 327 _l
799 379 789 418 771 444 _c
752 469 724 482 686 482 _c
639 482 602 466 575 435 _c
548 404 535 362 535 309 _c
535 0 _l
445 0 _l
445 327 _l
445 379 435 418 417 444 _c
398 469 369 482 331 482 _c
}_e{285 482 248 466 221 435 _c
194 404 181 362 181 309 _c
181 0 _l
91 0 _l
91 547 _l
181 547 _l
181 462 _l
201 495 226 520 255 536 _c
283 552 317 560 357 560 _c
397 560 430 550 458 530 _c
486 510 506 480 520 442 _c
_cl}_e}_d
/n{634 0 91 0 549 560 _sc
549 330 _m
549 0 _l
459 0 _l
459 327 _l
459 379 448 417 428 443 _c
408 469 378 482 338 482 _c
289 482 251 466 223 435 _c
195 404 181 362 181 309 _c
181 0 _l
91 0 _l
91 547 _l
181 547 _l
181 462 _l
202 494 227 519 257 535 _c
286 551 320 560 358 560 _c
420 560 468 540 500 501 _c
532 462 549 405 549 330 _c
_cl}_d
/o{612 0 55 -13 557 560 _sc
306 484 _m
258 484 220 465 192 427 _c
164 389 150 338 150 273 _c
150 207 163 156 191 118 _c
219 80 257 62 306 62 _c
354 62 392 80 420 118 _c
448 156 462 207 462 273 _c
462 337 448 389 420 427 _c
392 465 354 484 306 484 _c
306 560 _m
384 560 445 534 490 484 _c
534 433 557 363 557 273 _c
557 183 534 113 490 63 _c
445 12 384 -13 306 -13 _c
227 -13 165 12 121 63 _c
77 113 55 183 55 273 _c
55 363 77 433 121 484 _c
165 534 227 560 306 560 _c
_cl}_d
/p{{635 0 91 -207 580 560 _sc
181 82 _m
181 -207 _l
91 -207 _l
91 547 _l
181 547 _l
181 464 _l
199 496 223 520 252 536 _c
281 552 316 560 356 560 _c
422 560 476 533 518 481 _c
559 428 580 359 580 273 _c
580 187 559 117 518 65 _c
476 13 422 -13 356 -13 _c
316 -13 281 -5 252 10 _c
223 25 199 49 181 82 _c
487 273 _m
487 339 473 390 446 428 _c
418 466 381 485 334 485 _c
}_e{286 485 249 466 222 428 _c
194 390 181 339 181 273 _c
181 207 194 155 222 117 _c
249 79 286 61 334 61 _c
381 61 418 79 446 117 _c
473 155 487 207 487 273 _c
_cl}_e}_d
/r{411 0 91 0 411 560 _sc
411 463 _m
401 469 390 473 378 476 _c
366 478 353 480 339 480 _c
288 480 249 463 222 430 _c
194 397 181 350 181 288 _c
181 0 _l
91 0 _l
91 547 _l
181 547 _l
181 462 _l
199 495 224 520 254 536 _c
284 552 321 560 365 560 _c
371 560 378 559 386 559 _c
393 558 401 557 411 555 _c
411 463 _l
_cl}_d
/s{{521 0 54 -13 472 560 _sc
443 531 _m
443 446 _l
417 458 391 468 364 475 _c
336 481 308 485 279 485 _c
234 485 200 478 178 464 _c
156 450 145 430 145 403 _c
145 382 153 366 169 354 _c
185 342 217 330 265 320 _c
296 313 _l
360 299 405 279 432 255 _c
458 230 472 195 472 151 _c
472 100 452 60 412 31 _c
372 1 316 -13 246 -13 _c
216 -13 186 -10 154 -5 _c
}_e{122 0 89 8 54 20 _c
54 113 _l
87 95 120 82 152 74 _c
184 65 216 61 248 61 _c
290 61 323 68 346 82 _c
368 96 380 117 380 144 _c
380 168 371 187 355 200 _c
339 213 303 226 247 238 _c
216 245 _l
160 257 119 275 95 299 _c
70 323 58 356 58 399 _c
58 450 76 490 112 518 _c
148 546 200 560 268 560 _c
301 560 332 557 362 552 _c
391 547 418 540 443 531 _c
}_e{_cl}_e}_d
/t{392 0 27 0 368 702 _sc
183 702 _m
183 547 _l
368 547 _l
368 477 _l
183 477 _l
183 180 _l
183 135 189 106 201 94 _c
213 81 238 75 276 75 _c
368 75 _l
368 0 _l
276 0 _l
206 0 158 13 132 39 _c
106 65 93 112 93 180 _c
93 477 _l
27 477 _l
27 547 _l
93 547 _l
93 702 _l
183 702 _l
_cl}_d
/u{634 0 85 -13 543 560 _sc
85 216 _m
85 547 _l
175 547 _l
175 219 _l
175 167 185 129 205 103 _c
225 77 255 64 296 64 _c
344 64 383 79 411 110 _c
439 141 453 183 453 237 _c
453 547 _l
543 547 _l
543 0 _l
453 0 _l
453 84 _l
431 50 405 26 377 10 _c
348 -5 315 -13 277 -13 _c
214 -13 166 6 134 45 _c
101 83 85 140 85 216 _c
311 560 _m
311 560 _l
_cl}_d
/v{592 0 30 0 562 547 _sc
30 547 _m
125 547 _l
296 88 _l
467 547 _l
562 547 _l
357 0 _l
235 0 _l
30 547 _l
_cl}_d
/w{818 0 42 0 776 547 _sc
42 547 _m
132 547 _l
244 120 _l
356 547 _l
462 547 _l
574 120 _l
686 547 _l
776 547 _l
633 0 _l
527 0 _l
409 448 _l
291 0 _l
185 0 _l
42 547 _l
_cl}_d
/y{592 0 30 -207 562 547 _sc
322 -50 _m
296 -114 271 -157 247 -177 _c
223 -197 191 -207 151 -207 _c
79 -207 _l
79 -132 _l
132 -132 _l
156 -132 175 -126 189 -114 _c
203 -102 218 -75 235 -31 _c
251 9 _l
30 547 _l
125 547 _l
296 119 _l
467 547 _l
562 547 _l
322 -50 _l
_cl}_d
/minus{838 0 106 272 732 355 _sc
106 355 _m
732 355 _l
732 272 _l
106 272 _l
106 355 _l
_cl}_d
end readonly def

/BuildGlyph
 {exch begin
 CharStrings exch
 2 copy known not{pop /.notdef}if
 true 3 1 roll get exec
 end}_d

/BuildChar {
 1 index /Encoding get exch get
 1 index /BuildGlyph get exec
}_d

FontName currentdict end definefont pop
end
%%EndProlog
mpldict begin
-342 -252 translate
1296 1296 0 0 clipbox
gsave
0 0 m
1296 0 l
1296 1296 l
0 1296 l
cl
1.000 setgray
fill
grestore
gsave
162 971.776552 m
1166.4 971.776552 l
1166.4 1140.48 l
162 1140.48 l
cl
1.000 setgray
fill
grestore
0.800 setlinewidth
1 setlinejoin
0 setlinecap
[] 0 setdash
0.000 setgray
gsave
/o {
gsave
newpath
translate
0.8 setlinewidth
1 setlinejoin
0 setlinecap
0 0 m
0 -3.5 l

gsave
0.000 setgray
fill
grestore
stroke
grestore
} bind def
219.829 971.777 o
grestore
/DejaVuSans findfont
20.000 scalefont
setfont
gsave
197.571278 949.573427 translate
0.000000 rotate
0.000000 0.000000 m /zero glyphshow
12.724609 0.000000 m /period glyphshow
19.082031 0.000000 m /zero glyphshow
31.806641 0.000000 m /zero glyphshow
grestore
gsave
/o {
gsave
newpath
translate
0.8 setlinewidth
1 setlinejoin
0 setlinecap
0 0 m
0 -3.5 l

gsave
0.000 setgray
fill
grestore
stroke
grestore
} bind def
341.575 971.777 o
grestore
gsave
319.316733 949.573427 translate
0.000000 rotate
0.000000 0.000000 m /zero glyphshow
12.724609 0.000000 m /period glyphshow
19.082031 0.000000 m /zero glyphshow
31.806641 0.000000 m /two glyphshow
grestore
gsave
/o {
gsave
newpath
translate
0.8 setlinewidth
1 setlinejoin
0 setlinecap
0 0 m
0 -3.5 l

gsave
0.000 setgray
fill
grestore
stroke
grestore
} bind def
463.32 971.777 o
grestore
gsave
441.062187 949.573427 translate
0.000000 rotate
0.000000 0.000000 m /zero glyphshow
12.724609 0.000000 m /period glyphshow
19.082031 0.000000 m /zero glyphshow
31.806641 0.000000 m /four glyphshow
grestore
gsave
/o {
gsave
newpath
translate
0.8 setlinewidth
1 setlinejoin
0 setlinecap
0 0 m
0 -3.5 l

gsave
0.000 setgray
fill
grestore
stroke
grestore
} bind def
585.065 971.777 o
grestore
gsave
562.807642 949.573427 translate
0.000000 rotate
0.000000 0.000000 m /zero glyphshow
12.724609 0.000000 m /period glyphshow
19.082031 0.000000 m /zero glyphshow
31.806641 0.000000 m /six glyphshow
grestore
gsave
/o {
gsave
newpath
translate
0.8 setlinewidth
1 setlinejoin
0 setlinecap
0 0 m
0 -3.5 l

gsave
0.000 setgray
fill
grestore
stroke
grestore
} bind def
706.811 971.777 o
grestore
gsave
684.553097 949.573427 translate
0.000000 rotate
0.000000 0.000000 m /zero glyphshow
12.724609 0.000000 m /period glyphshow
19.082031 0.000000 m /zero glyphshow
31.806641 0.000000 m /eight glyphshow
grestore
gsave
/o {
gsave
newpath
translate
0.8 setlinewidth
1 setlinejoin
0 setlinecap
0 0 m
0 -3.5 l

gsave
0.000 setgray
fill
grestore
stroke
grestore
} bind def
828.556 971.777 o
grestore
gsave
806.298551 949.573427 translate
0.000000 rotate
0.000000 0.000000 m /zero glyphshow
12.724609 0.000000 m /period glyphshow
19.082031 0.000000 m /one glyphshow
31.806641 0.000000 m /zero glyphshow
grestore
gsave
/o {
gsave
newpath
translate
0.8 setlinewidth
1 setlinejoin
0 setlinecap
0 0 m
0 -3.5 l

gsave
0.000 setgray
fill
grestore
stroke
grestore
} bind def
950.302 971.777 o
grestore
gsave
928.044006 949.573427 translate
0.000000 rotate
0.000000 0.000000 m /zero glyphshow
12.724609 0.000000 m /period glyphshow
19.082031 0.000000 m /one glyphshow
31.806641 0.000000 m /two glyphshow
grestore
gsave
/o {
gsave
newpath
translate
0.8 setlinewidth
1 setlinejoin
0 setlinecap
0 0 m
0 -3.5 l

gsave
0.000 setgray
fill
grestore
stroke
grestore
} bind def
1072.05 971.777 o
grestore
gsave
1049.789460 949.573427 translate
0.000000 rotate
0.000000 0.000000 m /zero glyphshow
12.724609 0.000000 m /period glyphshow
19.082031 0.000000 m /one glyphshow
31.806641 0.000000 m /four glyphshow
grestore
/DejaVuSans findfont
10.000 scalefont
setfont
gsave
622.903125 933.823427 translate
0.000000 rotate
0.000000 0.000000 m /T glyphshow
6.108398 0.000000 m /i glyphshow
8.886719 0.000000 m /m glyphshow
18.627930 0.000000 m /e glyphshow
24.780273 0.000000 m /space glyphshow
27.958984 0.000000 m /bracketleft glyphshow
31.860352 0.000000 m /one glyphshow
38.222656 0.000000 m /period glyphshow
41.401367 0.000000 m /five glyphshow
47.763672 0.000000 m /e glyphshow
53.916016 0.000000 m /hyphen glyphshow
57.524414 0.000000 m /zero glyphshow
63.886719 0.000000 m /five glyphshow
70.249023 0.000000 m /space glyphshow
73.427734 0.000000 m /s glyphshow
78.637695 0.000000 m /bracketright glyphshow
grestore
gsave
/o {
gsave
newpath
translate
0.8 setlinewidth
1 setlinejoin
0 setlinecap
0 0 m
-3.5 0 l

gsave
0.000 setgray
fill
grestore
stroke
grestore
} bind def
162 979.448 o
grestore
/DejaVuSans findfont
20.000 scalefont
setfont
gsave
142.281250 971.846695 translate
0.000000 rotate
0.000000 0.000000 m /zero glyphshow
grestore
gsave
/o {
gsave
newpath
translate
0.8 setlinewidth
1 setlinejoin
0 setlinecap
0 0 m
-3.5 0 l

gsave
0.000 setgray
fill
grestore
stroke
grestore
} bind def
162 1022.42 o
grestore
gsave
142.281250 1014.821980 translate
0.000000 rotate
0.000000 0.000000 m /two glyphshow
grestore
gsave
/o {
gsave
newpath
translate
0.8 setlinewidth
1 setlinejoin
0 setlinecap
0 0 m
-3.5 0 l

gsave
0.000 setgray
fill
grestore
stroke
grestore
} bind def
162 1065.4 o
grestore
gsave
142.281250 1057.797265 translate
0.000000 rotate
0.000000 0.000000 m /four glyphshow
grestore
gsave
/o {
gsave
newpath
translate
0.8 setlinewidth
1 setlinejoin
0 setlinecap
0 0 m
-3.5 0 l

gsave
0.000 setgray
fill
grestore
stroke
grestore
} bind def
162 1108.37 o
grestore
gsave
142.281250 1100.772550 translate
0.000000 rotate
0.000000 0.000000 m /six glyphshow
grestore
/DejaVuSans findfont
10.000 scalefont
setfont
gsave
136.203125 1014.714213 translate
90.000000 rotate
0.000000 0.000000 m /T glyphshow
6.092773 0.000000 m /e glyphshow
12.245117 0.000000 m /m glyphshow
21.986328 0.000000 m /p glyphshow
28.333984 0.000000 m /e glyphshow
34.486328 0.000000 m /r glyphshow
38.597656 0.000000 m /a glyphshow
44.725586 0.000000 m /t glyphshow
48.646484 0.000000 m /u glyphshow
54.984375 0.000000 m /r glyphshow
59.095703 0.000000 m /e glyphshow
65.248047 0.000000 m /space glyphshow
68.426758 0.000000 m /bracketleft glyphshow
72.328125 0.000000 m /K glyphshow
78.885742 0.000000 m /bracketright glyphshow
grestore
/DejaVuSans findfont
20.000 scalefont
setfont
gsave
162.000000 1143.480000 translate
0.000000 rotate
0.000000 0.000000 m /one glyphshow
12.724609 0.000000 m /e glyphshow
25.029297 0.000000 m /minus glyphshow
41.787109 0.000000 m /nine glyphshow
grestore
1.500 setlinewidth
2 setlinecap
gsave
1004 168.7 162 971.8 clipbox
207.654545 979.448257 m
219.799869 979.448257 l
220.25646 1111.591065 l
220.439097 1121.919894 l
220.530415 1123.079193 l
220.621733 1122.624612 l
220.80437 1118.758802 l
221.443597 1095.859404 l
222.356779 1065.743011 l
223.178643 1045.146778 l
224.000507 1029.45872 l
224.822371 1017.516452 l
225.644235 1008.425927 l
226.466099 1001.506181 l
227.287963 996.238841 l
228.109827 992.229317 l
229.02301 988.886726 l
229.936192 986.418308 l
230.849374 984.595451 l
231.762556 983.249318 l
232.767057 982.171435 l
233.862875 981.340917 l
235.050012 980.724437 l
236.511104 980.233958 l
238.337468 979.876681 l
240.80306 979.637191 l
244.821062 979.498043 l
254.500794 979.450261 l
437.959103 979.448433 l
1120.745455 979.448433 l
1120.745455 979.448433 l
stroke
grestore
0.122 0.467 0.706 setrgbcolor
gsave
1004 168.7 162 971.8 clipbox
220.530415 1132.811661 m
221.443597 1093.687404 l
222.356779 1064.543846 l
223.269962 1042.834884 l
224.183144 1026.663933 l
225.096326 1014.618234 l
226.009508 1005.645424 l
226.92269 998.961601 l
227.835873 993.982838 l
228.749055 990.27417 l
229.662237 987.511593 l
230.575419 985.453756 l
231.488602 983.920879 l
232.493102 982.682281 l
233.497602 981.786429 l
234.593421 981.089326 l
235.871876 980.5337 l
237.424286 980.104848 l
239.433287 979.790136 l
242.35547 979.579426 l
247.469291 979.470747 l
264.089207 979.445012 l
1120.654136 979.44489 l
1120.654136 979.44489 l
stroke
grestore
0.800 setlinewidth
0 setlinejoin
[] 0 setdash
0.000 setgray
gsave
162 971.776552 m
162 1140.48 l
stroke
grestore
gsave
1166.4 971.776552 m
1166.4 1140.48 l
stroke
grestore
gsave
162 971.776552 m
1166.4 971.776552 l
stroke
grestore
gsave
162 1140.48 m
1166.4 1140.48 l
stroke
grestore
/DejaVuSans findfont
12.000 scalefont
setfont
gsave
614.481250 1146.480000 translate
0.000000 rotate
0.000000 0.000000 m /N glyphshow
8.976562 0.000000 m /o glyphshow
16.318359 0.000000 m /n glyphshow
23.923828 0.000000 m /l glyphshow
27.257812 0.000000 m /i glyphshow
30.591797 0.000000 m /n glyphshow
38.197266 0.000000 m /e glyphshow
45.580078 0.000000 m /a glyphshow
52.933594 0.000000 m /r glyphshow
57.867188 0.000000 m /space glyphshow
61.681641 0.000000 m /S glyphshow
69.298828 0.000000 m /o glyphshow
76.640625 0.000000 m /l glyphshow
79.974609 0.000000 m /v glyphshow
87.076172 0.000000 m /e glyphshow
94.458984 0.000000 m /r glyphshow
grestore
1.000 setlinewidth
0 setlinecap
0.800 setgray
gsave
955.24375 1117.808125 m
1159.4 1117.808125 l
1160.733333 1117.808125 1161.4 1118.474792 1161.4 1119.808125 c
1161.4 1133.48 l
1161.4 1134.813333 1160.733333 1135.48 1159.4 1135.48 c
955.24375 1135.48 l
953.910417 1135.48 953.24375 1134.813333 953.24375 1133.48 c
953.24375 1119.808125 l
953.24375 1118.474792 953.910417 1117.808125 955.24375 1117.808125 c
cl
gsave
1.000 setgray
fill
grestore
stroke
grestore
1.500 setlinewidth
1 setlinejoin
2 setlinecap
[] 0 setdash
0.000 setgray
gsave
957.24375 1127.38625 m
977.24375 1127.38625 l
stroke
grestore
/DejaVuSans findfont
10.000 scalefont
setfont
gsave
985.243750 1123.886250 translate
0.000000 rotate
0.000000 0.000000 m /T glyphshow
6.108398 0.000000 m /E glyphshow
12.426758 0.000000 m /S glyphshow
18.774414 0.000000 m /space glyphshow
21.953125 0.000000 m /E glyphshow
28.271484 0.000000 m /l glyphshow
31.049805 0.000000 m /e glyphshow
37.202148 0.000000 m /c glyphshow
42.700195 0.000000 m /t glyphshow
46.621094 0.000000 m /r glyphshow
50.732422 0.000000 m /o glyphshow
56.850586 0.000000 m /n glyphshow
63.188477 0.000000 m /space glyphshow
66.367188 0.000000 m /S glyphshow
72.714844 0.000000 m /y glyphshow
78.632812 0.000000 m /s glyphshow
83.842773 0.000000 m /t glyphshow
87.763672 0.000000 m /e glyphshow
93.916016 0.000000 m /m glyphshow
103.657227 0.000000 m /space glyphshow
106.835938 0.000000 m /T glyphshow
112.928711 0.000000 m /e glyphshow
119.081055 0.000000 m /m glyphshow
128.822266 0.000000 m /p glyphshow
135.169922 0.000000 m /e glyphshow
141.322266 0.000000 m /r glyphshow
145.433594 0.000000 m /a glyphshow
151.561523 0.000000 m /t glyphshow
155.482422 0.000000 m /u glyphshow
161.820312 0.000000 m /r glyphshow
165.931641 0.000000 m /e glyphshow
grestore
gsave
162 769.332414 m
1166.4 769.332414 l
1166.4 938.035862 l
162 938.035862 l
cl
1.000 setgray
fill
grestore
0.800 setlinewidth
0 setlinecap
gsave
/o {
gsave
newpath
translate
0.8 setlinewidth
1 setlinejoin
0 setlinecap
0 0 m
0 -3.5 l

gsave
0.000 setgray
fill
grestore
stroke
grestore
} bind def
219.829 769.332 o
grestore
/DejaVuSans findfont
20.000 scalefont
setfont
gsave
197.571278 747.129289 translate
0.000000 rotate
0.000000 0.000000 m /zero glyphshow
12.724609 0.000000 m /period glyphshow
19.082031 0.000000 m /zero glyphshow
31.806641 0.000000 m /zero glyphshow
grestore
gsave
/o {
gsave
newpath
translate
0.8 setlinewidth
1 setlinejoin
0 setlinecap
0 0 m
0 -3.5 l

gsave
0.000 setgray
fill
grestore
stroke
grestore
} bind def
341.575 769.332 o
grestore
gsave
319.316733 747.129289 translate
0.000000 rotate
0.000000 0.000000 m /zero glyphshow
12.724609 0.000000 m /period glyphshow
19.082031 0.000000 m /zero glyphshow
31.806641 0.000000 m /two glyphshow
grestore
gsave
/o {
gsave
newpath
translate
0.8 setlinewidth
1 setlinejoin
0 setlinecap
0 0 m
0 -3.5 l

gsave
0.000 setgray
fill
grestore
stroke
grestore
} bind def
463.32 769.332 o
grestore
gsave
441.062187 747.129289 translate
0.000000 rotate
0.000000 0.000000 m /zero glyphshow
12.724609 0.000000 m /period glyphshow
19.082031 0.000000 m /zero glyphshow
31.806641 0.000000 m /four glyphshow
grestore
gsave
/o {
gsave
newpath
translate
0.8 setlinewidth
1 setlinejoin
0 setlinecap
0 0 m
0 -3.5 l

gsave
0.000 setgray
fill
grestore
stroke
grestore
} bind def
585.065 769.332 o
grestore
gsave
562.807642 747.129289 translate
0.000000 rotate
0.000000 0.000000 m /zero glyphshow
12.724609 0.000000 m /period glyphshow
19.082031 0.000000 m /zero glyphshow
31.806641 0.000000 m /six glyphshow
grestore
gsave
/o {
gsave
newpath
translate
0.8 setlinewidth
1 setlinejoin
0 setlinecap
0 0 m
0 -3.5 l

gsave
0.000 setgray
fill
grestore
stroke
grestore
} bind def
706.811 769.332 o
grestore
gsave
684.553097 747.129289 translate
0.000000 rotate
0.000000 0.000000 m /zero glyphshow
12.724609 0.000000 m /period glyphshow
19.082031 0.000000 m /zero glyphshow
31.806641 0.000000 m /eight glyphshow
grestore
gsave
/o {
gsave
newpath
translate
0.8 setlinewidth
1 setlinejoin
0 setlinecap
0 0 m
0 -3.5 l

gsave
0.000 setgray
fill
grestore
stroke
grestore
} bind def
828.556 769.332 o
grestore
gsave
806.298551 747.129289 translate
0.000000 rotate
0.000000 0.000000 m /zero glyphshow
12.724609 0.000000 m /period glyphshow
19.082031 0.000000 m /one glyphshow
31.806641 0.000000 m /zero glyphshow
grestore
gsave
/o {
gsave
newpath
translate
0.8 setlinewidth
1 setlinejoin
0 setlinecap
0 0 m
0 -3.5 l

gsave
0.000 setgray
fill
grestore
stroke
grestore
} bind def
950.302 769.332 o
grestore
gsave
928.044006 747.129289 translate
0.000000 rotate
0.000000 0.000000 m /zero glyphshow
12.724609 0.000000 m /period glyphshow
19.082031 0.000000 m /one glyphshow
31.806641 0.000000 m /two glyphshow
grestore
gsave
/o {
gsave
newpath
translate
0.8 setlinewidth
1 setlinejoin
0 setlinecap
0 0 m
0 -3.5 l

gsave
0.000 setgray
fill
grestore
stroke
grestore
} bind def
1072.05 769.332 o
grestore
gsave
1049.789460 747.129289 translate
0.000000 rotate
0.000000 0.000000 m /zero glyphshow
12.724609 0.000000 m /period glyphshow
19.082031 0.000000 m /one glyphshow
31.806641 0.000000 m /four glyphshow
grestore
/DejaVuSans findfont
10.000 scalefont
setfont
gsave
622.903125 731.379289 translate
0.000000 rotate
0.000000 0.000000 m /T glyphshow
6.108398 0.000000 m /i glyphshow
8.886719 0.000000 m /m glyphshow
18.627930 0.000000 m /e glyphshow
24.780273 0.000000 m /space glyphshow
27.958984 0.000000 m /bracketleft glyphshow
31.860352 0.000000 m /one glyphshow
38.222656 0.000000 m /period glyphshow
41.401367 0.000000 m /five glyphshow
47.763672 0.000000 m /e glyphshow
53.916016 0.000000 m /hyphen glyphshow
57.524414 0.000000 m /zero glyphshow
63.886719 0.000000 m /five glyphshow
70.249023 0.000000 m /space glyphshow
73.427734 0.000000 m /s glyphshow
78.637695 0.000000 m /bracketright glyphshow
grestore
gsave
/o {
gsave
newpath
translate
0.8 setlinewidth
1 setlinejoin
0 setlinecap
0 0 m
-3.5 0 l

gsave
0.000 setgray
fill
grestore
stroke
grestore
} bind def
162 787.552 o
grestore
/DejaVuSans findfont
20.000 scalefont
setfont
gsave
-3.984375 779.950567 translate
0.000000 rotate
0.000000 0.000000 m /zero glyphshow
12.724609 0.000000 m /period glyphshow
19.082031 0.000000 m /zero glyphshow
31.806641 0.000000 m /zero glyphshow
44.531250 0.000000 m /zero glyphshow
57.255859 0.000000 m /zero glyphshow
69.980469 0.000000 m /one glyphshow
82.705078 0.000000 m /zero glyphshow
95.429688 0.000000 m /eight glyphshow
108.154297 0.000000 m /four glyphshow
120.878906 0.000000 m /seven glyphshow
133.603516 0.000000 m /two glyphshow
146.328125 0.000000 m /four glyphshow
grestore
gsave
/o {
gsave
newpath
translate
0.8 setlinewidth
1 setlinejoin
0 setlinecap
0 0 m
-3.5 0 l

gsave
0.000 setgray
fill
grestore
stroke
grestore
} bind def
162 855.255 o
grestore
gsave
-3.984375 847.653148 translate
0.000000 rotate
0.000000 0.000000 m /zero glyphshow
12.724609 0.000000 m /period glyphshow
19.082031 0.000000 m /zero glyphshow
31.806641 0.000000 m /zero glyphshow
44.531250 0.000000 m /zero glyphshow
57.255859 0.000000 m /zero glyphshow
69.980469 0.000000 m /one glyphshow
82.705078 0.000000 m /zero glyphshow
95.429688 0.000000 m /eight glyphshow
108.154297 0.000000 m /four glyphshow
120.878906 0.000000 m /seven glyphshow
133.603516 0.000000 m /two glyphshow
146.328125 0.000000 m /six glyphshow
grestore
gsave
/o {
gsave
newpath
translate
0.8 setlinewidth
1 setlinejoin
0 setlinecap
0 0 m
-3.5 0 l

gsave
0.000 setgray
fill
grestore
stroke
grestore
} bind def
162 922.957 o
grestore
gsave
-3.984375 915.355729 translate
0.000000 rotate
0.000000 0.000000 m /zero glyphshow
12.724609 0.000000 m /period glyphshow
19.082031 0.000000 m /zero glyphshow
31.806641 0.000000 m /zero glyphshow
44.531250 0.000000 m /zero glyphshow
57.255859 0.000000 m /zero glyphshow
69.980469 0.000000 m /one glyphshow
82.705078 0.000000 m /zero glyphshow
95.429688 0.000000 m /eight glyphshow
108.154297 0.000000 m /four glyphshow
120.878906 0.000000 m /seven glyphshow
133.603516 0.000000 m /two glyphshow
146.328125 0.000000 m /eight glyphshow
grestore
/DejaVuSans findfont
10.000 scalefont
setfont
gsave
-10.062500 827.723200 translate
90.000000 rotate
0.000000 0.000000 m /C glyphshow
6.982422 0.000000 m /u glyphshow
13.320312 0.000000 m /r glyphshow
17.431641 0.000000 m /r glyphshow
21.542969 0.000000 m /e glyphshow
27.695312 0.000000 m /n glyphshow
34.033203 0.000000 m /t glyphshow
37.954102 0.000000 m /space glyphshow
41.132812 0.000000 m /bracketleft glyphshow
45.034180 0.000000 m /I glyphshow
47.983398 0.000000 m /bracketright glyphshow
grestore
1.500 setlinewidth
2 setlinecap
0.122 0.467 0.706 setrgbcolor
gsave
1004 168.7 162 769.3 clipbox
207.654545 930.367524 m
219.799869 930.367523 l
220.25646 789.28309 l
220.439097 778.242076 l
220.530415 777.000752 l
220.621733 777.48378 l
220.80437 781.608951 l
221.443597 806.0592 l
222.356779 838.218454 l
223.178643 860.211943 l
224.000507 876.964293 l
224.822371 889.716737 l
225.644235 899.423973 l
226.466099 906.813162 l
227.287963 912.437845 l
228.109827 916.71938 l
229.02301 920.288737 l
229.936192 922.924615 l
230.849374 924.871138 l
231.762556 926.308594 l
232.767057 927.459602 l
233.771557 928.284252 l
234.958694 928.962822 l
236.328467 929.476065 l
238.063514 929.866466 l
240.346469 930.132743 l
243.90788 930.295544 l
251.395974 930.361523 l
311.848638 930.367336 l
1120.745455 930.367336 l
1120.745455 930.367336 l
stroke
grestore
0.800 setlinewidth
0 setlinejoin
[] 0 setdash
0.000 setgray
gsave
162 769.332414 m
162 938.035862 l
stroke
grestore
gsave
1166.4 769.332414 m
1166.4 938.035862 l
stroke
grestore
gsave
162 769.332414 m
1166.4 769.332414 l
stroke
grestore
gsave
162 938.035862 m
1166.4 938.035862 l
stroke
grestore
1.000 setlinewidth
0 setlinecap
0.800 setgray
gsave
1089.43125 774.332414 m
1159.4 774.332414 l
1160.733333 774.332414 1161.4 774.99908 1161.4 776.332414 c
1161.4 790.004289 l
1161.4 791.337622 1160.733333 792.004289 1159.4 792.004289 c
1089.43125 792.004289 l
1088.097917 792.004289 1087.43125 791.337622 1087.43125 790.004289 c
1087.43125 776.332414 l
1087.43125 774.99908 1088.097917 774.332414 1089.43125 774.332414 c
cl
gsave
1.000 setgray
fill
grestore
stroke
grestore
1.500 setlinewidth
1 setlinejoin
2 setlinecap
[] 0 setdash
0.122 0.467 0.706 setrgbcolor
gsave
1091.43125 783.910539 m
1111.43125 783.910539 l
stroke
grestore
0.000 setgray
gsave
1119.431250 780.410539 translate
0.000000 rotate
0.000000 0.000000 m /C glyphshow
6.982422 0.000000 m /u glyphshow
13.320312 0.000000 m /r glyphshow
17.431641 0.000000 m /r glyphshow
21.542969 0.000000 m /e glyphshow
27.695312 0.000000 m /n glyphshow
34.033203 0.000000 m /t glyphshow
grestore
gsave
162 566.888276 m
1166.4 566.888276 l
1166.4 735.591724 l
162 735.591724 l
cl
1.000 setgray
fill
grestore
0.800 setlinewidth
0 setlinecap
gsave
/o {
gsave
newpath
translate
0.8 setlinewidth
1 setlinejoin
0 setlinecap
0 0 m
0 -3.5 l

gsave
0.000 setgray
fill
grestore
stroke
grestore
} bind def
219.829 566.888 o
grestore
/DejaVuSans findfont
20.000 scalefont
setfont
gsave
197.571278 544.685151 translate
0.000000 rotate
0.000000 0.000000 m /zero glyphshow
12.724609 0.000000 m /period glyphshow
19.082031 0.000000 m /zero glyphshow
31.806641 0.000000 m /zero glyphshow
grestore
gsave
/o {
gsave
newpath
translate
0.8 setlinewidth
1 setlinejoin
0 setlinecap
0 0 m
0 -3.5 l

gsave
0.000 setgray
fill
grestore
stroke
grestore
} bind def
341.575 566.888 o
grestore
gsave
319.316733 544.685151 translate
0.000000 rotate
0.000000 0.000000 m /zero glyphshow
12.724609 0.000000 m /period glyphshow
19.082031 0.000000 m /zero glyphshow
31.806641 0.000000 m /two glyphshow
grestore
gsave
/o {
gsave
newpath
translate
0.8 setlinewidth
1 setlinejoin
0 setlinecap
0 0 m
0 -3.5 l

gsave
0.000 setgray
fill
grestore
stroke
grestore
} bind def
463.32 566.888 o
grestore
gsave
441.062187 544.685151 translate
0.000000 rotate
0.000000 0.000000 m /zero glyphshow
12.724609 0.000000 m /period glyphshow
19.082031 0.000000 m /zero glyphshow
31.806641 0.000000 m /four glyphshow
grestore
gsave
/o {
gsave
newpath
translate
0.8 setlinewidth
1 setlinejoin
0 setlinecap
0 0 m
0 -3.5 l

gsave
0.000 setgray
fill
grestore
stroke
grestore
} bind def
585.065 566.888 o
grestore
gsave
562.807642 544.685151 translate
0.000000 rotate
0.000000 0.000000 m /zero glyphshow
12.724609 0.000000 m /period glyphshow
19.082031 0.000000 m /zero glyphshow
31.806641 0.000000 m /six glyphshow
grestore
gsave
/o {
gsave
newpath
translate
0.8 setlinewidth
1 setlinejoin
0 setlinecap
0 0 m
0 -3.5 l

gsave
0.000 setgray
fill
grestore
stroke
grestore
} bind def
706.811 566.888 o
grestore
gsave
684.553097 544.685151 translate
0.000000 rotate
0.000000 0.000000 m /zero glyphshow
12.724609 0.000000 m /period glyphshow
19.082031 0.000000 m /zero glyphshow
31.806641 0.000000 m /eight glyphshow
grestore
gsave
/o {
gsave
newpath
translate
0.8 setlinewidth
1 setlinejoin
0 setlinecap
0 0 m
0 -3.5 l

gsave
0.000 setgray
fill
grestore
stroke
grestore
} bind def
828.556 566.888 o
grestore
gsave
806.298551 544.685151 translate
0.000000 rotate
0.000000 0.000000 m /zero glyphshow
12.724609 0.000000 m /period glyphshow
19.082031 0.000000 m /one glyphshow
31.806641 0.000000 m /zero glyphshow
grestore
gsave
/o {
gsave
newpath
translate
0.8 setlinewidth
1 setlinejoin
0 setlinecap
0 0 m
0 -3.5 l

gsave
0.000 setgray
fill
grestore
stroke
grestore
} bind def
950.302 566.888 o
grestore
gsave
928.044006 544.685151 translate
0.000000 rotate
0.000000 0.000000 m /zero glyphshow
12.724609 0.000000 m /period glyphshow
19.082031 0.000000 m /one glyphshow
31.806641 0.000000 m /two glyphshow
grestore
gsave
/o {
gsave
newpath
translate
0.8 setlinewidth
1 setlinejoin
0 setlinecap
0 0 m
0 -3.5 l

gsave
0.000 setgray
fill
grestore
stroke
grestore
} bind def
1072.05 566.888 o
grestore
gsave
1049.789460 544.685151 translate
0.000000 rotate
0.000000 0.000000 m /zero glyphshow
12.724609 0.000000 m /period glyphshow
19.082031 0.000000 m /one glyphshow
31.806641 0.000000 m /four glyphshow
grestore
/DejaVuSans findfont
10.000 scalefont
setfont
gsave
622.903125 528.935151 translate
0.000000 rotate
0.000000 0.000000 m /T glyphshow
6.108398 0.000000 m /i glyphshow
8.886719 0.000000 m /m glyphshow
18.627930 0.000000 m /e glyphshow
24.780273 0.000000 m /space glyphshow
27.958984 0.000000 m /bracketleft glyphshow
31.860352 0.000000 m /one glyphshow
38.222656 0.000000 m /period glyphshow
41.401367 0.000000 m /five glyphshow
47.763672 0.000000 m /e glyphshow
53.916016 0.000000 m /hyphen glyphshow
57.524414 0.000000 m /zero glyphshow
63.886719 0.000000 m /five glyphshow
70.249023 0.000000 m /space glyphshow
73.427734 0.000000 m /s glyphshow
78.637695 0.000000 m /bracketright glyphshow
grestore
gsave
/o {
gsave
newpath
translate
0.8 setlinewidth
1 setlinejoin
0 setlinecap
0 0 m
-3.5 0 l

gsave
0.000 setgray
fill
grestore
stroke
grestore
} bind def
162 574.557 o
grestore
/DejaVuSans findfont
20.000 scalefont
setfont
gsave
59.609375 566.955053 translate
0.000000 rotate
0.000000 0.000000 m /zero glyphshow
12.724609 0.000000 m /period glyphshow
19.082031 0.000000 m /five glyphshow
31.806641 0.000000 m /zero glyphshow
44.531250 0.000000 m /zero glyphshow
57.255859 0.000000 m /zero glyphshow
69.980469 0.000000 m /zero glyphshow
82.705078 0.000000 m /zero glyphshow
grestore
gsave
/o {
gsave
newpath
translate
0.8 setlinewidth
1 setlinejoin
0 setlinecap
0 0 m
-3.5 0 l

gsave
0.000 setgray
fill
grestore
stroke
grestore
} bind def
162 647.993 o
grestore
gsave
59.609375 640.391907 translate
0.000000 rotate
0.000000 0.000000 m /zero glyphshow
12.724609 0.000000 m /period glyphshow
19.082031 0.000000 m /five glyphshow
31.806641 0.000000 m /zero glyphshow
44.531250 0.000000 m /zero glyphshow
57.255859 0.000000 m /zero glyphshow
69.980469 0.000000 m /zero glyphshow
82.705078 0.000000 m /one glyphshow
grestore
gsave
/o {
gsave
newpath
translate
0.8 setlinewidth
1 setlinejoin
0 setlinecap
0 0 m
-3.5 0 l

gsave
0.000 setgray
fill
grestore
stroke
grestore
} bind def
162 721.43 o
grestore
gsave
59.609375 713.828761 translate
0.000000 rotate
0.000000 0.000000 m /zero glyphshow
12.724609 0.000000 m /period glyphshow
19.082031 0.000000 m /five glyphshow
31.806641 0.000000 m /zero glyphshow
44.531250 0.000000 m /zero glyphshow
57.255859 0.000000 m /zero glyphshow
69.980469 0.000000 m /zero glyphshow
82.705078 0.000000 m /two glyphshow
grestore
/DejaVuSans findfont
10.000 scalefont
setfont
gsave
53.531250 603.958750 translate
90.000000 rotate
0.000000 0.000000 m /R glyphshow
6.948242 0.000000 m /e glyphshow
13.100586 0.000000 m /s glyphshow
18.310547 0.000000 m /i glyphshow
21.088867 0.000000 m /s glyphshow
26.298828 0.000000 m /t glyphshow
30.219727 0.000000 m /a glyphshow
36.347656 0.000000 m /n glyphshow
42.685547 0.000000 m /c glyphshow
48.183594 0.000000 m /e glyphshow
54.335938 0.000000 m /space glyphshow
57.514648 0.000000 m /bracketleft glyphshow
61.416016 0.000000 m /O glyphshow
69.287109 0.000000 m /h glyphshow
75.625000 0.000000 m /m glyphshow
85.366211 0.000000 m /s glyphshow
90.576172 0.000000 m /bracketright glyphshow
grestore
1.500 setlinewidth
2 setlinecap
0.122 0.467 0.706 setrgbcolor
gsave
1004 168.7 162 566.9 clipbox
207.654545 574.556615 m
219.799869 574.556616 l
220.25646 715.765082 l
220.439097 726.709606 l
220.530415 727.923386 l
220.621733 727.421417 l
220.80437 723.274826 l
221.443597 698.813732 l
222.356779 666.666166 l
223.178643 644.682019 l
224.000507 627.936849 l
224.822371 615.189883 l
225.644235 605.486822 l
226.466099 598.100814 l
227.287963 592.478555 l
228.109827 588.198867 l
229.02301 584.63105 l
229.936192 581.996309 l
230.849374 580.050628 l
231.762556 578.613792 l
232.767057 577.463281 l
233.771557 576.638987 l
234.958694 575.96071 l
236.328467 575.447688 l
238.063514 575.057456 l
240.346469 574.791295 l
243.90788 574.628563 l
251.395974 574.562613 l
311.757319 574.556803 l
1120.745455 574.556803 l
1120.745455 574.556803 l
stroke
grestore
0.800 setlinewidth
0 setlinejoin
[] 0 setdash
0.000 setgray
gsave
162 566.888276 m
162 735.591724 l
stroke
grestore
gsave
1166.4 566.888276 m
1166.4 735.591724 l
stroke
grestore
gsave
162 566.888276 m
1166.4 566.888276 l
stroke
grestore
gsave
162 735.591724 m
1166.4 735.591724 l
stroke
grestore
1.000 setlinewidth
0 setlinecap
0.800 setgray
gsave
1073.025 712.919849 m
1159.4 712.919849 l
1160.733333 712.919849 1161.4 713.586516 1161.4 714.919849 c
1161.4 728.591724 l
1161.4 729.925057 1160.733333 730.591724 1159.4 730.591724 c
1073.025 730.591724 l
1071.691667 730.591724 1071.025 729.925057 1071.025 728.591724 c
1071.025 714.919849 l
1071.025 713.586516 1071.691667 712.919849 1073.025 712.919849 c
cl
gsave
1.000 setgray
fill
grestore
stroke
grestore
1.500 setlinewidth
1 setlinejoin
2 setlinecap
[] 0 setdash
0.122 0.467 0.706 setrgbcolor
gsave
1075.025 722.497974 m
1095.025 722.497974 l
stroke
grestore
0.000 setgray
gsave
1103.025000 718.997974 translate
0.000000 rotate
0.000000 0.000000 m /R glyphshow
6.948242 0.000000 m /e glyphshow
13.100586 0.000000 m /s glyphshow
18.310547 0.000000 m /i glyphshow
21.088867 0.000000 m /s glyphshow
26.298828 0.000000 m /t glyphshow
30.219727 0.000000 m /a glyphshow
36.347656 0.000000 m /n glyphshow
42.685547 0.000000 m /c glyphshow
48.183594 0.000000 m /e glyphshow
grestore
gsave
162 364.444138 m
1166.4 364.444138 l
1166.4 533.147586 l
162 533.147586 l
cl
1.000 setgray
fill
grestore
0.800 setlinewidth
0 setlinecap
gsave
/o {
gsave
newpath
translate
0.8 setlinewidth
1 setlinejoin
0 setlinecap
0 0 m
0 -3.5 l

gsave
0.000 setgray
fill
grestore
stroke
grestore
} bind def
219.829 364.444 o
grestore
/DejaVuSans findfont
20.000 scalefont
setfont
gsave
197.571278 342.241013 translate
0.000000 rotate
0.000000 0.000000 m /zero glyphshow
12.724609 0.000000 m /period glyphshow
19.082031 0.000000 m /zero glyphshow
31.806641 0.000000 m /zero glyphshow
grestore
gsave
/o {
gsave
newpath
translate
0.8 setlinewidth
1 setlinejoin
0 setlinecap
0 0 m
0 -3.5 l

gsave
0.000 setgray
fill
grestore
stroke
grestore
} bind def
341.575 364.444 o
grestore
gsave
319.316733 342.241013 translate
0.000000 rotate
0.000000 0.000000 m /zero glyphshow
12.724609 0.000000 m /period glyphshow
19.082031 0.000000 m /zero glyphshow
31.806641 0.000000 m /two glyphshow
grestore
gsave
/o {
gsave
newpath
translate
0.8 setlinewidth
1 setlinejoin
0 setlinecap
0 0 m
0 -3.5 l

gsave
0.000 setgray
fill
grestore
stroke
grestore
} bind def
463.32 364.444 o
grestore
gsave
441.062187 342.241013 translate
0.000000 rotate
0.000000 0.000000 m /zero glyphshow
12.724609 0.000000 m /period glyphshow
19.082031 0.000000 m /zero glyphshow
31.806641 0.000000 m /four glyphshow
grestore
gsave
/o {
gsave
newpath
translate
0.8 setlinewidth
1 setlinejoin
0 setlinecap
0 0 m
0 -3.5 l

gsave
0.000 setgray
fill
grestore
stroke
grestore
} bind def
585.065 364.444 o
grestore
gsave
562.807642 342.241013 translate
0.000000 rotate
0.000000 0.000000 m /zero glyphshow
12.724609 0.000000 m /period glyphshow
19.082031 0.000000 m /zero glyphshow
31.806641 0.000000 m /six glyphshow
grestore
gsave
/o {
gsave
newpath
translate
0.8 setlinewidth
1 setlinejoin
0 setlinecap
0 0 m
0 -3.5 l

gsave
0.000 setgray
fill
grestore
stroke
grestore
} bind def
706.811 364.444 o
grestore
gsave
684.553097 342.241013 translate
0.000000 rotate
0.000000 0.000000 m /zero glyphshow
12.724609 0.000000 m /period glyphshow
19.082031 0.000000 m /zero glyphshow
31.806641 0.000000 m /eight glyphshow
grestore
gsave
/o {
gsave
newpath
translate
0.8 setlinewidth
1 setlinejoin
0 setlinecap
0 0 m
0 -3.5 l

gsave
0.000 setgray
fill
grestore
stroke
grestore
} bind def
828.556 364.444 o
grestore
gsave
806.298551 342.241013 translate
0.000000 rotate
0.000000 0.000000 m /zero glyphshow
12.724609 0.000000 m /period glyphshow
19.082031 0.000000 m /one glyphshow
31.806641 0.000000 m /zero glyphshow
grestore
gsave
/o {
gsave
newpath
translate
0.8 setlinewidth
1 setlinejoin
0 setlinecap
0 0 m
0 -3.5 l

gsave
0.000 setgray
fill
grestore
stroke
grestore
} bind def
950.302 364.444 o
grestore
gsave
928.044006 342.241013 translate
0.000000 rotate
0.000000 0.000000 m /zero glyphshow
12.724609 0.000000 m /period glyphshow
19.082031 0.000000 m /one glyphshow
31.806641 0.000000 m /two glyphshow
grestore
gsave
/o {
gsave
newpath
translate
0.8 setlinewidth
1 setlinejoin
0 setlinecap
0 0 m
0 -3.5 l

gsave
0.000 setgray
fill
grestore
stroke
grestore
} bind def
1072.05 364.444 o
grestore
gsave
1049.789460 342.241013 translate
0.000000 rotate
0.000000 0.000000 m /zero glyphshow
12.724609 0.000000 m /period glyphshow
19.082031 0.000000 m /one glyphshow
31.806641 0.000000 m /four glyphshow
grestore
/DejaVuSans findfont
10.000 scalefont
setfont
gsave
622.903125 326.491013 translate
0.000000 rotate
0.000000 0.000000 m /T glyphshow
6.108398 0.000000 m /i glyphshow
8.886719 0.000000 m /m glyphshow
18.627930 0.000000 m /e glyphshow
24.780273 0.000000 m /space glyphshow
27.958984 0.000000 m /bracketleft glyphshow
31.860352 0.000000 m /one glyphshow
38.222656 0.000000 m /period glyphshow
41.401367 0.000000 m /five glyphshow
47.763672 0.000000 m /e glyphshow
53.916016 0.000000 m /hyphen glyphshow
57.524414 0.000000 m /zero glyphshow
63.886719 0.000000 m /five glyphshow
70.249023 0.000000 m /space glyphshow
73.427734 0.000000 m /s glyphshow
78.637695 0.000000 m /bracketright glyphshow
grestore
gsave
/o {
gsave
newpath
translate
0.8 setlinewidth
1 setlinejoin
0 setlinecap
0 0 m
-3.5 0 l

gsave
0.000 setgray
fill
grestore
stroke
grestore
} bind def
162 422.216 o
grestore
/DejaVuSans findfont
20.000 scalefont
setfont
gsave
72.328125 414.614176 translate
0.000000 rotate
0.000000 0.000000 m /five glyphshow
12.724609 0.000000 m /period glyphshow
19.082031 0.000000 m /eight glyphshow
31.806641 0.000000 m /eight glyphshow
44.531250 0.000000 m /three glyphshow
57.255859 0.000000 m /one glyphshow
69.980469 0.000000 m /six glyphshow
grestore
gsave
/o {
gsave
newpath
translate
0.8 setlinewidth
1 setlinejoin
0 setlinecap
0 0 m
-3.5 0 l

gsave
0.000 setgray
fill
grestore
stroke
grestore
} bind def
162 484.632 o
grestore
gsave
72.328125 477.029980 translate
0.000000 rotate
0.000000 0.000000 m /five glyphshow
12.724609 0.000000 m /period glyphshow
19.082031 0.000000 m /eight glyphshow
31.806641 0.000000 m /eight glyphshow
44.531250 0.000000 m /three glyphshow
57.255859 0.000000 m /one glyphshow
69.980469 0.000000 m /seven glyphshow
grestore
/DejaVuSans findfont
10.000 scalefont
setfont
gsave
66.250000 413.452112 translate
90.000000 rotate
0.000000 0.000000 m /P glyphshow
6.030273 0.000000 m /o glyphshow
12.148438 0.000000 m /w glyphshow
20.327148 0.000000 m /e glyphshow
26.479492 0.000000 m /r glyphshow
30.590820 0.000000 m /space glyphshow
33.769531 0.000000 m /bracketleft glyphshow
37.670898 0.000000 m /W glyphshow
47.558594 0.000000 m /a glyphshow
53.686523 0.000000 m /t glyphshow
57.607422 0.000000 m /t glyphshow
61.528320 0.000000 m /s glyphshow
66.738281 0.000000 m /bracketright glyphshow
grestore
/DejaVuSans findfont
20.000 scalefont
setfont
gsave
162.000000 536.147586 translate
0.000000 rotate
0.000000 0.000000 m /one glyphshow
12.724609 0.000000 m /e glyphshow
25.029297 0.000000 m /minus glyphshow
41.787109 0.000000 m /one glyphshow
54.511719 0.000000 m /one glyphshow
grestore
1.500 setlinewidth
2 setlinecap
0.122 0.467 0.706 setrgbcolor
gsave
1004 168.7 162 364.4 clipbox
207.654545 525.479247 m
219.799869 525.479247 l
220.25646 384.518901 l
220.439097 373.381351 l
220.530415 372.112476 l
220.621733 372.576565 l
220.80437 376.680332 l
221.443597 401.119814 l
222.356779 433.290812 l
223.178643 455.293649 l
224.000507 472.053164 l
224.822371 484.811065 l
225.644235 494.522455 l
226.466099 501.914805 l
227.287963 507.541896 l
228.109827 511.825263 l
229.02301 515.396148 l
229.936192 518.033153 l
230.849374 519.980509 l
231.762556 521.418581 l
232.767057 522.570081 l
233.771557 523.395084 l
234.958694 524.073945 l
236.328467 524.587406 l
238.063514 524.977975 l
240.346469 525.244366 l
243.90788 525.407236 l
251.395974 525.473244 l
311.848638 525.479059 l
1120.745455 525.479059 l
1120.745455 525.479059 l
stroke
grestore
0.800 setlinewidth
0 setlinejoin
[] 0 setdash
0.000 setgray
gsave
162 364.444138 m
162 533.147586 l
stroke
grestore
gsave
1166.4 364.444138 m
1166.4 533.147586 l
stroke
grestore
gsave
162 364.444138 m
1166.4 364.444138 l
stroke
grestore
gsave
162 533.147586 m
1166.4 533.147586 l
stroke
grestore
1.000 setlinewidth
0 setlinecap
0.800 setgray
gsave
1096.790625 369.444138 m
1159.4 369.444138 l
1160.733333 369.444138 1161.4 370.110805 1161.4 371.444138 c
1161.4 385.116013 l
1161.4 386.449346 1160.733333 387.116013 1159.4 387.116013 c
1096.790625 387.116013 l
1095.457292 387.116013 1094.790625 386.449346 1094.790625 385.116013 c
1094.790625 371.444138 l
1094.790625 370.110805 1095.457292 369.444138 1096.790625 369.444138 c
cl
gsave
1.000 setgray
fill
grestore
stroke
grestore
1.500 setlinewidth
1 setlinejoin
2 setlinecap
[] 0 setdash
0.122 0.467 0.706 setrgbcolor
gsave
1098.790625 379.022263 m
1118.790625 379.022263 l
stroke
grestore
0.000 setgray
/DejaVuSans findfont
10.000 scalefont
setfont
gsave
1126.790625 375.522263 translate
0.000000 rotate
0.000000 0.000000 m /P glyphshow
6.030273 0.000000 m /o glyphshow
12.148438 0.000000 m /w glyphshow
20.327148 0.000000 m /e glyphshow
26.479492 0.000000 m /r glyphshow
grestore

end
showpage
