%!PS-Adobe-3.0 EPSF-3.0
%%Title: nonlinear 20mK pulse 29 March 2018.eps
%%Creator: matplotlib version 2.1.2, http://matplotlib.org/
%%CreationDate: Sun Apr 22 21:23:33 2018
%%Orientation: portrait
%%BoundingBox: -342 -252 954 1044
%%EndComments
%%BeginProlog
/mpldict 8 dict def
mpldict begin
/m { moveto } bind def
/l { lineto } bind def
/r { rlineto } bind def
/c { curveto } bind def
/cl { closepath } bind def
/box {
m
1 index 0 r
0 exch r
neg 0 r
cl
} bind def
/clipbox {
box
clip
newpath
} bind def
%!PS-Adobe-3.0 Resource-Font
%%Title: DejaVu Sans
%%Copyright: Copyright (c) 2003 by Bitstream, Inc. All Rights Reserved. Copyright (c) 2006 by Tavmjong Bah. All Rights Reserved. DejaVu changes are in public domain 
%%Creator: Converted from TrueType to type 3 by PPR
25 dict begin
/_d{bind def}bind def
/_m{moveto}_d
/_l{lineto}_d
/_cl{closepath eofill}_d
/_c{curveto}_d
/_sc{7 -1 roll{setcachedevice}{pop pop pop pop pop pop}ifelse}_d
/_e{exec}_d
/FontName /DejaVuSans def
/PaintType 0 def
/FontMatrix[.001 0 0 .001 0 0]def
/FontBBox[-1021 -463 1793 1232]def
/FontType 3 def
/Encoding [ /space /hyphen /period /zero /one /two /three /four /five /six /seven /eight /nine /C /E /I /K /N /O /P /R /S /T /W /bracketleft /bracketright /a /c /e /h /i /l /m /n /o /p /r /s /t /u /v /w /y /minus ] def
/FontInfo 10 dict dup begin
/FamilyName (DejaVu Sans) def
/FullName (DejaVu Sans) def
/Notice (Copyright (c) 2003 by Bitstream, Inc. All Rights Reserved. Copyright (c) 2006 by Tavmjong Bah. All Rights Reserved. DejaVu changes are in public domain ) def
/Weight (Book) def
/Version (Version 2.35) def
/ItalicAngle 0.0 def
/isFixedPitch false def
/UnderlinePosition -130 def
/UnderlineThickness 90 def
end readonly def
/CharStrings 45 dict dup begin
/.notdef 0 def
/space{318 0 0 0 0 0 _sc
}_d
/hyphen{361 0 49 234 312 314 _sc
49 314 _m
312 314 _l
312 234 _l
49 234 _l
49 314 _l
_cl}_d
/period{318 0 107 0 210 124 _sc
107 124 _m
210 124 _l
210 0 _l
107 0 _l
107 124 _l
_cl}_d
/zero{636 0 66 -13 570 742 _sc
318 664 _m
267 664 229 639 203 589 _c
177 539 165 464 165 364 _c
165 264 177 189 203 139 _c
229 89 267 64 318 64 _c
369 64 407 89 433 139 _c
458 189 471 264 471 364 _c
471 464 458 539 433 589 _c
407 639 369 664 318 664 _c
318 742 _m
399 742 461 709 505 645 _c
548 580 570 486 570 364 _c
570 241 548 147 505 83 _c
461 19 399 -13 318 -13 _c
236 -13 173 19 130 83 _c
87 147 66 241 66 364 _c
66 486 87 580 130 645 _c
173 709 236 742 318 742 _c
_cl}_d
/one{636 0 110 0 544 729 _sc
124 83 _m
285 83 _l
285 639 _l
110 604 _l
110 694 _l
284 729 _l
383 729 _l
383 83 _l
544 83 _l
544 0 _l
124 0 _l
124 83 _l
_cl}_d
/two{{636 0 73 0 536 742 _sc
192 83 _m
536 83 _l
536 0 _l
73 0 _l
73 83 _l
110 121 161 173 226 239 _c
290 304 331 346 348 365 _c
380 400 402 430 414 455 _c
426 479 433 504 433 528 _c
433 566 419 598 392 622 _c
365 646 330 659 286 659 _c
255 659 222 653 188 643 _c
154 632 117 616 78 594 _c
78 694 _l
118 710 155 722 189 730 _c
223 738 255 742 284 742 _c
}_e{359 742 419 723 464 685 _c
509 647 532 597 532 534 _c
532 504 526 475 515 449 _c
504 422 484 390 454 354 _c
446 344 420 317 376 272 _c
332 227 271 164 192 83 _c
_cl}_e}_d
/three{{636 0 76 -13 556 742 _sc
406 393 _m
453 383 490 362 516 330 _c
542 298 556 258 556 212 _c
556 140 531 84 482 45 _c
432 6 362 -13 271 -13 _c
240 -13 208 -10 176 -4 _c
144 1 110 10 76 22 _c
76 117 _l
103 101 133 89 166 81 _c
198 73 232 69 268 69 _c
330 69 377 81 409 105 _c
441 129 458 165 458 212 _c
458 254 443 288 413 312 _c
383 336 341 349 287 349 _c
}_e{202 349 _l
202 430 _l
291 430 _l
339 430 376 439 402 459 _c
428 478 441 506 441 543 _c
441 580 427 609 401 629 _c
374 649 336 659 287 659 _c
260 659 231 656 200 650 _c
169 644 135 635 98 623 _c
98 711 _l
135 721 170 729 203 734 _c
235 739 266 742 296 742 _c
370 742 429 725 473 691 _c
517 657 539 611 539 553 _c
539 513 527 479 504 451 _c
481 423 448 403 406 393 _c
_cl}_e}_d
/four{636 0 49 0 580 729 _sc
378 643 _m
129 254 _l
378 254 _l
378 643 _l
352 729 _m
476 729 _l
476 254 _l
580 254 _l
580 172 _l
476 172 _l
476 0 _l
378 0 _l
378 172 _l
49 172 _l
49 267 _l
352 729 _l
_cl}_d
/five{{636 0 77 -13 549 729 _sc
108 729 _m
495 729 _l
495 646 _l
198 646 _l
198 467 _l
212 472 227 476 241 478 _c
255 480 270 482 284 482 _c
365 482 429 459 477 415 _c
525 370 549 310 549 234 _c
549 155 524 94 475 51 _c
426 8 357 -13 269 -13 _c
238 -13 207 -10 175 -6 _c
143 -1 111 6 77 17 _c
77 116 _l
106 100 136 88 168 80 _c
199 72 232 69 267 69 _c
}_e{323 69 368 83 401 113 _c
433 143 450 183 450 234 _c
450 284 433 324 401 354 _c
368 384 323 399 267 399 _c
241 399 214 396 188 390 _c
162 384 135 375 108 363 _c
108 729 _l
_cl}_e}_d
/six{{636 0 70 -13 573 742 _sc
330 404 _m
286 404 251 388 225 358 _c
199 328 186 286 186 234 _c
186 181 199 139 225 109 _c
251 79 286 64 330 64 _c
374 64 409 79 435 109 _c
461 139 474 181 474 234 _c
474 286 461 328 435 358 _c
409 388 374 404 330 404 _c
526 713 _m
526 623 _l
501 635 476 644 451 650 _c
425 656 400 659 376 659 _c
310 659 260 637 226 593 _c
}_e{192 549 172 482 168 394 _c
187 422 211 444 240 459 _c
269 474 301 482 336 482 _c
409 482 467 459 509 415 _c
551 371 573 310 573 234 _c
573 159 550 99 506 54 _c
462 9 403 -13 330 -13 _c
246 -13 181 19 137 83 _c
92 147 70 241 70 364 _c
70 479 97 571 152 639 _c
206 707 280 742 372 742 _c
396 742 421 739 447 735 _c
472 730 498 723 526 713 _c
_cl}_e}_d
/seven{636 0 82 0 551 729 _sc
82 729 _m
551 729 _l
551 687 _l
286 0 _l
183 0 _l
432 646 _l
82 646 _l
82 729 _l
_cl}_d
/eight{{636 0 68 -13 568 742 _sc
318 346 _m
271 346 234 333 207 308 _c
180 283 167 249 167 205 _c
167 161 180 126 207 101 _c
234 76 271 64 318 64 _c
364 64 401 76 428 102 _c
455 127 469 161 469 205 _c
469 249 455 283 429 308 _c
402 333 365 346 318 346 _c
219 388 _m
177 398 144 418 120 447 _c
96 476 85 511 85 553 _c
85 611 105 657 147 691 _c
188 725 245 742 318 742 _c
}_e{390 742 447 725 489 691 _c
530 657 551 611 551 553 _c
551 511 539 476 515 447 _c
491 418 459 398 417 388 _c
464 377 501 355 528 323 _c
554 291 568 251 568 205 _c
568 134 546 80 503 43 _c
459 5 398 -13 318 -13 _c
237 -13 175 5 132 43 _c
89 80 68 134 68 205 _c
68 251 81 291 108 323 _c
134 355 171 377 219 388 _c
183 544 _m
183 506 194 476 218 455 _c
}_e{242 434 275 424 318 424 _c
360 424 393 434 417 455 _c
441 476 453 506 453 544 _c
453 582 441 611 417 632 _c
393 653 360 664 318 664 _c
275 664 242 653 218 632 _c
194 611 183 582 183 544 _c
_cl}_e}_d
/nine{{636 0 63 -13 566 742 _sc
110 15 _m
110 105 _l
134 93 159 84 185 78 _c
210 72 235 69 260 69 _c
324 69 374 90 408 134 _c
442 178 462 244 468 334 _c
448 306 424 284 396 269 _c
367 254 335 247 300 247 _c
226 247 168 269 126 313 _c
84 357 63 417 63 494 _c
63 568 85 628 129 674 _c
173 719 232 742 306 742 _c
390 742 455 709 499 645 _c
543 580 566 486 566 364 _c
}_e{566 248 538 157 484 89 _c
429 21 356 -13 264 -13 _c
239 -13 214 -10 189 -6 _c
163 -2 137 5 110 15 _c
306 324 _m
350 324 385 339 411 369 _c
437 399 450 441 450 494 _c
450 546 437 588 411 618 _c
385 648 350 664 306 664 _c
262 664 227 648 201 618 _c
175 588 162 546 162 494 _c
162 441 175 399 201 369 _c
227 339 262 324 306 324 _c
_cl}_e}_d
/C{{698 0 56 -13 644 742 _sc
644 673 _m
644 569 _l
610 599 575 622 537 638 _c
499 653 460 661 418 661 _c
334 661 270 635 226 584 _c
182 533 160 460 160 364 _c
160 268 182 194 226 143 _c
270 92 334 67 418 67 _c
460 67 499 74 537 90 _c
575 105 610 128 644 159 _c
644 56 _l
609 32 572 15 534 4 _c
496 -7 455 -13 412 -13 _c
302 -13 215 20 151 87 _c
}_e{87 154 56 246 56 364 _c
56 481 87 573 151 641 _c
215 708 302 742 412 742 _c
456 742 497 736 535 725 _c
573 713 610 696 644 673 _c
_cl}_e}_d
/E{632 0 98 0 568 729 _sc
98 729 _m
559 729 _l
559 646 _l
197 646 _l
197 430 _l
544 430 _l
544 347 _l
197 347 _l
197 83 _l
568 83 _l
568 0 _l
98 0 _l
98 729 _l
_cl}_d
/I{295 0 98 0 197 729 _sc
98 729 _m
197 729 _l
197 0 _l
98 0 _l
98 729 _l
_cl}_d
/K{656 0 98 0 677 729 _sc
98 729 _m
197 729 _l
197 421 _l
524 729 _l
651 729 _l
289 389 _l
677 0 _l
547 0 _l
197 351 _l
197 0 _l
98 0 _l
98 729 _l
_cl}_d
/N{748 0 98 0 650 729 _sc
98 729 _m
231 729 _l
554 119 _l
554 729 _l
650 729 _l
650 0 _l
517 0 _l
194 610 _l
194 0 _l
98 0 _l
98 729 _l
_cl}_d
/O{787 0 56 -13 731 742 _sc
394 662 _m
322 662 265 635 223 582 _c
181 528 160 456 160 364 _c
160 272 181 199 223 146 _c
265 92 322 66 394 66 _c
465 66 522 92 564 146 _c
606 199 627 272 627 364 _c
627 456 606 528 564 582 _c
522 635 465 662 394 662 _c
394 742 _m
496 742 577 707 639 639 _c
700 571 731 479 731 364 _c
731 248 700 157 639 89 _c
577 21 496 -13 394 -13 _c
291 -13 209 21 148 89 _c
86 157 56 248 56 364 _c
56 479 86 571 148 639 _c
209 707 291 742 394 742 _c
_cl}_d
/P{603 0 98 0 569 729 _sc
197 648 _m
197 374 _l
321 374 _l
367 374 402 385 427 409 _c
452 433 465 467 465 511 _c
465 555 452 588 427 612 _c
402 636 367 648 321 648 _c
197 648 _l
98 729 _m
321 729 _l
402 729 464 710 506 673 _c
548 636 569 582 569 511 _c
569 439 548 384 506 348 _c
464 311 402 293 321 293 _c
197 293 _l
197 0 _l
98 0 _l
98 729 _l
_cl}_d
/R{{695 0 98 0 666 729 _sc
444 342 _m
465 334 486 319 506 296 _c
526 272 546 240 566 199 _c
666 0 _l
560 0 _l
467 187 _l
443 235 419 268 397 284 _c
374 300 343 308 304 308 _c
197 308 _l
197 0 _l
98 0 _l
98 729 _l
321 729 _l
404 729 466 711 507 677 _c
548 642 569 589 569 519 _c
569 473 558 434 537 404 _c
515 374 484 353 444 342 _c
197 648 _m
197 389 _l
321 389 _l
}_e{368 389 404 400 428 422 _c
452 444 465 476 465 519 _c
465 561 452 593 428 615 _c
404 637 368 648 321 648 _c
197 648 _l
_cl}_e}_d
/S{{635 0 66 -13 579 742 _sc
535 705 _m
535 609 _l
497 627 462 640 429 649 _c
395 657 363 662 333 662 _c
279 662 237 651 208 631 _c
179 610 165 580 165 542 _c
165 510 174 485 194 469 _c
213 452 250 439 304 429 _c
364 417 _l
437 403 491 378 526 343 _c
561 307 579 260 579 201 _c
579 130 555 77 508 41 _c
460 5 391 -13 300 -13 _c
265 -13 228 -9 189 -2 _c
}_e{150 5 110 16 69 32 _c
69 134 _l
109 111 148 94 186 83 _c
224 71 262 66 300 66 _c
356 66 399 77 430 99 _c
460 121 476 152 476 194 _c
476 230 465 258 443 278 _c
421 298 385 313 335 323 _c
275 335 _l
201 349 148 372 115 404 _c
82 435 66 478 66 534 _c
66 598 88 649 134 686 _c
179 723 242 742 322 742 _c
356 742 390 739 426 733 _c
461 727 497 717 535 705 _c
}_e{_cl}_e}_d
/T{611 0 -2 0 614 729 _sc
-2 729 _m
614 729 _l
614 646 _l
355 646 _l
355 0 _l
256 0 _l
256 646 _l
-2 646 _l
-2 729 _l
_cl}_d
/W{989 0 33 0 956 729 _sc
33 729 _m
133 729 _l
286 113 _l
439 729 _l
550 729 _l
703 113 _l
856 729 _l
956 729 _l
773 0 _l
649 0 _l
495 633 _l
340 0 _l
216 0 _l
33 729 _l
_cl}_d
/bracketleft{390 0 86 -131 293 760 _sc
86 760 _m
293 760 _l
293 690 _l
176 690 _l
176 -61 _l
293 -61 _l
293 -131 _l
86 -131 _l
86 760 _l
_cl}_d
/bracketright{390 0 97 -131 304 760 _sc
304 760 _m
304 -131 _l
97 -131 _l
97 -61 _l
214 -61 _l
214 690 _l
97 690 _l
97 760 _l
304 760 _l
_cl}_d
/a{{613 0 60 -13 522 560 _sc
343 275 _m
270 275 220 266 192 250 _c
164 233 150 205 150 165 _c
150 133 160 107 181 89 _c
202 70 231 61 267 61 _c
317 61 357 78 387 114 _c
417 149 432 196 432 255 _c
432 275 _l
343 275 _l
522 312 _m
522 0 _l
432 0 _l
432 83 _l
411 49 385 25 355 10 _c
325 -5 287 -13 243 -13 _c
187 -13 142 2 109 33 _c
76 64 60 106 60 159 _c
}_e{60 220 80 266 122 298 _c
163 329 224 345 306 345 _c
432 345 _l
432 354 _l
432 395 418 427 391 450 _c
364 472 326 484 277 484 _c
245 484 215 480 185 472 _c
155 464 127 453 100 439 _c
100 522 _l
132 534 164 544 195 550 _c
226 556 256 560 286 560 _c
365 560 424 539 463 498 _c
502 457 522 395 522 312 _c
_cl}_e}_d
/c{{550 0 55 -13 488 560 _sc
488 526 _m
488 442 _l
462 456 437 466 411 473 _c
385 480 360 484 334 484 _c
276 484 230 465 198 428 _c
166 391 150 339 150 273 _c
150 206 166 154 198 117 _c
230 80 276 62 334 62 _c
360 62 385 65 411 72 _c
437 79 462 90 488 104 _c
488 21 _l
462 9 436 0 410 -5 _c
383 -10 354 -13 324 -13 _c
242 -13 176 12 128 64 _c
}_e{79 115 55 185 55 273 _c
55 362 79 432 128 483 _c
177 534 244 560 330 560 _c
358 560 385 557 411 551 _c
437 545 463 537 488 526 _c
_cl}_e}_d
/e{{615 0 55 -13 562 560 _sc
562 296 _m
562 252 _l
149 252 _l
153 190 171 142 205 110 _c
238 78 284 62 344 62 _c
378 62 412 66 444 74 _c
476 82 509 95 541 113 _c
541 28 _l
509 14 476 3 442 -3 _c
408 -9 373 -13 339 -13 _c
251 -13 182 12 131 62 _c
80 112 55 181 55 268 _c
55 357 79 428 127 481 _c
175 533 241 560 323 560 _c
397 560 455 536 498 489 _c
}_e{540 441 562 377 562 296 _c
472 322 _m
471 371 457 410 431 440 _c
404 469 368 484 324 484 _c
274 484 234 469 204 441 _c
174 413 156 373 152 322 _c
472 322 _l
_cl}_e}_d
/h{634 0 91 0 549 760 _sc
549 330 _m
549 0 _l
459 0 _l
459 327 _l
459 379 448 417 428 443 _c
408 469 378 482 338 482 _c
289 482 251 466 223 435 _c
195 404 181 362 181 309 _c
181 0 _l
91 0 _l
91 760 _l
181 760 _l
181 462 _l
202 494 227 519 257 535 _c
286 551 320 560 358 560 _c
420 560 468 540 500 501 _c
532 462 549 405 549 330 _c
_cl}_d
/i{278 0 94 0 184 760 _sc
94 547 _m
184 547 _l
184 0 _l
94 0 _l
94 547 _l
94 760 _m
184 760 _l
184 646 _l
94 646 _l
94 760 _l
_cl}_d
/l{278 0 94 0 184 760 _sc
94 760 _m
184 760 _l
184 0 _l
94 0 _l
94 760 _l
_cl}_d
/m{{974 0 91 0 889 560 _sc
520 442 _m
542 482 569 511 600 531 _c
631 550 668 560 711 560 _c
767 560 811 540 842 500 _c
873 460 889 403 889 330 _c
889 0 _l
799 0 _l
799 327 _l
799 379 789 418 771 444 _c
752 469 724 482 686 482 _c
639 482 602 466 575 435 _c
548 404 535 362 535 309 _c
535 0 _l
445 0 _l
445 327 _l
445 379 435 418 417 444 _c
398 469 369 482 331 482 _c
}_e{285 482 248 466 221 435 _c
194 404 181 362 181 309 _c
181 0 _l
91 0 _l
91 547 _l
181 547 _l
181 462 _l
201 495 226 520 255 536 _c
283 552 317 560 357 560 _c
397 560 430 550 458 530 _c
486 510 506 480 520 442 _c
_cl}_e}_d
/n{634 0 91 0 549 560 _sc
549 330 _m
549 0 _l
459 0 _l
459 327 _l
459 379 448 417 428 443 _c
408 469 378 482 338 482 _c
289 482 251 466 223 435 _c
195 404 181 362 181 309 _c
181 0 _l
91 0 _l
91 547 _l
181 547 _l
181 462 _l
202 494 227 519 257 535 _c
286 551 320 560 358 560 _c
420 560 468 540 500 501 _c
532 462 549 405 549 330 _c
_cl}_d
/o{612 0 55 -13 557 560 _sc
306 484 _m
258 484 220 465 192 427 _c
164 389 150 338 150 273 _c
150 207 163 156 191 118 _c
219 80 257 62 306 62 _c
354 62 392 80 420 118 _c
448 156 462 207 462 273 _c
462 337 448 389 420 427 _c
392 465 354 484 306 484 _c
306 560 _m
384 560 445 534 490 484 _c
534 433 557 363 557 273 _c
557 183 534 113 490 63 _c
445 12 384 -13 306 -13 _c
227 -13 165 12 121 63 _c
77 113 55 183 55 273 _c
55 363 77 433 121 484 _c
165 534 227 560 306 560 _c
_cl}_d
/p{{635 0 91 -207 580 560 _sc
181 82 _m
181 -207 _l
91 -207 _l
91 547 _l
181 547 _l
181 464 _l
199 496 223 520 252 536 _c
281 552 316 560 356 560 _c
422 560 476 533 518 481 _c
559 428 580 359 580 273 _c
580 187 559 117 518 65 _c
476 13 422 -13 356 -13 _c
316 -13 281 -5 252 10 _c
223 25 199 49 181 82 _c
487 273 _m
487 339 473 390 446 428 _c
418 466 381 485 334 485 _c
}_e{286 485 249 466 222 428 _c
194 390 181 339 181 273 _c
181 207 194 155 222 117 _c
249 79 286 61 334 61 _c
381 61 418 79 446 117 _c
473 155 487 207 487 273 _c
_cl}_e}_d
/r{411 0 91 0 411 560 _sc
411 463 _m
401 469 390 473 378 476 _c
366 478 353 480 339 480 _c
288 480 249 463 222 430 _c
194 397 181 350 181 288 _c
181 0 _l
91 0 _l
91 547 _l
181 547 _l
181 462 _l
199 495 224 520 254 536 _c
284 552 321 560 365 560 _c
371 560 378 559 386 559 _c
393 558 401 557 411 555 _c
411 463 _l
_cl}_d
/s{{521 0 54 -13 472 560 _sc
443 531 _m
443 446 _l
417 458 391 468 364 475 _c
336 481 308 485 279 485 _c
234 485 200 478 178 464 _c
156 450 145 430 145 403 _c
145 382 153 366 169 354 _c
185 342 217 330 265 320 _c
296 313 _l
360 299 405 279 432 255 _c
458 230 472 195 472 151 _c
472 100 452 60 412 31 _c
372 1 316 -13 246 -13 _c
216 -13 186 -10 154 -5 _c
}_e{122 0 89 8 54 20 _c
54 113 _l
87 95 120 82 152 74 _c
184 65 216 61 248 61 _c
290 61 323 68 346 82 _c
368 96 380 117 380 144 _c
380 168 371 187 355 200 _c
339 213 303 226 247 238 _c
216 245 _l
160 257 119 275 95 299 _c
70 323 58 356 58 399 _c
58 450 76 490 112 518 _c
148 546 200 560 268 560 _c
301 560 332 557 362 552 _c
391 547 418 540 443 531 _c
}_e{_cl}_e}_d
/t{392 0 27 0 368 702 _sc
183 702 _m
183 547 _l
368 547 _l
368 477 _l
183 477 _l
183 180 _l
183 135 189 106 201 94 _c
213 81 238 75 276 75 _c
368 75 _l
368 0 _l
276 0 _l
206 0 158 13 132 39 _c
106 65 93 112 93 180 _c
93 477 _l
27 477 _l
27 547 _l
93 547 _l
93 702 _l
183 702 _l
_cl}_d
/u{634 0 85 -13 543 560 _sc
85 216 _m
85 547 _l
175 547 _l
175 219 _l
175 167 185 129 205 103 _c
225 77 255 64 296 64 _c
344 64 383 79 411 110 _c
439 141 453 183 453 237 _c
453 547 _l
543 547 _l
543 0 _l
453 0 _l
453 84 _l
431 50 405 26 377 10 _c
348 -5 315 -13 277 -13 _c
214 -13 166 6 134 45 _c
101 83 85 140 85 216 _c
311 560 _m
311 560 _l
_cl}_d
/v{592 0 30 0 562 547 _sc
30 547 _m
125 547 _l
296 88 _l
467 547 _l
562 547 _l
357 0 _l
235 0 _l
30 547 _l
_cl}_d
/w{818 0 42 0 776 547 _sc
42 547 _m
132 547 _l
244 120 _l
356 547 _l
462 547 _l
574 120 _l
686 547 _l
776 547 _l
633 0 _l
527 0 _l
409 448 _l
291 0 _l
185 0 _l
42 547 _l
_cl}_d
/y{592 0 30 -207 562 547 _sc
322 -50 _m
296 -114 271 -157 247 -177 _c
223 -197 191 -207 151 -207 _c
79 -207 _l
79 -132 _l
132 -132 _l
156 -132 175 -126 189 -114 _c
203 -102 218 -75 235 -31 _c
251 9 _l
30 547 _l
125 547 _l
296 119 _l
467 547 _l
562 547 _l
322 -50 _l
_cl}_d
/minus{838 0 106 272 732 355 _sc
106 355 _m
732 355 _l
732 272 _l
106 272 _l
106 355 _l
_cl}_d
end readonly def

/BuildGlyph
 {exch begin
 CharStrings exch
 2 copy known not{pop /.notdef}if
 true 3 1 roll get exec
 end}_d

/BuildChar {
 1 index /Encoding get exch get
 1 index /BuildGlyph get exec
}_d

FontName currentdict end definefont pop
end
%%EndProlog
mpldict begin
-342 -252 translate
1296 1296 0 0 clipbox
gsave
0 0 m
1296 0 l
1296 1296 l
0 1296 l
cl
1.000 setgray
fill
grestore
gsave
162 971.776552 m
1166.4 971.776552 l
1166.4 1140.48 l
162 1140.48 l
cl
1.000 setgray
fill
grestore
0.800 setlinewidth
1 setlinejoin
0 setlinecap
[] 0 setdash
0.000 setgray
gsave
/o {
gsave
newpath
translate
0.8 setlinewidth
1 setlinejoin
0 setlinecap
0 0 m
0 -3.5 l

gsave
0.000 setgray
fill
grestore
stroke
grestore
} bind def
219.829 971.777 o
grestore
/DejaVuSans findfont
10.000 scalefont
setfont
gsave
208.696278 957.182802 translate
0.000000 rotate
0.000000 0.000000 m /zero glyphshow
6.362305 0.000000 m /period glyphshow
9.541016 0.000000 m /zero glyphshow
15.903320 0.000000 m /zero glyphshow
grestore
gsave
/o {
gsave
newpath
translate
0.8 setlinewidth
1 setlinejoin
0 setlinecap
0 0 m
0 -3.5 l

gsave
0.000 setgray
fill
grestore
stroke
grestore
} bind def
341.575 971.777 o
grestore
gsave
330.441733 957.182802 translate
0.000000 rotate
0.000000 0.000000 m /zero glyphshow
6.362305 0.000000 m /period glyphshow
9.541016 0.000000 m /zero glyphshow
15.903320 0.000000 m /two glyphshow
grestore
gsave
/o {
gsave
newpath
translate
0.8 setlinewidth
1 setlinejoin
0 setlinecap
0 0 m
0 -3.5 l

gsave
0.000 setgray
fill
grestore
stroke
grestore
} bind def
463.32 971.777 o
grestore
gsave
452.187187 957.182802 translate
0.000000 rotate
0.000000 0.000000 m /zero glyphshow
6.362305 0.000000 m /period glyphshow
9.541016 0.000000 m /zero glyphshow
15.903320 0.000000 m /four glyphshow
grestore
gsave
/o {
gsave
newpath
translate
0.8 setlinewidth
1 setlinejoin
0 setlinecap
0 0 m
0 -3.5 l

gsave
0.000 setgray
fill
grestore
stroke
grestore
} bind def
585.065 971.777 o
grestore
gsave
573.932642 957.182802 translate
0.000000 rotate
0.000000 0.000000 m /zero glyphshow
6.362305 0.000000 m /period glyphshow
9.541016 0.000000 m /zero glyphshow
15.903320 0.000000 m /six glyphshow
grestore
gsave
/o {
gsave
newpath
translate
0.8 setlinewidth
1 setlinejoin
0 setlinecap
0 0 m
0 -3.5 l

gsave
0.000 setgray
fill
grestore
stroke
grestore
} bind def
706.811 971.777 o
grestore
gsave
695.678097 957.182802 translate
0.000000 rotate
0.000000 0.000000 m /zero glyphshow
6.362305 0.000000 m /period glyphshow
9.541016 0.000000 m /zero glyphshow
15.903320 0.000000 m /eight glyphshow
grestore
gsave
/o {
gsave
newpath
translate
0.8 setlinewidth
1 setlinejoin
0 setlinecap
0 0 m
0 -3.5 l

gsave
0.000 setgray
fill
grestore
stroke
grestore
} bind def
828.556 971.777 o
grestore
gsave
817.423551 957.182802 translate
0.000000 rotate
0.000000 0.000000 m /zero glyphshow
6.362305 0.000000 m /period glyphshow
9.541016 0.000000 m /one glyphshow
15.903320 0.000000 m /zero glyphshow
grestore
gsave
/o {
gsave
newpath
translate
0.8 setlinewidth
1 setlinejoin
0 setlinecap
0 0 m
0 -3.5 l

gsave
0.000 setgray
fill
grestore
stroke
grestore
} bind def
950.302 971.777 o
grestore
gsave
939.169006 957.182802 translate
0.000000 rotate
0.000000 0.000000 m /zero glyphshow
6.362305 0.000000 m /period glyphshow
9.541016 0.000000 m /one glyphshow
15.903320 0.000000 m /two glyphshow
grestore
gsave
/o {
gsave
newpath
translate
0.8 setlinewidth
1 setlinejoin
0 setlinecap
0 0 m
0 -3.5 l

gsave
0.000 setgray
fill
grestore
stroke
grestore
} bind def
1072.05 971.777 o
grestore
gsave
1060.914460 957.182802 translate
0.000000 rotate
0.000000 0.000000 m /zero glyphshow
6.362305 0.000000 m /period glyphshow
9.541016 0.000000 m /one glyphshow
15.903320 0.000000 m /four glyphshow
grestore
gsave
622.903125 943.510927 translate
0.000000 rotate
0.000000 0.000000 m /T glyphshow
6.108398 0.000000 m /i glyphshow
8.886719 0.000000 m /m glyphshow
18.627930 0.000000 m /e glyphshow
24.780273 0.000000 m /space glyphshow
27.958984 0.000000 m /bracketleft glyphshow
31.860352 0.000000 m /one glyphshow
38.222656 0.000000 m /period glyphshow
41.401367 0.000000 m /five glyphshow
47.763672 0.000000 m /e glyphshow
53.916016 0.000000 m /hyphen glyphshow
57.524414 0.000000 m /zero glyphshow
63.886719 0.000000 m /five glyphshow
70.249023 0.000000 m /space glyphshow
73.427734 0.000000 m /s glyphshow
78.637695 0.000000 m /bracketright glyphshow
grestore
gsave
/o {
gsave
newpath
translate
0.8 setlinewidth
1 setlinejoin
0 setlinecap
0 0 m
-3.5 0 l

gsave
0.000 setgray
fill
grestore
stroke
grestore
} bind def
162 979.451 o
grestore
gsave
148.640625 975.654381 translate
0.000000 rotate
0.000000 0.000000 m /zero glyphshow
grestore
gsave
/o {
gsave
newpath
translate
0.8 setlinewidth
1 setlinejoin
0 setlinecap
0 0 m
-3.5 0 l

gsave
0.000 setgray
fill
grestore
stroke
grestore
} bind def
162 1010.62 o
grestore
gsave
148.640625 1006.818520 translate
0.000000 rotate
0.000000 0.000000 m /one glyphshow
grestore
gsave
/o {
gsave
newpath
translate
0.8 setlinewidth
1 setlinejoin
0 setlinecap
0 0 m
-3.5 0 l

gsave
0.000 setgray
fill
grestore
stroke
grestore
} bind def
162 1041.78 o
grestore
gsave
148.640625 1037.982659 translate
0.000000 rotate
0.000000 0.000000 m /two glyphshow
grestore
gsave
/o {
gsave
newpath
translate
0.8 setlinewidth
1 setlinejoin
0 setlinecap
0 0 m
-3.5 0 l

gsave
0.000 setgray
fill
grestore
stroke
grestore
} bind def
162 1072.94 o
grestore
gsave
148.640625 1069.146798 translate
0.000000 rotate
0.000000 0.000000 m /three glyphshow
grestore
gsave
/o {
gsave
newpath
translate
0.8 setlinewidth
1 setlinejoin
0 setlinecap
0 0 m
-3.5 0 l

gsave
0.000 setgray
fill
grestore
stroke
grestore
} bind def
162 1104.11 o
grestore
gsave
148.640625 1100.310937 translate
0.000000 rotate
0.000000 0.000000 m /four glyphshow
grestore
gsave
/o {
gsave
newpath
translate
0.8 setlinewidth
1 setlinejoin
0 setlinecap
0 0 m
-3.5 0 l

gsave
0.000 setgray
fill
grestore
stroke
grestore
} bind def
162 1135.27 o
grestore
gsave
148.640625 1131.475075 translate
0.000000 rotate
0.000000 0.000000 m /five glyphshow
grestore
gsave
142.562500 1014.714213 translate
90.000000 rotate
0.000000 0.000000 m /T glyphshow
6.092773 0.000000 m /e glyphshow
12.245117 0.000000 m /m glyphshow
21.986328 0.000000 m /p glyphshow
28.333984 0.000000 m /e glyphshow
34.486328 0.000000 m /r glyphshow
38.597656 0.000000 m /a glyphshow
44.725586 0.000000 m /t glyphshow
48.646484 0.000000 m /u glyphshow
54.984375 0.000000 m /r glyphshow
59.095703 0.000000 m /e glyphshow
65.248047 0.000000 m /space glyphshow
68.426758 0.000000 m /bracketleft glyphshow
72.328125 0.000000 m /K glyphshow
78.885742 0.000000 m /bracketright glyphshow
grestore
gsave
162.000000 1143.480000 translate
0.000000 rotate
0.000000 0.000000 m /one glyphshow
6.362305 0.000000 m /e glyphshow
12.514648 0.000000 m /minus glyphshow
20.893555 0.000000 m /seven glyphshow
grestore
1.500 setlinewidth
2 setlinecap
gsave
1004 168.7 162 971.8 clipbox
207.654545 979.451256 m
219.799869 979.451256 l
220.073824 1007.755486 l
220.621733 1055.196729 l
221.169642 1085.251282 l
221.717552 1104.104352 l
222.265461 1115.7436 l
222.81337 1122.738536 l
223.269962 1126.233882 l
223.726553 1128.299892 l
224.183144 1129.377445 l
224.548417 1129.736637 l
224.91369 1129.772437 l
225.278962 1129.568391 l
225.826872 1128.944574 l
226.557418 1127.733075 l
227.835873 1125.09329 l
231.671238 1116.359009 l
235.68924 1107.541894 l
239.615923 1099.463917 l
243.542607 1091.894756 l
247.469291 1084.802772 l
251.487292 1078.008484 l
255.505294 1071.652219 l
259.523296 1065.705755 l
263.632616 1060.020517 l
267.741936 1054.709899 l
271.942574 1049.64279 l
276.234531 1044.817635 l
280.526487 1040.324099 l
284.909762 1036.053561 l
289.384355 1032.002866 l
293.950266 1028.168122 l
298.607495 1024.544765 l
303.356043 1021.127649 l
308.287227 1017.852871 l
313.309729 1014.781794 l
318.514868 1011.857913 l
323.902643 1009.08602 l
329.473055 1006.469181 l
335.317421 1003.97165 l
341.344424 1001.637619 l
347.645381 999.434677 l
354.311611 997.34167 l
361.343114 995.371062 l
368.73989 993.531873 l
376.593258 991.811132 l
384.903216 990.218762 l
393.852402 988.732542 l
403.440815 987.367029 l
413.851092 986.110949 l
425.26587 984.961544 l
437.776467 983.928328 l
451.748155 983.001687 l
467.454889 982.186908 l
485.535897 981.477658 l
506.630407 980.879057 l
532.108191 980.38669 l
564.069569 980.001587 l
606.897815 979.721594 l
671.185844 979.544266 l
795.835218 979.46301 l
1120.745455 979.451311 l
1120.745455 979.451311 l
stroke
grestore
0.122 0.467 0.706 setrgbcolor
gsave
1004 168.7 162 971.8 clipbox
224.731053 1132.811661 m
228.566418 1123.372376 l
232.401784 1114.514051 l
236.237149 1106.20093 l
240.163833 1098.219682 l
244.090516 1090.740976 l
248.0172 1083.73317 l
252.035202 1077.018926 l
256.053204 1070.736956 l
260.071205 1064.859428 l
264.180525 1059.239529 l
268.289845 1053.989394 l
272.490484 1048.979448 l
276.78244 1044.208182 l
281.074397 1039.764306 l
285.457671 1035.540451 l
289.932264 1031.53353 l
294.498175 1027.739725 l
299.155405 1024.154565 l
303.99527 1020.710535 l
308.926454 1017.47424 l
314.040275 1014.385902 l
319.336732 1011.451403 l
324.815825 1008.674804 l
330.477555 1006.058452 l
336.321921 1003.603102 l
342.440242 1001.275004 l
348.832518 999.081959 l
355.498748 997.029259 l
362.530251 995.096156 l
370.018345 993.270615 l
377.963031 991.565991 l
386.455626 989.975539 l
395.49613 988.511126 l
405.267179 987.156482 l
415.860093 985.915561 l
427.457508 984.784741 l
440.242059 983.765745 l
454.487701 982.857607 l
470.559709 982.06002 l
489.097308 981.368647 l
510.831045 980.787085 l
537.222011 980.311807 l
570.644481 979.94326 l
616.029638 979.679878 l
686.070714 979.518515 l
832.179871 979.451387 l
1120.654136 979.44489 l
1120.654136 979.44489 l
stroke
grestore
0.800 setlinewidth
0 setlinejoin
[] 0 setdash
0.000 setgray
gsave
162 971.776552 m
162 1140.48 l
stroke
grestore
gsave
1166.4 971.776552 m
1166.4 1140.48 l
stroke
grestore
gsave
162 971.776552 m
1166.4 971.776552 l
stroke
grestore
gsave
162 1140.48 m
1166.4 1140.48 l
stroke
grestore
/DejaVuSans findfont
12.000 scalefont
setfont
gsave
614.481250 1146.480000 translate
0.000000 rotate
0.000000 0.000000 m /N glyphshow
8.976562 0.000000 m /o glyphshow
16.318359 0.000000 m /n glyphshow
23.923828 0.000000 m /l glyphshow
27.257812 0.000000 m /i glyphshow
30.591797 0.000000 m /n glyphshow
38.197266 0.000000 m /e glyphshow
45.580078 0.000000 m /a glyphshow
52.933594 0.000000 m /r glyphshow
57.867188 0.000000 m /space glyphshow
61.681641 0.000000 m /S glyphshow
69.298828 0.000000 m /o glyphshow
76.640625 0.000000 m /l glyphshow
79.974609 0.000000 m /v glyphshow
87.076172 0.000000 m /e glyphshow
94.458984 0.000000 m /r glyphshow
grestore
1.000 setlinewidth
0 setlinecap
0.800 setgray
gsave
955.24375 1117.808125 m
1159.4 1117.808125 l
1160.733333 1117.808125 1161.4 1118.474792 1161.4 1119.808125 c
1161.4 1133.48 l
1161.4 1134.813333 1160.733333 1135.48 1159.4 1135.48 c
955.24375 1135.48 l
953.910417 1135.48 953.24375 1134.813333 953.24375 1133.48 c
953.24375 1119.808125 l
953.24375 1118.474792 953.910417 1117.808125 955.24375 1117.808125 c
cl
gsave
1.000 setgray
fill
grestore
stroke
grestore
1.500 setlinewidth
1 setlinejoin
2 setlinecap
[] 0 setdash
0.000 setgray
gsave
957.24375 1127.38625 m
977.24375 1127.38625 l
stroke
grestore
/DejaVuSans findfont
10.000 scalefont
setfont
gsave
985.243750 1123.886250 translate
0.000000 rotate
0.000000 0.000000 m /T glyphshow
6.108398 0.000000 m /E glyphshow
12.426758 0.000000 m /S glyphshow
18.774414 0.000000 m /space glyphshow
21.953125 0.000000 m /E glyphshow
28.271484 0.000000 m /l glyphshow
31.049805 0.000000 m /e glyphshow
37.202148 0.000000 m /c glyphshow
42.700195 0.000000 m /t glyphshow
46.621094 0.000000 m /r glyphshow
50.732422 0.000000 m /o glyphshow
56.850586 0.000000 m /n glyphshow
63.188477 0.000000 m /space glyphshow
66.367188 0.000000 m /S glyphshow
72.714844 0.000000 m /y glyphshow
78.632812 0.000000 m /s glyphshow
83.842773 0.000000 m /t glyphshow
87.763672 0.000000 m /e glyphshow
93.916016 0.000000 m /m glyphshow
103.657227 0.000000 m /space glyphshow
106.835938 0.000000 m /T glyphshow
112.928711 0.000000 m /e glyphshow
119.081055 0.000000 m /m glyphshow
128.822266 0.000000 m /p glyphshow
135.169922 0.000000 m /e glyphshow
141.322266 0.000000 m /r glyphshow
145.433594 0.000000 m /a glyphshow
151.561523 0.000000 m /t glyphshow
155.482422 0.000000 m /u glyphshow
161.820312 0.000000 m /r glyphshow
165.931641 0.000000 m /e glyphshow
grestore
gsave
162 769.332414 m
1166.4 769.332414 l
1166.4 938.035862 l
162 938.035862 l
cl
1.000 setgray
fill
grestore
0.800 setlinewidth
0 setlinecap
gsave
/o {
gsave
newpath
translate
0.8 setlinewidth
1 setlinejoin
0 setlinecap
0 0 m
0 -3.5 l

gsave
0.000 setgray
fill
grestore
stroke
grestore
} bind def
219.829 769.332 o
grestore
gsave
208.696278 754.738664 translate
0.000000 rotate
0.000000 0.000000 m /zero glyphshow
6.362305 0.000000 m /period glyphshow
9.541016 0.000000 m /zero glyphshow
15.903320 0.000000 m /zero glyphshow
grestore
gsave
/o {
gsave
newpath
translate
0.8 setlinewidth
1 setlinejoin
0 setlinecap
0 0 m
0 -3.5 l

gsave
0.000 setgray
fill
grestore
stroke
grestore
} bind def
341.575 769.332 o
grestore
gsave
330.441733 754.738664 translate
0.000000 rotate
0.000000 0.000000 m /zero glyphshow
6.362305 0.000000 m /period glyphshow
9.541016 0.000000 m /zero glyphshow
15.903320 0.000000 m /two glyphshow
grestore
gsave
/o {
gsave
newpath
translate
0.8 setlinewidth
1 setlinejoin
0 setlinecap
0 0 m
0 -3.5 l

gsave
0.000 setgray
fill
grestore
stroke
grestore
} bind def
463.32 769.332 o
grestore
gsave
452.187187 754.738664 translate
0.000000 rotate
0.000000 0.000000 m /zero glyphshow
6.362305 0.000000 m /period glyphshow
9.541016 0.000000 m /zero glyphshow
15.903320 0.000000 m /four glyphshow
grestore
gsave
/o {
gsave
newpath
translate
0.8 setlinewidth
1 setlinejoin
0 setlinecap
0 0 m
0 -3.5 l

gsave
0.000 setgray
fill
grestore
stroke
grestore
} bind def
585.065 769.332 o
grestore
gsave
573.932642 754.738664 translate
0.000000 rotate
0.000000 0.000000 m /zero glyphshow
6.362305 0.000000 m /period glyphshow
9.541016 0.000000 m /zero glyphshow
15.903320 0.000000 m /six glyphshow
grestore
gsave
/o {
gsave
newpath
translate
0.8 setlinewidth
1 setlinejoin
0 setlinecap
0 0 m
0 -3.5 l

gsave
0.000 setgray
fill
grestore
stroke
grestore
} bind def
706.811 769.332 o
grestore
gsave
695.678097 754.738664 translate
0.000000 rotate
0.000000 0.000000 m /zero glyphshow
6.362305 0.000000 m /period glyphshow
9.541016 0.000000 m /zero glyphshow
15.903320 0.000000 m /eight glyphshow
grestore
gsave
/o {
gsave
newpath
translate
0.8 setlinewidth
1 setlinejoin
0 setlinecap
0 0 m
0 -3.5 l

gsave
0.000 setgray
fill
grestore
stroke
grestore
} bind def
828.556 769.332 o
grestore
gsave
817.423551 754.738664 translate
0.000000 rotate
0.000000 0.000000 m /zero glyphshow
6.362305 0.000000 m /period glyphshow
9.541016 0.000000 m /one glyphshow
15.903320 0.000000 m /zero glyphshow
grestore
gsave
/o {
gsave
newpath
translate
0.8 setlinewidth
1 setlinejoin
0 setlinecap
0 0 m
0 -3.5 l

gsave
0.000 setgray
fill
grestore
stroke
grestore
} bind def
950.302 769.332 o
grestore
gsave
939.169006 754.738664 translate
0.000000 rotate
0.000000 0.000000 m /zero glyphshow
6.362305 0.000000 m /period glyphshow
9.541016 0.000000 m /one glyphshow
15.903320 0.000000 m /two glyphshow
grestore
gsave
/o {
gsave
newpath
translate
0.8 setlinewidth
1 setlinejoin
0 setlinecap
0 0 m
0 -3.5 l

gsave
0.000 setgray
fill
grestore
stroke
grestore
} bind def
1072.05 769.332 o
grestore
gsave
1060.914460 754.738664 translate
0.000000 rotate
0.000000 0.000000 m /zero glyphshow
6.362305 0.000000 m /period glyphshow
9.541016 0.000000 m /one glyphshow
15.903320 0.000000 m /four glyphshow
grestore
gsave
622.903125 741.066789 translate
0.000000 rotate
0.000000 0.000000 m /T glyphshow
6.108398 0.000000 m /i glyphshow
8.886719 0.000000 m /m glyphshow
18.627930 0.000000 m /e glyphshow
24.780273 0.000000 m /space glyphshow
27.958984 0.000000 m /bracketleft glyphshow
31.860352 0.000000 m /one glyphshow
38.222656 0.000000 m /period glyphshow
41.401367 0.000000 m /five glyphshow
47.763672 0.000000 m /e glyphshow
53.916016 0.000000 m /hyphen glyphshow
57.524414 0.000000 m /zero glyphshow
63.886719 0.000000 m /five glyphshow
70.249023 0.000000 m /space glyphshow
73.427734 0.000000 m /s glyphshow
78.637695 0.000000 m /bracketright glyphshow
grestore
gsave
/o {
gsave
newpath
translate
0.8 setlinewidth
1 setlinejoin
0 setlinecap
0 0 m
-3.5 0 l

gsave
0.000 setgray
fill
grestore
stroke
grestore
} bind def
162 794.749 o
grestore
gsave
81.859375 790.951670 translate
0.000000 rotate
0.000000 0.000000 m /zero glyphshow
6.362305 0.000000 m /period glyphshow
9.541016 0.000000 m /zero glyphshow
15.903320 0.000000 m /zero glyphshow
22.265625 0.000000 m /zero glyphshow
28.627930 0.000000 m /zero glyphshow
34.990234 0.000000 m /zero glyphshow
41.352539 0.000000 m /one glyphshow
47.714844 0.000000 m /five glyphshow
54.077148 0.000000 m /four glyphshow
60.439453 0.000000 m /seven glyphshow
66.801758 0.000000 m /five glyphshow
grestore
gsave
/o {
gsave
newpath
translate
0.8 setlinewidth
1 setlinejoin
0 setlinecap
0 0 m
-3.5 0 l

gsave
0.000 setgray
fill
grestore
stroke
grestore
} bind def
162 835.817 o
grestore
gsave
81.859375 832.020308 translate
0.000000 rotate
0.000000 0.000000 m /zero glyphshow
6.362305 0.000000 m /period glyphshow
9.541016 0.000000 m /zero glyphshow
15.903320 0.000000 m /zero glyphshow
22.265625 0.000000 m /zero glyphshow
28.627930 0.000000 m /zero glyphshow
34.990234 0.000000 m /zero glyphshow
41.352539 0.000000 m /one glyphshow
47.714844 0.000000 m /five glyphshow
54.077148 0.000000 m /four glyphshow
60.439453 0.000000 m /eight glyphshow
66.801758 0.000000 m /zero glyphshow
grestore
gsave
/o {
gsave
newpath
translate
0.8 setlinewidth
1 setlinejoin
0 setlinecap
0 0 m
-3.5 0 l

gsave
0.000 setgray
fill
grestore
stroke
grestore
} bind def
162 876.886 o
grestore
gsave
81.859375 873.088946 translate
0.000000 rotate
0.000000 0.000000 m /zero glyphshow
6.362305 0.000000 m /period glyphshow
9.541016 0.000000 m /zero glyphshow
15.903320 0.000000 m /zero glyphshow
22.265625 0.000000 m /zero glyphshow
28.627930 0.000000 m /zero glyphshow
34.990234 0.000000 m /zero glyphshow
41.352539 0.000000 m /one glyphshow
47.714844 0.000000 m /five glyphshow
54.077148 0.000000 m /four glyphshow
60.439453 0.000000 m /eight glyphshow
66.801758 0.000000 m /five glyphshow
grestore
gsave
/o {
gsave
newpath
translate
0.8 setlinewidth
1 setlinejoin
0 setlinecap
0 0 m
-3.5 0 l

gsave
0.000 setgray
fill
grestore
stroke
grestore
} bind def
162 917.954 o
grestore
gsave
81.859375 914.157584 translate
0.000000 rotate
0.000000 0.000000 m /zero glyphshow
6.362305 0.000000 m /period glyphshow
9.541016 0.000000 m /zero glyphshow
15.903320 0.000000 m /zero glyphshow
22.265625 0.000000 m /zero glyphshow
28.627930 0.000000 m /zero glyphshow
34.990234 0.000000 m /zero glyphshow
41.352539 0.000000 m /one glyphshow
47.714844 0.000000 m /five glyphshow
54.077148 0.000000 m /four glyphshow
60.439453 0.000000 m /nine glyphshow
66.801758 0.000000 m /zero glyphshow
grestore
gsave
75.781250 827.723200 translate
90.000000 rotate
0.000000 0.000000 m /C glyphshow
6.982422 0.000000 m /u glyphshow
13.320312 0.000000 m /r glyphshow
17.431641 0.000000 m /r glyphshow
21.542969 0.000000 m /e glyphshow
27.695312 0.000000 m /n glyphshow
34.033203 0.000000 m /t glyphshow
37.954102 0.000000 m /space glyphshow
41.132812 0.000000 m /bracketleft glyphshow
45.034180 0.000000 m /I glyphshow
47.983398 0.000000 m /bracketright glyphshow
grestore
1.500 setlinewidth
2 setlinecap
0.122 0.467 0.706 setrgbcolor
gsave
1004 168.7 162 769.3 clipbox
207.654545 930.367524 m
219.799869 930.367524 l
220.073824 901.5458 l
220.621733 853.115356 l
221.169642 822.443425 l
221.717552 803.206596 l
222.265461 791.331616 l
222.81337 784.195267 l
223.269962 780.629178 l
223.726553 778.521166 l
224.183144 777.421447 l
224.548417 777.054603 l
224.91369 777.017633 l
225.278962 777.225314 l
225.826872 777.860958 l
226.557418 779.09585 l
227.835873 781.787055 l
231.671238 790.692538 l
235.68924 799.683235 l
239.615923 807.920806 l
243.542607 815.639996 l
247.469291 822.872975 l
251.395974 829.650303 l
255.413976 836.143462 l
259.431978 842.218294 l
263.541298 848.026534 l
267.650618 853.452289 l
271.851256 858.629471 l
276.051894 863.458355 l
280.343851 868.056818 l
284.727125 872.42723 l
289.201718 876.572798 l
293.767629 880.497482 l
298.424859 884.205932 l
303.173406 887.703397 l
308.013272 890.995655 l
313.035774 894.143875 l
318.240913 897.141275 l
323.628688 899.982931 l
329.1991 902.665689 l
334.952148 905.188057 l
340.979151 907.584608 l
347.280108 909.8466 l
353.85502 911.967884 l
360.795205 913.969619 l
368.100663 915.841935 l
375.862712 917.597626 l
384.081352 919.225876 l
392.847901 920.734524 l
402.344996 922.139275 l
412.572637 923.423887 l
423.71346 924.596089 l
435.950102 925.656878 l
449.556517 926.609132 l
464.806661 927.449596 l
482.248441 928.183042 l
502.521087 928.807196 l
526.811734 929.324919 l
556.946747 929.735264 l
596.578856 930.040021 l
654.109336 930.241474 l
756.477064 930.34447 l
1107.321676 930.36745 l
1120.745455 930.367467 l
1120.745455 930.367467 l
stroke
grestore
0.800 setlinewidth
0 setlinejoin
[] 0 setdash
0.000 setgray
gsave
162 769.332414 m
162 938.035862 l
stroke
grestore
gsave
1166.4 769.332414 m
1166.4 938.035862 l
stroke
grestore
gsave
162 769.332414 m
1166.4 769.332414 l
stroke
grestore
gsave
162 938.035862 m
1166.4 938.035862 l
stroke
grestore
1.000 setlinewidth
0 setlinecap
0.800 setgray
gsave
1089.43125 774.332414 m
1159.4 774.332414 l
1160.733333 774.332414 1161.4 774.99908 1161.4 776.332414 c
1161.4 790.004289 l
1161.4 791.337622 1160.733333 792.004289 1159.4 792.004289 c
1089.43125 792.004289 l
1088.097917 792.004289 1087.43125 791.337622 1087.43125 790.004289 c
1087.43125 776.332414 l
1087.43125 774.99908 1088.097917 774.332414 1089.43125 774.332414 c
cl
gsave
1.000 setgray
fill
grestore
stroke
grestore
1.500 setlinewidth
1 setlinejoin
2 setlinecap
[] 0 setdash
0.122 0.467 0.706 setrgbcolor
gsave
1091.43125 783.910539 m
1111.43125 783.910539 l
stroke
grestore
0.000 setgray
gsave
1119.431250 780.410539 translate
0.000000 rotate
0.000000 0.000000 m /C glyphshow
6.982422 0.000000 m /u glyphshow
13.320312 0.000000 m /r glyphshow
17.431641 0.000000 m /r glyphshow
21.542969 0.000000 m /e glyphshow
27.695312 0.000000 m /n glyphshow
34.033203 0.000000 m /t glyphshow
grestore
gsave
162 566.888276 m
1166.4 566.888276 l
1166.4 735.591724 l
162 735.591724 l
cl
1.000 setgray
fill
grestore
0.800 setlinewidth
0 setlinecap
gsave
/o {
gsave
newpath
translate
0.8 setlinewidth
1 setlinejoin
0 setlinecap
0 0 m
0 -3.5 l

gsave
0.000 setgray
fill
grestore
stroke
grestore
} bind def
219.829 566.888 o
grestore
gsave
208.696278 552.294526 translate
0.000000 rotate
0.000000 0.000000 m /zero glyphshow
6.362305 0.000000 m /period glyphshow
9.541016 0.000000 m /zero glyphshow
15.903320 0.000000 m /zero glyphshow
grestore
gsave
/o {
gsave
newpath
translate
0.8 setlinewidth
1 setlinejoin
0 setlinecap
0 0 m
0 -3.5 l

gsave
0.000 setgray
fill
grestore
stroke
grestore
} bind def
341.575 566.888 o
grestore
gsave
330.441733 552.294526 translate
0.000000 rotate
0.000000 0.000000 m /zero glyphshow
6.362305 0.000000 m /period glyphshow
9.541016 0.000000 m /zero glyphshow
15.903320 0.000000 m /two glyphshow
grestore
gsave
/o {
gsave
newpath
translate
0.8 setlinewidth
1 setlinejoin
0 setlinecap
0 0 m
0 -3.5 l

gsave
0.000 setgray
fill
grestore
stroke
grestore
} bind def
463.32 566.888 o
grestore
gsave
452.187187 552.294526 translate
0.000000 rotate
0.000000 0.000000 m /zero glyphshow
6.362305 0.000000 m /period glyphshow
9.541016 0.000000 m /zero glyphshow
15.903320 0.000000 m /four glyphshow
grestore
gsave
/o {
gsave
newpath
translate
0.8 setlinewidth
1 setlinejoin
0 setlinecap
0 0 m
0 -3.5 l

gsave
0.000 setgray
fill
grestore
stroke
grestore
} bind def
585.065 566.888 o
grestore
gsave
573.932642 552.294526 translate
0.000000 rotate
0.000000 0.000000 m /zero glyphshow
6.362305 0.000000 m /period glyphshow
9.541016 0.000000 m /zero glyphshow
15.903320 0.000000 m /six glyphshow
grestore
gsave
/o {
gsave
newpath
translate
0.8 setlinewidth
1 setlinejoin
0 setlinecap
0 0 m
0 -3.5 l

gsave
0.000 setgray
fill
grestore
stroke
grestore
} bind def
706.811 566.888 o
grestore
gsave
695.678097 552.294526 translate
0.000000 rotate
0.000000 0.000000 m /zero glyphshow
6.362305 0.000000 m /period glyphshow
9.541016 0.000000 m /zero glyphshow
15.903320 0.000000 m /eight glyphshow
grestore
gsave
/o {
gsave
newpath
translate
0.8 setlinewidth
1 setlinejoin
0 setlinecap
0 0 m
0 -3.5 l

gsave
0.000 setgray
fill
grestore
stroke
grestore
} bind def
828.556 566.888 o
grestore
gsave
817.423551 552.294526 translate
0.000000 rotate
0.000000 0.000000 m /zero glyphshow
6.362305 0.000000 m /period glyphshow
9.541016 0.000000 m /one glyphshow
15.903320 0.000000 m /zero glyphshow
grestore
gsave
/o {
gsave
newpath
translate
0.8 setlinewidth
1 setlinejoin
0 setlinecap
0 0 m
0 -3.5 l

gsave
0.000 setgray
fill
grestore
stroke
grestore
} bind def
950.302 566.888 o
grestore
gsave
939.169006 552.294526 translate
0.000000 rotate
0.000000 0.000000 m /zero glyphshow
6.362305 0.000000 m /period glyphshow
9.541016 0.000000 m /one glyphshow
15.903320 0.000000 m /two glyphshow
grestore
gsave
/o {
gsave
newpath
translate
0.8 setlinewidth
1 setlinejoin
0 setlinecap
0 0 m
0 -3.5 l

gsave
0.000 setgray
fill
grestore
stroke
grestore
} bind def
1072.05 566.888 o
grestore
gsave
1060.914460 552.294526 translate
0.000000 rotate
0.000000 0.000000 m /zero glyphshow
6.362305 0.000000 m /period glyphshow
9.541016 0.000000 m /one glyphshow
15.903320 0.000000 m /four glyphshow
grestore
gsave
622.903125 538.622651 translate
0.000000 rotate
0.000000 0.000000 m /T glyphshow
6.108398 0.000000 m /i glyphshow
8.886719 0.000000 m /m glyphshow
18.627930 0.000000 m /e glyphshow
24.780273 0.000000 m /space glyphshow
27.958984 0.000000 m /bracketleft glyphshow
31.860352 0.000000 m /one glyphshow
38.222656 0.000000 m /period glyphshow
41.401367 0.000000 m /five glyphshow
47.763672 0.000000 m /e glyphshow
53.916016 0.000000 m /hyphen glyphshow
57.524414 0.000000 m /zero glyphshow
63.886719 0.000000 m /five glyphshow
70.249023 0.000000 m /space glyphshow
73.427734 0.000000 m /s glyphshow
78.637695 0.000000 m /bracketright glyphshow
grestore
gsave
/o {
gsave
newpath
translate
0.8 setlinewidth
1 setlinejoin
0 setlinecap
0 0 m
-3.5 0 l

gsave
0.000 setgray
fill
grestore
stroke
grestore
} bind def
162 574.556 o
grestore
gsave
120.015625 570.759497 translate
0.000000 rotate
0.000000 0.000000 m /zero glyphshow
6.362305 0.000000 m /period glyphshow
9.541016 0.000000 m /five glyphshow
15.903320 0.000000 m /zero glyphshow
22.265625 0.000000 m /zero glyphshow
28.627930 0.000000 m /zero glyphshow
grestore
gsave
/o {
gsave
newpath
translate
0.8 setlinewidth
1 setlinejoin
0 setlinecap
0 0 m
-3.5 0 l

gsave
0.000 setgray
fill
grestore
stroke
grestore
} bind def
162 599.974 o
grestore
gsave
120.015625 596.177416 translate
0.000000 rotate
0.000000 0.000000 m /zero glyphshow
6.362305 0.000000 m /period glyphshow
9.541016 0.000000 m /five glyphshow
15.903320 0.000000 m /zero glyphshow
22.265625 0.000000 m /zero glyphshow
28.627930 0.000000 m /one glyphshow
grestore
gsave
/o {
gsave
newpath
translate
0.8 setlinewidth
1 setlinejoin
0 setlinecap
0 0 m
-3.5 0 l

gsave
0.000 setgray
fill
grestore
stroke
grestore
} bind def
162 625.392 o
grestore
gsave
120.015625 621.595335 translate
0.000000 rotate
0.000000 0.000000 m /zero glyphshow
6.362305 0.000000 m /period glyphshow
9.541016 0.000000 m /five glyphshow
15.903320 0.000000 m /zero glyphshow
22.265625 0.000000 m /zero glyphshow
28.627930 0.000000 m /two glyphshow
grestore
gsave
/o {
gsave
newpath
translate
0.8 setlinewidth
1 setlinejoin
0 setlinecap
0 0 m
-3.5 0 l

gsave
0.000 setgray
fill
grestore
stroke
grestore
} bind def
162 650.81 o
grestore
gsave
120.015625 647.013254 translate
0.000000 rotate
0.000000 0.000000 m /zero glyphshow
6.362305 0.000000 m /period glyphshow
9.541016 0.000000 m /five glyphshow
15.903320 0.000000 m /zero glyphshow
22.265625 0.000000 m /zero glyphshow
28.627930 0.000000 m /three glyphshow
grestore
gsave
/o {
gsave
newpath
translate
0.8 setlinewidth
1 setlinejoin
0 setlinecap
0 0 m
-3.5 0 l

gsave
0.000 setgray
fill
grestore
stroke
grestore
} bind def
162 676.228 o
grestore
gsave
120.015625 672.431172 translate
0.000000 rotate
0.000000 0.000000 m /zero glyphshow
6.362305 0.000000 m /period glyphshow
9.541016 0.000000 m /five glyphshow
15.903320 0.000000 m /zero glyphshow
22.265625 0.000000 m /zero glyphshow
28.627930 0.000000 m /four glyphshow
grestore
gsave
/o {
gsave
newpath
translate
0.8 setlinewidth
1 setlinejoin
0 setlinecap
0 0 m
-3.5 0 l

gsave
0.000 setgray
fill
grestore
stroke
grestore
} bind def
162 701.646 o
grestore
gsave
120.015625 697.849091 translate
0.000000 rotate
0.000000 0.000000 m /zero glyphshow
6.362305 0.000000 m /period glyphshow
9.541016 0.000000 m /five glyphshow
15.903320 0.000000 m /zero glyphshow
22.265625 0.000000 m /zero glyphshow
28.627930 0.000000 m /five glyphshow
grestore
gsave
/o {
gsave
newpath
translate
0.8 setlinewidth
1 setlinejoin
0 setlinecap
0 0 m
-3.5 0 l

gsave
0.000 setgray
fill
grestore
stroke
grestore
} bind def
162 727.064 o
grestore
gsave
120.015625 723.267010 translate
0.000000 rotate
0.000000 0.000000 m /zero glyphshow
6.362305 0.000000 m /period glyphshow
9.541016 0.000000 m /five glyphshow
15.903320 0.000000 m /zero glyphshow
22.265625 0.000000 m /zero glyphshow
28.627930 0.000000 m /six glyphshow
grestore
gsave
113.937500 603.958750 translate
90.000000 rotate
0.000000 0.000000 m /R glyphshow
6.948242 0.000000 m /e glyphshow
13.100586 0.000000 m /s glyphshow
18.310547 0.000000 m /i glyphshow
21.088867 0.000000 m /s glyphshow
26.298828 0.000000 m /t glyphshow
30.219727 0.000000 m /a glyphshow
36.347656 0.000000 m /n glyphshow
42.685547 0.000000 m /c glyphshow
48.183594 0.000000 m /e glyphshow
54.335938 0.000000 m /space glyphshow
57.514648 0.000000 m /bracketleft glyphshow
61.416016 0.000000 m /O glyphshow
69.287109 0.000000 m /h glyphshow
75.625000 0.000000 m /m glyphshow
85.366211 0.000000 m /s glyphshow
90.576172 0.000000 m /bracketright glyphshow
grestore
1.500 setlinewidth
2 setlinecap
0.122 0.467 0.706 setrgbcolor
gsave
1004 168.7 162 566.9 clipbox
207.654545 574.556614 m
219.799869 574.556614 l
220.073824 603.483773 l
220.621733 651.847444 l
221.169642 682.495635 l
221.717552 701.7246 l
222.265461 713.597095 l
222.81337 720.732464 l
223.269962 724.297903 l
223.726553 726.405157 l
224.183144 727.503962 l
224.548417 727.869976 l
224.91369 727.906049 l
225.278962 727.697418 l
225.826872 727.060291 l
226.557418 725.823373 l
227.835873 723.128646 l
231.671238 714.213646 l
235.68924 705.214851 l
239.615923 696.970988 l
243.542607 689.246873 l
247.469291 682.010129 l
251.395974 675.230021 l
255.413976 668.734877 l
259.431978 662.658789 l
263.541298 656.84989 l
267.650618 651.424 l
271.851256 646.24712 l
276.051894 641.418897 l
280.343851 636.821405 l
284.727125 632.452224 l
289.201718 628.308101 l
293.767629 624.385034 l
298.424859 620.678335 l
303.173406 617.182718 l
308.013272 613.892377 l
313.035774 610.746147 l
318.240913 607.750788 l
323.628688 604.911198 l
329.1991 602.230506 l
334.952148 599.710183 l
340.979151 597.315669 l
347.280108 595.055681 l
353.85502 592.93635 l
360.795205 590.936522 l
368.100663 589.066047 l
375.862712 587.312133 l
384.081352 585.685575 l
392.847901 584.178531 l
402.344996 582.775305 l
412.572637 581.492115 l
423.71346 580.321234 l
435.950102 579.261658 l
449.556517 578.310508 l
464.897979 577.466617 l
482.339759 576.73515 l
502.703723 576.110331 l
526.99437 575.594797 l
557.220702 575.185237 l
597.035447 574.881247 l
654.839882 574.680992 l
758.120792 574.57902 l
1117.640635 574.556672 l
1120.745455 574.556671 l
1120.745455 574.556671 l
stroke
grestore
0.800 setlinewidth
0 setlinejoin
[] 0 setdash
0.000 setgray
gsave
162 566.888276 m
162 735.591724 l
stroke
grestore
gsave
1166.4 566.888276 m
1166.4 735.591724 l
stroke
grestore
gsave
162 566.888276 m
1166.4 566.888276 l
stroke
grestore
gsave
162 735.591724 m
1166.4 735.591724 l
stroke
grestore
1.000 setlinewidth
0 setlinecap
0.800 setgray
gsave
1073.025 712.919849 m
1159.4 712.919849 l
1160.733333 712.919849 1161.4 713.586516 1161.4 714.919849 c
1161.4 728.591724 l
1161.4 729.925057 1160.733333 730.591724 1159.4 730.591724 c
1073.025 730.591724 l
1071.691667 730.591724 1071.025 729.925057 1071.025 728.591724 c
1071.025 714.919849 l
1071.025 713.586516 1071.691667 712.919849 1073.025 712.919849 c
cl
gsave
1.000 setgray
fill
grestore
stroke
grestore
1.500 setlinewidth
1 setlinejoin
2 setlinecap
[] 0 setdash
0.122 0.467 0.706 setrgbcolor
gsave
1075.025 722.497974 m
1095.025 722.497974 l
stroke
grestore
0.000 setgray
gsave
1103.025000 718.997974 translate
0.000000 rotate
0.000000 0.000000 m /R glyphshow
6.948242 0.000000 m /e glyphshow
13.100586 0.000000 m /s glyphshow
18.310547 0.000000 m /i glyphshow
21.088867 0.000000 m /s glyphshow
26.298828 0.000000 m /t glyphshow
30.219727 0.000000 m /a glyphshow
36.347656 0.000000 m /n glyphshow
42.685547 0.000000 m /c glyphshow
48.183594 0.000000 m /e glyphshow
grestore
gsave
162 364.444138 m
1166.4 364.444138 l
1166.4 533.147586 l
162 533.147586 l
cl
1.000 setgray
fill
grestore
0.800 setlinewidth
0 setlinecap
gsave
/o {
gsave
newpath
translate
0.8 setlinewidth
1 setlinejoin
0 setlinecap
0 0 m
0 -3.5 l

gsave
0.000 setgray
fill
grestore
stroke
grestore
} bind def
219.829 364.444 o
grestore
gsave
208.696278 349.850388 translate
0.000000 rotate
0.000000 0.000000 m /zero glyphshow
6.362305 0.000000 m /period glyphshow
9.541016 0.000000 m /zero glyphshow
15.903320 0.000000 m /zero glyphshow
grestore
gsave
/o {
gsave
newpath
translate
0.8 setlinewidth
1 setlinejoin
0 setlinecap
0 0 m
0 -3.5 l

gsave
0.000 setgray
fill
grestore
stroke
grestore
} bind def
341.575 364.444 o
grestore
gsave
330.441733 349.850388 translate
0.000000 rotate
0.000000 0.000000 m /zero glyphshow
6.362305 0.000000 m /period glyphshow
9.541016 0.000000 m /zero glyphshow
15.903320 0.000000 m /two glyphshow
grestore
gsave
/o {
gsave
newpath
translate
0.8 setlinewidth
1 setlinejoin
0 setlinecap
0 0 m
0 -3.5 l

gsave
0.000 setgray
fill
grestore
stroke
grestore
} bind def
463.32 364.444 o
grestore
gsave
452.187187 349.850388 translate
0.000000 rotate
0.000000 0.000000 m /zero glyphshow
6.362305 0.000000 m /period glyphshow
9.541016 0.000000 m /zero glyphshow
15.903320 0.000000 m /four glyphshow
grestore
gsave
/o {
gsave
newpath
translate
0.8 setlinewidth
1 setlinejoin
0 setlinecap
0 0 m
0 -3.5 l

gsave
0.000 setgray
fill
grestore
stroke
grestore
} bind def
585.065 364.444 o
grestore
gsave
573.932642 349.850388 translate
0.000000 rotate
0.000000 0.000000 m /zero glyphshow
6.362305 0.000000 m /period glyphshow
9.541016 0.000000 m /zero glyphshow
15.903320 0.000000 m /six glyphshow
grestore
gsave
/o {
gsave
newpath
translate
0.8 setlinewidth
1 setlinejoin
0 setlinecap
0 0 m
0 -3.5 l

gsave
0.000 setgray
fill
grestore
stroke
grestore
} bind def
706.811 364.444 o
grestore
gsave
695.678097 349.850388 translate
0.000000 rotate
0.000000 0.000000 m /zero glyphshow
6.362305 0.000000 m /period glyphshow
9.541016 0.000000 m /zero glyphshow
15.903320 0.000000 m /eight glyphshow
grestore
gsave
/o {
gsave
newpath
translate
0.8 setlinewidth
1 setlinejoin
0 setlinecap
0 0 m
0 -3.5 l

gsave
0.000 setgray
fill
grestore
stroke
grestore
} bind def
828.556 364.444 o
grestore
gsave
817.423551 349.850388 translate
0.000000 rotate
0.000000 0.000000 m /zero glyphshow
6.362305 0.000000 m /period glyphshow
9.541016 0.000000 m /one glyphshow
15.903320 0.000000 m /zero glyphshow
grestore
gsave
/o {
gsave
newpath
translate
0.8 setlinewidth
1 setlinejoin
0 setlinecap
0 0 m
0 -3.5 l

gsave
0.000 setgray
fill
grestore
stroke
grestore
} bind def
950.302 364.444 o
grestore
gsave
939.169006 349.850388 translate
0.000000 rotate
0.000000 0.000000 m /zero glyphshow
6.362305 0.000000 m /period glyphshow
9.541016 0.000000 m /one glyphshow
15.903320 0.000000 m /two glyphshow
grestore
gsave
/o {
gsave
newpath
translate
0.8 setlinewidth
1 setlinejoin
0 setlinecap
0 0 m
0 -3.5 l

gsave
0.000 setgray
fill
grestore
stroke
grestore
} bind def
1072.05 364.444 o
grestore
gsave
1060.914460 349.850388 translate
0.000000 rotate
0.000000 0.000000 m /zero glyphshow
6.362305 0.000000 m /period glyphshow
9.541016 0.000000 m /one glyphshow
15.903320 0.000000 m /four glyphshow
grestore
gsave
622.903125 336.178513 translate
0.000000 rotate
0.000000 0.000000 m /T glyphshow
6.108398 0.000000 m /i glyphshow
8.886719 0.000000 m /m glyphshow
18.627930 0.000000 m /e glyphshow
24.780273 0.000000 m /space glyphshow
27.958984 0.000000 m /bracketleft glyphshow
31.860352 0.000000 m /one glyphshow
38.222656 0.000000 m /period glyphshow
41.401367 0.000000 m /five glyphshow
47.763672 0.000000 m /e glyphshow
53.916016 0.000000 m /hyphen glyphshow
57.524414 0.000000 m /zero glyphshow
63.886719 0.000000 m /five glyphshow
70.249023 0.000000 m /space glyphshow
73.427734 0.000000 m /s glyphshow
78.637695 0.000000 m /bracketright glyphshow
grestore
gsave
/o {
gsave
newpath
translate
0.8 setlinewidth
1 setlinejoin
0 setlinecap
0 0 m
-3.5 0 l

gsave
0.000 setgray
fill
grestore
stroke
grestore
} bind def
162 383.955 o
grestore
gsave
120.015625 380.158265 translate
0.000000 rotate
0.000000 0.000000 m /one glyphshow
6.362305 0.000000 m /period glyphshow
9.541016 0.000000 m /one glyphshow
15.903320 0.000000 m /nine glyphshow
22.265625 0.000000 m /eight glyphshow
28.627930 0.000000 m /six glyphshow
grestore
gsave
/o {
gsave
newpath
translate
0.8 setlinewidth
1 setlinejoin
0 setlinecap
0 0 m
-3.5 0 l

gsave
0.000 setgray
fill
grestore
stroke
grestore
} bind def
162 405.163 o
grestore
gsave
120.015625 401.366612 translate
0.000000 rotate
0.000000 0.000000 m /one glyphshow
6.362305 0.000000 m /period glyphshow
9.541016 0.000000 m /one glyphshow
15.903320 0.000000 m /nine glyphshow
22.265625 0.000000 m /eight glyphshow
28.627930 0.000000 m /eight glyphshow
grestore
gsave
/o {
gsave
newpath
translate
0.8 setlinewidth
1 setlinejoin
0 setlinecap
0 0 m
-3.5 0 l

gsave
0.000 setgray
fill
grestore
stroke
grestore
} bind def
162 426.372 o
grestore
gsave
120.015625 422.574959 translate
0.000000 rotate
0.000000 0.000000 m /one glyphshow
6.362305 0.000000 m /period glyphshow
9.541016 0.000000 m /one glyphshow
15.903320 0.000000 m /nine glyphshow
22.265625 0.000000 m /nine glyphshow
28.627930 0.000000 m /zero glyphshow
grestore
gsave
/o {
gsave
newpath
translate
0.8 setlinewidth
1 setlinejoin
0 setlinecap
0 0 m
-3.5 0 l

gsave
0.000 setgray
fill
grestore
stroke
grestore
} bind def
162 447.58 o
grestore
gsave
120.015625 443.783306 translate
0.000000 rotate
0.000000 0.000000 m /one glyphshow
6.362305 0.000000 m /period glyphshow
9.541016 0.000000 m /one glyphshow
15.903320 0.000000 m /nine glyphshow
22.265625 0.000000 m /nine glyphshow
28.627930 0.000000 m /two glyphshow
grestore
gsave
/o {
gsave
newpath
translate
0.8 setlinewidth
1 setlinejoin
0 setlinecap
0 0 m
-3.5 0 l

gsave
0.000 setgray
fill
grestore
stroke
grestore
} bind def
162 468.789 o
grestore
gsave
120.015625 464.991652 translate
0.000000 rotate
0.000000 0.000000 m /one glyphshow
6.362305 0.000000 m /period glyphshow
9.541016 0.000000 m /one glyphshow
15.903320 0.000000 m /nine glyphshow
22.265625 0.000000 m /nine glyphshow
28.627930 0.000000 m /four glyphshow
grestore
gsave
/o {
gsave
newpath
translate
0.8 setlinewidth
1 setlinejoin
0 setlinecap
0 0 m
-3.5 0 l

gsave
0.000 setgray
fill
grestore
stroke
grestore
} bind def
162 489.997 o
grestore
gsave
120.015625 486.199999 translate
0.000000 rotate
0.000000 0.000000 m /one glyphshow
6.362305 0.000000 m /period glyphshow
9.541016 0.000000 m /one glyphshow
15.903320 0.000000 m /nine glyphshow
22.265625 0.000000 m /nine glyphshow
28.627930 0.000000 m /six glyphshow
grestore
gsave
/o {
gsave
newpath
translate
0.8 setlinewidth
1 setlinejoin
0 setlinecap
0 0 m
-3.5 0 l

gsave
0.000 setgray
fill
grestore
stroke
grestore
} bind def
162 511.205 o
grestore
gsave
120.015625 507.408346 translate
0.000000 rotate
0.000000 0.000000 m /one glyphshow
6.362305 0.000000 m /period glyphshow
9.541016 0.000000 m /one glyphshow
15.903320 0.000000 m /nine glyphshow
22.265625 0.000000 m /nine glyphshow
28.627930 0.000000 m /eight glyphshow
grestore
gsave
/o {
gsave
newpath
translate
0.8 setlinewidth
1 setlinejoin
0 setlinecap
0 0 m
-3.5 0 l

gsave
0.000 setgray
fill
grestore
stroke
grestore
} bind def
162 532.414 o
grestore
gsave
120.015625 528.616693 translate
0.000000 rotate
0.000000 0.000000 m /one glyphshow
6.362305 0.000000 m /period glyphshow
9.541016 0.000000 m /two glyphshow
15.903320 0.000000 m /zero glyphshow
22.265625 0.000000 m /zero glyphshow
28.627930 0.000000 m /zero glyphshow
grestore
gsave
113.937500 413.452112 translate
90.000000 rotate
0.000000 0.000000 m /P glyphshow
6.030273 0.000000 m /o glyphshow
12.148438 0.000000 m /w glyphshow
20.327148 0.000000 m /e glyphshow
26.479492 0.000000 m /r glyphshow
30.590820 0.000000 m /space glyphshow
33.769531 0.000000 m /bracketleft glyphshow
37.670898 0.000000 m /W glyphshow
47.558594 0.000000 m /a glyphshow
53.686523 0.000000 m /t glyphshow
57.607422 0.000000 m /t glyphshow
61.528320 0.000000 m /s glyphshow
66.738281 0.000000 m /bracketright glyphshow
grestore
gsave
162.000000 536.147586 translate
0.000000 rotate
0.000000 0.000000 m /one glyphshow
6.362305 0.000000 m /e glyphshow
12.514648 0.000000 m /minus glyphshow
20.893555 0.000000 m /one glyphshow
27.255859 0.000000 m /two glyphshow
grestore
1.500 setlinewidth
2 setlinecap
0.122 0.467 0.706 setrgbcolor
gsave
1004 168.7 162 364.4 clipbox
207.654545 525.479248 m
219.799869 525.479248 l
220.073824 496.791277 l
220.621733 448.311981 l
221.169642 417.608621 l
221.717552 398.351566 l
222.265461 386.46357 l
222.81337 379.318845 l
223.269962 375.748111 l
223.726553 373.636886 l
224.183144 372.534947 l
224.548417 372.166834 l
224.91369 372.128921 l
225.278962 372.335905 l
225.826872 372.970827 l
226.557418 374.205155 l
227.835873 376.895941 l
231.671238 385.801356 l
235.68924 394.792229 l
239.615923 403.029972 l
243.542607 410.749322 l
247.469291 417.982453 l
251.395974 424.759922 l
255.413976 431.253217 l
259.431978 437.328175 l
263.541298 443.136536 l
267.650618 448.562404 l
271.851256 453.739695 l
276.051894 458.56868 l
280.343851 463.167239 l
284.727125 467.537742 l
289.201718 471.683397 l
293.767629 475.608162 l
298.424859 479.31669 l
303.173406 482.814228 l
308.013272 486.106555 l
313.035774 489.254841 l
318.240913 492.252304 l
323.628688 495.094019 l
329.1991 497.776833 l
334.952148 500.299254 l
340.979151 502.695855 l
347.280108 504.957894 l
353.85502 507.079223 l
360.795205 509.081 l
368.100663 510.953356 l
375.862712 512.709083 l
384.081352 514.337367 l
392.847901 515.846046 l
402.344996 517.250827 l
412.572637 518.535466 l
423.71346 519.707692 l
435.950102 520.768504 l
449.556517 521.720777 l
464.806661 522.561259 l
482.248441 523.29472 l
502.521087 523.918887 l
526.811734 524.436621 l
556.946747 524.846974 l
596.578856 525.151738 l
654.109336 525.353196 l
756.477064 525.456194 l
1107.321676 525.479174 l
1120.745455 525.479191 l
1120.745455 525.479191 l
stroke
grestore
0.800 setlinewidth
0 setlinejoin
[] 0 setdash
0.000 setgray
gsave
162 364.444138 m
162 533.147586 l
stroke
grestore
gsave
1166.4 364.444138 m
1166.4 533.147586 l
stroke
grestore
gsave
162 364.444138 m
1166.4 364.444138 l
stroke
grestore
gsave
162 533.147586 m
1166.4 533.147586 l
stroke
grestore
1.000 setlinewidth
0 setlinecap
0.800 setgray
gsave
1096.790625 369.444138 m
1159.4 369.444138 l
1160.733333 369.444138 1161.4 370.110805 1161.4 371.444138 c
1161.4 385.116013 l
1161.4 386.449346 1160.733333 387.116013 1159.4 387.116013 c
1096.790625 387.116013 l
1095.457292 387.116013 1094.790625 386.449346 1094.790625 385.116013 c
1094.790625 371.444138 l
1094.790625 370.110805 1095.457292 369.444138 1096.790625 369.444138 c
cl
gsave
1.000 setgray
fill
grestore
stroke
grestore
1.500 setlinewidth
1 setlinejoin
2 setlinecap
[] 0 setdash
0.122 0.467 0.706 setrgbcolor
gsave
1098.790625 379.022263 m
1118.790625 379.022263 l
stroke
grestore
0.000 setgray
gsave
1126.790625 375.522263 translate
0.000000 rotate
0.000000 0.000000 m /P glyphshow
6.030273 0.000000 m /o glyphshow
12.148438 0.000000 m /w glyphshow
20.327148 0.000000 m /e glyphshow
26.479492 0.000000 m /r glyphshow
grestore

end
showpage
