%!PS-Adobe-3.0 EPSF-3.0
%%Title: nonlinear 20 mK pulse V2 4 Jan 2019.eps
%%Creator: matplotlib version 2.1.2, http://matplotlib.org/
%%CreationDate: Fri Jan  4 17:47:10 2019
%%Orientation: portrait
%%BoundingBox: -18 -144 630 936
%%EndComments
%%BeginProlog
/mpldict 9 dict def
mpldict begin
/m { moveto } bind def
/l { lineto } bind def
/r { rlineto } bind def
/c { curveto } bind def
/cl { closepath } bind def
/box {
m
1 index 0 r
0 exch r
neg 0 r
cl
} bind def
/clipbox {
box
clip
newpath
} bind def
%!PS-Adobe-3.0 Resource-Font
%%Title: DejaVu Sans
%%Copyright: Copyright (c) 2003 by Bitstream, Inc. All Rights Reserved. Copyright (c) 2006 by Tavmjong Bah. All Rights Reserved. DejaVu changes are in public domain 
%%Creator: Converted from TrueType to type 3 by PPR
25 dict begin
/_d{bind def}bind def
/_m{moveto}_d
/_l{lineto}_d
/_cl{closepath eofill}_d
/_c{curveto}_d
/_sc{7 -1 roll{setcachedevice}{pop pop pop pop pop pop}ifelse}_d
/_e{exec}_d
/FontName /DejaVuSans def
/PaintType 0 def
/FontMatrix[.001 0 0 .001 0 0]def
/FontBBox[-1021 -463 1793 1232]def
/FontType 3 def
/Encoding [ /space /period /zero /one /two /three /four /five /six /seven /eight /nine /A /C /E /K /N /P /R /S /T /W /bracketleft /bracketright /a /c /e /i /l /m /n /o /p /r /s /t /u /v /w /y /uni0394 /Omega ] def
/FontInfo 10 dict dup begin
/FamilyName (DejaVu Sans) def
/FullName (DejaVu Sans) def
/Notice (Copyright (c) 2003 by Bitstream, Inc. All Rights Reserved. Copyright (c) 2006 by Tavmjong Bah. All Rights Reserved. DejaVu changes are in public domain ) def
/Weight (Book) def
/Version (Version 2.35) def
/ItalicAngle 0.0 def
/isFixedPitch false def
/UnderlinePosition -130 def
/UnderlineThickness 90 def
end readonly def
/CharStrings 43 dict dup begin
/.notdef 0 def
/space{318 0 0 0 0 0 _sc
}_d
/period{318 0 107 0 210 124 _sc
107 124 _m
210 124 _l
210 0 _l
107 0 _l
107 124 _l
_cl}_d
/zero{636 0 66 -13 570 742 _sc
318 664 _m
267 664 229 639 203 589 _c
177 539 165 464 165 364 _c
165 264 177 189 203 139 _c
229 89 267 64 318 64 _c
369 64 407 89 433 139 _c
458 189 471 264 471 364 _c
471 464 458 539 433 589 _c
407 639 369 664 318 664 _c
318 742 _m
399 742 461 709 505 645 _c
548 580 570 486 570 364 _c
570 241 548 147 505 83 _c
461 19 399 -13 318 -13 _c
236 -13 173 19 130 83 _c
87 147 66 241 66 364 _c
66 486 87 580 130 645 _c
173 709 236 742 318 742 _c
_cl}_d
/one{636 0 110 0 544 729 _sc
124 83 _m
285 83 _l
285 639 _l
110 604 _l
110 694 _l
284 729 _l
383 729 _l
383 83 _l
544 83 _l
544 0 _l
124 0 _l
124 83 _l
_cl}_d
/two{{636 0 73 0 536 742 _sc
192 83 _m
536 83 _l
536 0 _l
73 0 _l
73 83 _l
110 121 161 173 226 239 _c
290 304 331 346 348 365 _c
380 400 402 430 414 455 _c
426 479 433 504 433 528 _c
433 566 419 598 392 622 _c
365 646 330 659 286 659 _c
255 659 222 653 188 643 _c
154 632 117 616 78 594 _c
78 694 _l
118 710 155 722 189 730 _c
223 738 255 742 284 742 _c
}_e{359 742 419 723 464 685 _c
509 647 532 597 532 534 _c
532 504 526 475 515 449 _c
504 422 484 390 454 354 _c
446 344 420 317 376 272 _c
332 227 271 164 192 83 _c
_cl}_e}_d
/three{{636 0 76 -13 556 742 _sc
406 393 _m
453 383 490 362 516 330 _c
542 298 556 258 556 212 _c
556 140 531 84 482 45 _c
432 6 362 -13 271 -13 _c
240 -13 208 -10 176 -4 _c
144 1 110 10 76 22 _c
76 117 _l
103 101 133 89 166 81 _c
198 73 232 69 268 69 _c
330 69 377 81 409 105 _c
441 129 458 165 458 212 _c
458 254 443 288 413 312 _c
383 336 341 349 287 349 _c
}_e{202 349 _l
202 430 _l
291 430 _l
339 430 376 439 402 459 _c
428 478 441 506 441 543 _c
441 580 427 609 401 629 _c
374 649 336 659 287 659 _c
260 659 231 656 200 650 _c
169 644 135 635 98 623 _c
98 711 _l
135 721 170 729 203 734 _c
235 739 266 742 296 742 _c
370 742 429 725 473 691 _c
517 657 539 611 539 553 _c
539 513 527 479 504 451 _c
481 423 448 403 406 393 _c
_cl}_e}_d
/four{636 0 49 0 580 729 _sc
378 643 _m
129 254 _l
378 254 _l
378 643 _l
352 729 _m
476 729 _l
476 254 _l
580 254 _l
580 172 _l
476 172 _l
476 0 _l
378 0 _l
378 172 _l
49 172 _l
49 267 _l
352 729 _l
_cl}_d
/five{{636 0 77 -13 549 729 _sc
108 729 _m
495 729 _l
495 646 _l
198 646 _l
198 467 _l
212 472 227 476 241 478 _c
255 480 270 482 284 482 _c
365 482 429 459 477 415 _c
525 370 549 310 549 234 _c
549 155 524 94 475 51 _c
426 8 357 -13 269 -13 _c
238 -13 207 -10 175 -6 _c
143 -1 111 6 77 17 _c
77 116 _l
106 100 136 88 168 80 _c
199 72 232 69 267 69 _c
}_e{323 69 368 83 401 113 _c
433 143 450 183 450 234 _c
450 284 433 324 401 354 _c
368 384 323 399 267 399 _c
241 399 214 396 188 390 _c
162 384 135 375 108 363 _c
108 729 _l
_cl}_e}_d
/six{{636 0 70 -13 573 742 _sc
330 404 _m
286 404 251 388 225 358 _c
199 328 186 286 186 234 _c
186 181 199 139 225 109 _c
251 79 286 64 330 64 _c
374 64 409 79 435 109 _c
461 139 474 181 474 234 _c
474 286 461 328 435 358 _c
409 388 374 404 330 404 _c
526 713 _m
526 623 _l
501 635 476 644 451 650 _c
425 656 400 659 376 659 _c
310 659 260 637 226 593 _c
}_e{192 549 172 482 168 394 _c
187 422 211 444 240 459 _c
269 474 301 482 336 482 _c
409 482 467 459 509 415 _c
551 371 573 310 573 234 _c
573 159 550 99 506 54 _c
462 9 403 -13 330 -13 _c
246 -13 181 19 137 83 _c
92 147 70 241 70 364 _c
70 479 97 571 152 639 _c
206 707 280 742 372 742 _c
396 742 421 739 447 735 _c
472 730 498 723 526 713 _c
_cl}_e}_d
/seven{636 0 82 0 551 729 _sc
82 729 _m
551 729 _l
551 687 _l
286 0 _l
183 0 _l
432 646 _l
82 646 _l
82 729 _l
_cl}_d
/eight{{636 0 68 -13 568 742 _sc
318 346 _m
271 346 234 333 207 308 _c
180 283 167 249 167 205 _c
167 161 180 126 207 101 _c
234 76 271 64 318 64 _c
364 64 401 76 428 102 _c
455 127 469 161 469 205 _c
469 249 455 283 429 308 _c
402 333 365 346 318 346 _c
219 388 _m
177 398 144 418 120 447 _c
96 476 85 511 85 553 _c
85 611 105 657 147 691 _c
188 725 245 742 318 742 _c
}_e{390 742 447 725 489 691 _c
530 657 551 611 551 553 _c
551 511 539 476 515 447 _c
491 418 459 398 417 388 _c
464 377 501 355 528 323 _c
554 291 568 251 568 205 _c
568 134 546 80 503 43 _c
459 5 398 -13 318 -13 _c
237 -13 175 5 132 43 _c
89 80 68 134 68 205 _c
68 251 81 291 108 323 _c
134 355 171 377 219 388 _c
183 544 _m
183 506 194 476 218 455 _c
}_e{242 434 275 424 318 424 _c
360 424 393 434 417 455 _c
441 476 453 506 453 544 _c
453 582 441 611 417 632 _c
393 653 360 664 318 664 _c
275 664 242 653 218 632 _c
194 611 183 582 183 544 _c
_cl}_e}_d
/nine{{636 0 63 -13 566 742 _sc
110 15 _m
110 105 _l
134 93 159 84 185 78 _c
210 72 235 69 260 69 _c
324 69 374 90 408 134 _c
442 178 462 244 468 334 _c
448 306 424 284 396 269 _c
367 254 335 247 300 247 _c
226 247 168 269 126 313 _c
84 357 63 417 63 494 _c
63 568 85 628 129 674 _c
173 719 232 742 306 742 _c
390 742 455 709 499 645 _c
543 580 566 486 566 364 _c
}_e{566 248 538 157 484 89 _c
429 21 356 -13 264 -13 _c
239 -13 214 -10 189 -6 _c
163 -2 137 5 110 15 _c
306 324 _m
350 324 385 339 411 369 _c
437 399 450 441 450 494 _c
450 546 437 588 411 618 _c
385 648 350 664 306 664 _c
262 664 227 648 201 618 _c
175 588 162 546 162 494 _c
162 441 175 399 201 369 _c
227 339 262 324 306 324 _c
_cl}_e}_d
/A{684 0 8 0 676 729 _sc
342 632 _m
208 269 _l
476 269 _l
342 632 _l
286 729 _m
398 729 _l
676 0 _l
573 0 _l
507 187 _l
178 187 _l
112 0 _l
8 0 _l
286 729 _l
_cl}_d
/C{{698 0 56 -13 644 742 _sc
644 673 _m
644 569 _l
610 599 575 622 537 638 _c
499 653 460 661 418 661 _c
334 661 270 635 226 584 _c
182 533 160 460 160 364 _c
160 268 182 194 226 143 _c
270 92 334 67 418 67 _c
460 67 499 74 537 90 _c
575 105 610 128 644 159 _c
644 56 _l
609 32 572 15 534 4 _c
496 -7 455 -13 412 -13 _c
302 -13 215 20 151 87 _c
}_e{87 154 56 246 56 364 _c
56 481 87 573 151 641 _c
215 708 302 742 412 742 _c
456 742 497 736 535 725 _c
573 713 610 696 644 673 _c
_cl}_e}_d
/E{632 0 98 0 568 729 _sc
98 729 _m
559 729 _l
559 646 _l
197 646 _l
197 430 _l
544 430 _l
544 347 _l
197 347 _l
197 83 _l
568 83 _l
568 0 _l
98 0 _l
98 729 _l
_cl}_d
/K{656 0 98 0 677 729 _sc
98 729 _m
197 729 _l
197 421 _l
524 729 _l
651 729 _l
289 389 _l
677 0 _l
547 0 _l
197 351 _l
197 0 _l
98 0 _l
98 729 _l
_cl}_d
/N{748 0 98 0 650 729 _sc
98 729 _m
231 729 _l
554 119 _l
554 729 _l
650 729 _l
650 0 _l
517 0 _l
194 610 _l
194 0 _l
98 0 _l
98 729 _l
_cl}_d
/P{603 0 98 0 569 729 _sc
197 648 _m
197 374 _l
321 374 _l
367 374 402 385 427 409 _c
452 433 465 467 465 511 _c
465 555 452 588 427 612 _c
402 636 367 648 321 648 _c
197 648 _l
98 729 _m
321 729 _l
402 729 464 710 506 673 _c
548 636 569 582 569 511 _c
569 439 548 384 506 348 _c
464 311 402 293 321 293 _c
197 293 _l
197 0 _l
98 0 _l
98 729 _l
_cl}_d
/R{{695 0 98 0 666 729 _sc
444 342 _m
465 334 486 319 506 296 _c
526 272 546 240 566 199 _c
666 0 _l
560 0 _l
467 187 _l
443 235 419 268 397 284 _c
374 300 343 308 304 308 _c
197 308 _l
197 0 _l
98 0 _l
98 729 _l
321 729 _l
404 729 466 711 507 677 _c
548 642 569 589 569 519 _c
569 473 558 434 537 404 _c
515 374 484 353 444 342 _c
197 648 _m
197 389 _l
321 389 _l
}_e{368 389 404 400 428 422 _c
452 444 465 476 465 519 _c
465 561 452 593 428 615 _c
404 637 368 648 321 648 _c
197 648 _l
_cl}_e}_d
/S{{635 0 66 -13 579 742 _sc
535 705 _m
535 609 _l
497 627 462 640 429 649 _c
395 657 363 662 333 662 _c
279 662 237 651 208 631 _c
179 610 165 580 165 542 _c
165 510 174 485 194 469 _c
213 452 250 439 304 429 _c
364 417 _l
437 403 491 378 526 343 _c
561 307 579 260 579 201 _c
579 130 555 77 508 41 _c
460 5 391 -13 300 -13 _c
265 -13 228 -9 189 -2 _c
}_e{150 5 110 16 69 32 _c
69 134 _l
109 111 148 94 186 83 _c
224 71 262 66 300 66 _c
356 66 399 77 430 99 _c
460 121 476 152 476 194 _c
476 230 465 258 443 278 _c
421 298 385 313 335 323 _c
275 335 _l
201 349 148 372 115 404 _c
82 435 66 478 66 534 _c
66 598 88 649 134 686 _c
179 723 242 742 322 742 _c
356 742 390 739 426 733 _c
461 727 497 717 535 705 _c
}_e{_cl}_e}_d
/T{611 0 -2 0 614 729 _sc
-2 729 _m
614 729 _l
614 646 _l
355 646 _l
355 0 _l
256 0 _l
256 646 _l
-2 646 _l
-2 729 _l
_cl}_d
/W{989 0 33 0 956 729 _sc
33 729 _m
133 729 _l
286 113 _l
439 729 _l
550 729 _l
703 113 _l
856 729 _l
956 729 _l
773 0 _l
649 0 _l
495 633 _l
340 0 _l
216 0 _l
33 729 _l
_cl}_d
/bracketleft{390 0 86 -131 293 760 _sc
86 760 _m
293 760 _l
293 690 _l
176 690 _l
176 -61 _l
293 -61 _l
293 -131 _l
86 -131 _l
86 760 _l
_cl}_d
/bracketright{390 0 97 -131 304 760 _sc
304 760 _m
304 -131 _l
97 -131 _l
97 -61 _l
214 -61 _l
214 690 _l
97 690 _l
97 760 _l
304 760 _l
_cl}_d
/a{{613 0 60 -13 522 560 _sc
343 275 _m
270 275 220 266 192 250 _c
164 233 150 205 150 165 _c
150 133 160 107 181 89 _c
202 70 231 61 267 61 _c
317 61 357 78 387 114 _c
417 149 432 196 432 255 _c
432 275 _l
343 275 _l
522 312 _m
522 0 _l
432 0 _l
432 83 _l
411 49 385 25 355 10 _c
325 -5 287 -13 243 -13 _c
187 -13 142 2 109 33 _c
76 64 60 106 60 159 _c
}_e{60 220 80 266 122 298 _c
163 329 224 345 306 345 _c
432 345 _l
432 354 _l
432 395 418 427 391 450 _c
364 472 326 484 277 484 _c
245 484 215 480 185 472 _c
155 464 127 453 100 439 _c
100 522 _l
132 534 164 544 195 550 _c
226 556 256 560 286 560 _c
365 560 424 539 463 498 _c
502 457 522 395 522 312 _c
_cl}_e}_d
/c{{550 0 55 -13 488 560 _sc
488 526 _m
488 442 _l
462 456 437 466 411 473 _c
385 480 360 484 334 484 _c
276 484 230 465 198 428 _c
166 391 150 339 150 273 _c
150 206 166 154 198 117 _c
230 80 276 62 334 62 _c
360 62 385 65 411 72 _c
437 79 462 90 488 104 _c
488 21 _l
462 9 436 0 410 -5 _c
383 -10 354 -13 324 -13 _c
242 -13 176 12 128 64 _c
}_e{79 115 55 185 55 273 _c
55 362 79 432 128 483 _c
177 534 244 560 330 560 _c
358 560 385 557 411 551 _c
437 545 463 537 488 526 _c
_cl}_e}_d
/e{{615 0 55 -13 562 560 _sc
562 296 _m
562 252 _l
149 252 _l
153 190 171 142 205 110 _c
238 78 284 62 344 62 _c
378 62 412 66 444 74 _c
476 82 509 95 541 113 _c
541 28 _l
509 14 476 3 442 -3 _c
408 -9 373 -13 339 -13 _c
251 -13 182 12 131 62 _c
80 112 55 181 55 268 _c
55 357 79 428 127 481 _c
175 533 241 560 323 560 _c
397 560 455 536 498 489 _c
}_e{540 441 562 377 562 296 _c
472 322 _m
471 371 457 410 431 440 _c
404 469 368 484 324 484 _c
274 484 234 469 204 441 _c
174 413 156 373 152 322 _c
472 322 _l
_cl}_e}_d
/i{278 0 94 0 184 760 _sc
94 547 _m
184 547 _l
184 0 _l
94 0 _l
94 547 _l
94 760 _m
184 760 _l
184 646 _l
94 646 _l
94 760 _l
_cl}_d
/l{278 0 94 0 184 760 _sc
94 760 _m
184 760 _l
184 0 _l
94 0 _l
94 760 _l
_cl}_d
/m{{974 0 91 0 889 560 _sc
520 442 _m
542 482 569 511 600 531 _c
631 550 668 560 711 560 _c
767 560 811 540 842 500 _c
873 460 889 403 889 330 _c
889 0 _l
799 0 _l
799 327 _l
799 379 789 418 771 444 _c
752 469 724 482 686 482 _c
639 482 602 466 575 435 _c
548 404 535 362 535 309 _c
535 0 _l
445 0 _l
445 327 _l
445 379 435 418 417 444 _c
398 469 369 482 331 482 _c
}_e{285 482 248 466 221 435 _c
194 404 181 362 181 309 _c
181 0 _l
91 0 _l
91 547 _l
181 547 _l
181 462 _l
201 495 226 520 255 536 _c
283 552 317 560 357 560 _c
397 560 430 550 458 530 _c
486 510 506 480 520 442 _c
_cl}_e}_d
/n{634 0 91 0 549 560 _sc
549 330 _m
549 0 _l
459 0 _l
459 327 _l
459 379 448 417 428 443 _c
408 469 378 482 338 482 _c
289 482 251 466 223 435 _c
195 404 181 362 181 309 _c
181 0 _l
91 0 _l
91 547 _l
181 547 _l
181 462 _l
202 494 227 519 257 535 _c
286 551 320 560 358 560 _c
420 560 468 540 500 501 _c
532 462 549 405 549 330 _c
_cl}_d
/o{612 0 55 -13 557 560 _sc
306 484 _m
258 484 220 465 192 427 _c
164 389 150 338 150 273 _c
150 207 163 156 191 118 _c
219 80 257 62 306 62 _c
354 62 392 80 420 118 _c
448 156 462 207 462 273 _c
462 337 448 389 420 427 _c
392 465 354 484 306 484 _c
306 560 _m
384 560 445 534 490 484 _c
534 433 557 363 557 273 _c
557 183 534 113 490 63 _c
445 12 384 -13 306 -13 _c
227 -13 165 12 121 63 _c
77 113 55 183 55 273 _c
55 363 77 433 121 484 _c
165 534 227 560 306 560 _c
_cl}_d
/p{{635 0 91 -207 580 560 _sc
181 82 _m
181 -207 _l
91 -207 _l
91 547 _l
181 547 _l
181 464 _l
199 496 223 520 252 536 _c
281 552 316 560 356 560 _c
422 560 476 533 518 481 _c
559 428 580 359 580 273 _c
580 187 559 117 518 65 _c
476 13 422 -13 356 -13 _c
316 -13 281 -5 252 10 _c
223 25 199 49 181 82 _c
487 273 _m
487 339 473 390 446 428 _c
418 466 381 485 334 485 _c
}_e{286 485 249 466 222 428 _c
194 390 181 339 181 273 _c
181 207 194 155 222 117 _c
249 79 286 61 334 61 _c
381 61 418 79 446 117 _c
473 155 487 207 487 273 _c
_cl}_e}_d
/r{411 0 91 0 411 560 _sc
411 463 _m
401 469 390 473 378 476 _c
366 478 353 480 339 480 _c
288 480 249 463 222 430 _c
194 397 181 350 181 288 _c
181 0 _l
91 0 _l
91 547 _l
181 547 _l
181 462 _l
199 495 224 520 254 536 _c
284 552 321 560 365 560 _c
371 560 378 559 386 559 _c
393 558 401 557 411 555 _c
411 463 _l
_cl}_d
/s{{521 0 54 -13 472 560 _sc
443 531 _m
443 446 _l
417 458 391 468 364 475 _c
336 481 308 485 279 485 _c
234 485 200 478 178 464 _c
156 450 145 430 145 403 _c
145 382 153 366 169 354 _c
185 342 217 330 265 320 _c
296 313 _l
360 299 405 279 432 255 _c
458 230 472 195 472 151 _c
472 100 452 60 412 31 _c
372 1 316 -13 246 -13 _c
216 -13 186 -10 154 -5 _c
}_e{122 0 89 8 54 20 _c
54 113 _l
87 95 120 82 152 74 _c
184 65 216 61 248 61 _c
290 61 323 68 346 82 _c
368 96 380 117 380 144 _c
380 168 371 187 355 200 _c
339 213 303 226 247 238 _c
216 245 _l
160 257 119 275 95 299 _c
70 323 58 356 58 399 _c
58 450 76 490 112 518 _c
148 546 200 560 268 560 _c
301 560 332 557 362 552 _c
391 547 418 540 443 531 _c
}_e{_cl}_e}_d
/t{392 0 27 0 368 702 _sc
183 702 _m
183 547 _l
368 547 _l
368 477 _l
183 477 _l
183 180 _l
183 135 189 106 201 94 _c
213 81 238 75 276 75 _c
368 75 _l
368 0 _l
276 0 _l
206 0 158 13 132 39 _c
106 65 93 112 93 180 _c
93 477 _l
27 477 _l
27 547 _l
93 547 _l
93 702 _l
183 702 _l
_cl}_d
/u{634 0 85 -13 543 560 _sc
85 216 _m
85 547 _l
175 547 _l
175 219 _l
175 167 185 129 205 103 _c
225 77 255 64 296 64 _c
344 64 383 79 411 110 _c
439 141 453 183 453 237 _c
453 547 _l
543 547 _l
543 0 _l
453 0 _l
453 84 _l
431 50 405 26 377 10 _c
348 -5 315 -13 277 -13 _c
214 -13 166 6 134 45 _c
101 83 85 140 85 216 _c
311 560 _m
311 560 _l
_cl}_d
/v{592 0 30 0 562 547 _sc
30 547 _m
125 547 _l
296 88 _l
467 547 _l
562 547 _l
357 0 _l
235 0 _l
30 547 _l
_cl}_d
/w{818 0 42 0 776 547 _sc
42 547 _m
132 547 _l
244 120 _l
356 547 _l
462 547 _l
574 120 _l
686 547 _l
776 547 _l
633 0 _l
527 0 _l
409 448 _l
291 0 _l
185 0 _l
42 547 _l
_cl}_d
/y{592 0 30 -207 562 547 _sc
322 -50 _m
296 -114 271 -157 247 -177 _c
223 -197 191 -207 151 -207 _c
79 -207 _l
79 -132 _l
132 -132 _l
156 -132 175 -126 189 -114 _c
203 -102 218 -75 235 -31 _c
251 9 _l
30 547 _l
125 547 _l
296 119 _l
467 547 _l
562 547 _l
322 -50 _l
_cl}_d
/uni0394{684 0 8 0 676 729 _sc
342 632 _m
142 82 _l
542 82 _l
342 632 _l
8 0 _m
286 729 _l
398 729 _l
676 0 _l
8 0 _l
_cl}_d
/Omega{{764 0 38 0 726 738 _sc
726 87 _m
726 0 _l
433 0 _l
433 87 _l
491 118 536 161 568 215 _c
600 269 616 329 616 395 _c
616 473 594 535 552 583 _c
508 630 452 654 382 654 _c
311 654 254 630 211 583 _c
168 535 147 473 147 395 _c
147 329 163 269 195 215 _c
227 161 273 118 331 87 _c
331 0 _l
38 0 _l
38 87 _l
194 87 _l
142 132 105 179 81 228 _c
}_e{57 276 46 330 46 390 _c
46 493 77 577 140 642 _c
202 706 282 738 382 738 _c
480 738 561 706 624 642 _c
686 578 718 495 718 395 _c
718 331 706 276 683 228 _c
659 180 622 133 570 87 _c
726 87 _l
_cl}_e}_d
end readonly def

/BuildGlyph
 {exch begin
 CharStrings exch
 2 copy known not{pop /.notdef}if
 true 3 1 roll get exec
 end}_d

/BuildChar {
 1 index /Encoding get exch get
 1 index /BuildGlyph get exec
}_d

FontName currentdict end definefont pop
%!PS-Adobe-3.0 Resource-Font
%%Title: DejaVu Sans Oblique
%%Copyright: Copyright (c) 2003 by Bitstream, Inc. All Rights Reserved. Copyright (c) 2006 by Tavmjong Bah. All Rights Reserved. DejaVu changes are in public domain 
%%Creator: Converted from TrueType to type 3 by PPR
25 dict begin
/_d{bind def}bind def
/_m{moveto}_d
/_l{lineto}_d
/_cl{closepath eofill}_d
/_c{curveto}_d
/_sc{7 -1 roll{setcachedevice}{pop pop pop pop pop pop}ifelse}_d
/_e{exec}_d
/FontName /DejaVuSans-Oblique def
/PaintType 0 def
/FontMatrix[.001 0 0 .001 0 0]def
/FontBBox[-1016 -350 1659 1068]def
/FontType 3 def
/Encoding [ /T /mu /uni03BC ] def
/FontInfo 10 dict dup begin
/FamilyName (DejaVu Sans) def
/FullName (DejaVu Sans Oblique) def
/Notice (Copyright (c) 2003 by Bitstream, Inc. All Rights Reserved. Copyright (c) 2006 by Tavmjong Bah. All Rights Reserved. DejaVu changes are in public domain ) def
/Weight (Oblique) def
/Version (Version 2.35) def
/ItalicAngle -11.0 def
/isFixedPitch false def
/UnderlinePosition -130 def
/UnderlineThickness 90 def
end readonly def
/CharStrings 4 dict dup begin
/.notdef 0 def
/T{611 0 43 0 676 729 _sc
59 729 _m
676 729 _l
660 646 _l
400 646 _l
275 0 _l
176 0 _l
301 646 _l
43 646 _l
59 729 _l
_cl}_d
/mu{{636 0 -12 -207 592 547 _sc
-12 -207 _m
134 547 _l
224 547 _l
158 207 _l
156 199 155 191 154 183 _c
153 175 153 166 153 158 _c
153 128 162 104 181 88 _c
200 72 227 64 263 64 _c
311 64 349 77 379 105 _c
409 132 429 173 440 228 _c
502 547 _l
592 547 _l
510 126 _l
508 120 507 114 507 110 _c
507 106 507 102 507 98 _c
507 88 509 80 513 76 _c
517 71 523 69 532 69 _c
}_e{535 69 539 69 545 71 _c
551 73 559 76 570 80 _c
556 8 _l
542 1 528 -3 515 -7 _c
502 -11 489 -13 477 -13 _c
455 -13 438 -6 426 7 _c
414 20 408 39 408 63 _c
390 37 368 17 343 5 _c
317 -7 288 -13 254 -13 _c
223 -13 196 -6 174 7 _c
152 21 137 39 130 62 _c
77 -207 _l
-12 -207 _l
_cl}_e}_d
/uni03BC{636 0 -12 -207 592 547 _sc
false CharStrings /mu get exec
}_d
end readonly def

/BuildGlyph
 {exch begin
 CharStrings exch
 2 copy known not{pop /.notdef}if
 true 3 1 roll get exec
 end}_d

/BuildChar {
 1 index /Encoding get exch get
 1 index /BuildGlyph get exec
}_d

FontName currentdict end definefont pop
end
%%EndProlog
mpldict begin
-18 -144 translate
648 1080 0 0 clipbox
gsave
0 0 m
648 0 l
648 1080 l
0 1080 l
cl
1.000 setgray
fill
grestore
gsave
81 809.813793 m
583.2 809.813793 l
583.2 950.4 l
81 950.4 l
cl
1.000 setgray
fill
grestore
0.800 setlinewidth
1 setlinejoin
0 setlinecap
[] 0 setdash
0.000 setgray
gsave
/o {
gsave
newpath
translate
0.8 setlinewidth
1 setlinejoin
0 setlinecap
0 0 m
0 -3.5 l

gsave
0.000 setgray
fill
grestore
stroke
grestore
} bind def
119.048 809.814 o
grestore
gsave
/o {
gsave
newpath
translate
0.8 setlinewidth
1 setlinejoin
0 setlinecap
0 0 m
0 -3.5 l

gsave
0.000 setgray
fill
grestore
stroke
grestore
} bind def
195.15 809.814 o
grestore
gsave
/o {
gsave
newpath
translate
0.8 setlinewidth
1 setlinejoin
0 setlinecap
0 0 m
0 -3.5 l

gsave
0.000 setgray
fill
grestore
stroke
grestore
} bind def
271.252 809.814 o
grestore
gsave
/o {
gsave
newpath
translate
0.8 setlinewidth
1 setlinejoin
0 setlinecap
0 0 m
0 -3.5 l

gsave
0.000 setgray
fill
grestore
stroke
grestore
} bind def
347.355 809.814 o
grestore
gsave
/o {
gsave
newpath
translate
0.8 setlinewidth
1 setlinejoin
0 setlinecap
0 0 m
0 -3.5 l

gsave
0.000 setgray
fill
grestore
stroke
grestore
} bind def
423.457 809.814 o
grestore
gsave
/o {
gsave
newpath
translate
0.8 setlinewidth
1 setlinejoin
0 setlinecap
0 0 m
0 -3.5 l

gsave
0.000 setgray
fill
grestore
stroke
grestore
} bind def
499.559 809.814 o
grestore
gsave
/o {
gsave
newpath
translate
0.8 setlinewidth
1 setlinejoin
0 setlinecap
0 0 m
0 -3.5 l

gsave
0.000 setgray
fill
grestore
stroke
grestore
} bind def
575.662 809.814 o
grestore
gsave
/o {
gsave
newpath
translate
0.8 setlinewidth
1 setlinejoin
0 setlinecap
0 0 m
-3.5 0 l

gsave
0.000 setgray
fill
grestore
stroke
grestore
} bind def
81 817.676 o
grestore
/DejaVuSans findfont
13.000 scalefont
setfont
gsave
53.328125 812.738867 translate
0.000000 rotate
0.000000 0.000000 m /zero glyphshow
8.270996 0.000000 m /period glyphshow
12.403320 0.000000 m /zero glyphshow
grestore
gsave
/o {
gsave
newpath
translate
0.8 setlinewidth
1 setlinejoin
0 setlinecap
0 0 m
-3.5 0 l

gsave
0.000 setgray
fill
grestore
stroke
grestore
} bind def
81 871.677 o
grestore
gsave
53.328125 866.739210 translate
0.000000 rotate
0.000000 0.000000 m /zero glyphshow
8.270996 0.000000 m /period glyphshow
12.403320 0.000000 m /two glyphshow
grestore
gsave
/o {
gsave
newpath
translate
0.8 setlinewidth
1 setlinejoin
0 setlinecap
0 0 m
-3.5 0 l

gsave
0.000 setgray
fill
grestore
stroke
grestore
} bind def
81 925.677 o
grestore
gsave
53.328125 920.739553 translate
0.000000 rotate
0.000000 0.000000 m /zero glyphshow
8.270996 0.000000 m /period glyphshow
12.403320 0.000000 m /four glyphshow
grestore
gsave
45.328125 852.106897 translate
90.000000 rotate
/DejaVuSans findfont
15.0 scalefont
setfont
0.000000 0.609375 moveto
/uni0394 glyphshow

/DejaVuSans-Oblique findfont
15.0 scalefont
setfont
10.261230 0.609375 moveto
/T glyphshow

/DejaVuSans findfont
15.0 scalefont
setfont
19.423828 0.609375 moveto
/space glyphshow

24.191895 0.609375 moveto
/bracketleft glyphshow

/DejaVuSans-Oblique findfont
15.0 scalefont
setfont
30.043945 0.609375 moveto
/uni03BC glyphshow

/DejaVuSans findfont
15.0 scalefont
setfont
39.587402 0.609375 moveto
/K glyphshow

49.423828 0.609375 moveto
/bracketright glyphshow


grestore
3.000 setlinewidth
2 setlinecap
gsave
502.2 140.6 81 809.8 clipbox
103.827273 816.204075 m
119.011205 816.204421 l
119.239535 831.592552 l
119.810359 869.128511 l
120.381184 894.838999 l
120.952008 912.350329 l
121.522833 924.178981 l
122.093658 932.069655 l
122.664482 937.232033 l
123.235307 940.504876 l
123.806131 942.469768 l
124.262791 943.375451 l
124.71945 943.852085 l
125.17611 944.009718 l
125.63277 943.930549 l
126.203594 943.590577 l
127.002748 942.81187 l
128.144397 941.345369 l
130.199366 938.273309 l
138.076744 926.25781 l
142.64334 919.787458 l
147.209937 913.696797 l
151.890698 907.825182 l
156.571459 902.307066 l
161.366385 896.998677 l
166.161311 892.017458 l
171.070402 887.235551 l
176.093658 882.65442 l
181.231078 878.274552 l
186.368499 874.183306 l
191.620085 870.279668 l
197.1 866.486192 l
202.69408 862.887993 l
208.402326 859.481615 l
214.224736 856.263007 l
220.275476 853.171533 l
226.554545 850.21538 l
233.061945 847.400906 l
239.797674 844.732719 l
246.761734 842.213775 l
254.068288 839.809676 l
261.717336 837.530605 l
269.708879 835.384177 l
278.157082 833.349538 l
287.061945 831.438121 l
296.423467 829.658005 l
306.355814 827.99622 l
316.97315 826.446168 l
328.389641 825.006032 l
340.71945 823.677283 l
354.076744 822.463223 l
368.804017 821.35199 l
385.015433 820.35552 l
403.167653 819.466879 l
423.717336 818.688259 l
447.463636 818.017033 l
475.548203 817.453351 l
509.797674 816.997587 l
553.636998 816.648283 l
560.372727 816.610443 l
560.372727 816.610443 l
stroke
grestore
0.800 setlinewidth
0 setlinejoin
[] 0 setdash
gsave
81 809.813793 m
81 950.4 l
stroke
grestore
gsave
583.2 809.813793 m
583.2 950.4 l
stroke
grestore
gsave
81 809.813793 m
583.2 809.813793 l
stroke
grestore
gsave
81 950.4 m
583.2 950.4 l
stroke
grestore
/DejaVuSans findfont
20.000 scalefont
setfont
gsave
249.256250 956.400000 translate
0.000000 rotate
0.000000 0.000000 m /N glyphshow
14.960938 0.000000 m /o glyphshow
27.197266 0.000000 m /n glyphshow
39.873047 0.000000 m /l glyphshow
45.429688 0.000000 m /i glyphshow
50.986328 0.000000 m /n glyphshow
63.662109 0.000000 m /e glyphshow
75.966797 0.000000 m /a glyphshow
88.222656 0.000000 m /r glyphshow
96.445312 0.000000 m /space glyphshow
102.802734 0.000000 m /S glyphshow
115.498047 0.000000 m /o glyphshow
127.734375 0.000000 m /l glyphshow
133.291016 0.000000 m /v glyphshow
145.126953 0.000000 m /e glyphshow
157.431641 0.000000 m /r glyphshow
grestore
1.000 setlinewidth
0 setlinecap
0.800 setgray
gsave
266.575 916.384375 m
572.7 916.384375 l
574.7 916.384375 575.7 917.384375 575.7 919.384375 c
575.7 939.9 l
575.7 941.9 574.7 942.9 572.7 942.9 c
266.575 942.9 l
264.575 942.9 263.575 941.9 263.575 939.9 c
263.575 919.384375 l
263.575 917.384375 264.575 916.384375 266.575 916.384375 c
cl
gsave
1.000 setgray
fill
grestore
stroke
grestore
3.000 setlinewidth
1 setlinejoin
2 setlinecap
[] 0 setdash
0.000 setgray
gsave
269.575 930.759375 m
299.575 930.759375 l
stroke
grestore
/DejaVuSans findfont
15.000 scalefont
setfont
gsave
311.575000 925.509375 translate
0.000000 rotate
0.000000 0.000000 m /T glyphshow
9.162598 0.000000 m /E glyphshow
18.640137 0.000000 m /S glyphshow
28.161621 0.000000 m /space glyphshow
32.929688 0.000000 m /E glyphshow
42.407227 0.000000 m /l glyphshow
46.574707 0.000000 m /e glyphshow
55.803223 0.000000 m /c glyphshow
64.050293 0.000000 m /t glyphshow
69.931641 0.000000 m /r glyphshow
76.098633 0.000000 m /o glyphshow
85.275879 0.000000 m /n glyphshow
94.782715 0.000000 m /space glyphshow
99.550781 0.000000 m /S glyphshow
109.072266 0.000000 m /y glyphshow
117.949219 0.000000 m /s glyphshow
125.764160 0.000000 m /t glyphshow
131.645508 0.000000 m /e glyphshow
140.874023 0.000000 m /m glyphshow
155.485840 0.000000 m /space glyphshow
160.253906 0.000000 m /T glyphshow
169.385254 0.000000 m /e glyphshow
178.613770 0.000000 m /m glyphshow
193.225586 0.000000 m /p glyphshow
202.747070 0.000000 m /e glyphshow
211.975586 0.000000 m /r glyphshow
218.142578 0.000000 m /a glyphshow
227.334473 0.000000 m /t glyphshow
233.215820 0.000000 m /u glyphshow
242.722656 0.000000 m /r glyphshow
248.889648 0.000000 m /e glyphshow
grestore
gsave
81 641.110345 m
583.2 641.110345 l
583.2 781.696552 l
81 781.696552 l
cl
1.000 setgray
fill
grestore
0.800 setlinewidth
0 setlinecap
gsave
/o {
gsave
newpath
translate
0.8 setlinewidth
1 setlinejoin
0 setlinecap
0 0 m
0 -3.5 l

gsave
0.000 setgray
fill
grestore
stroke
grestore
} bind def
119.048 641.11 o
grestore
gsave
/o {
gsave
newpath
translate
0.8 setlinewidth
1 setlinejoin
0 setlinecap
0 0 m
0 -3.5 l

gsave
0.000 setgray
fill
grestore
stroke
grestore
} bind def
195.15 641.11 o
grestore
gsave
/o {
gsave
newpath
translate
0.8 setlinewidth
1 setlinejoin
0 setlinecap
0 0 m
0 -3.5 l

gsave
0.000 setgray
fill
grestore
stroke
grestore
} bind def
271.252 641.11 o
grestore
gsave
/o {
gsave
newpath
translate
0.8 setlinewidth
1 setlinejoin
0 setlinecap
0 0 m
0 -3.5 l

gsave
0.000 setgray
fill
grestore
stroke
grestore
} bind def
347.355 641.11 o
grestore
gsave
/o {
gsave
newpath
translate
0.8 setlinewidth
1 setlinejoin
0 setlinecap
0 0 m
0 -3.5 l

gsave
0.000 setgray
fill
grestore
stroke
grestore
} bind def
423.457 641.11 o
grestore
gsave
/o {
gsave
newpath
translate
0.8 setlinewidth
1 setlinejoin
0 setlinecap
0 0 m
0 -3.5 l

gsave
0.000 setgray
fill
grestore
stroke
grestore
} bind def
499.559 641.11 o
grestore
gsave
/o {
gsave
newpath
translate
0.8 setlinewidth
1 setlinejoin
0 setlinecap
0 0 m
0 -3.5 l

gsave
0.000 setgray
fill
grestore
stroke
grestore
} bind def
575.662 641.11 o
grestore
gsave
/o {
gsave
newpath
translate
0.8 setlinewidth
1 setlinejoin
0 setlinecap
0 0 m
-3.5 0 l

gsave
0.000 setgray
fill
grestore
stroke
grestore
} bind def
81 660.166 o
grestore
/DejaVuSans findfont
13.000 scalefont
setfont
gsave
28.531250 655.228267 translate
0.000000 rotate
0.000000 0.000000 m /one glyphshow
8.270996 0.000000 m /five glyphshow
16.541992 0.000000 m /four glyphshow
24.812988 0.000000 m /seven glyphshow
33.083984 0.000000 m /period glyphshow
37.216309 0.000000 m /five glyphshow
grestore
gsave
/o {
gsave
newpath
translate
0.8 setlinewidth
1 setlinejoin
0 setlinecap
0 0 m
-3.5 0 l

gsave
0.000 setgray
fill
grestore
stroke
grestore
} bind def
81 695.044 o
grestore
gsave
28.531250 690.106960 translate
0.000000 rotate
0.000000 0.000000 m /one glyphshow
8.270996 0.000000 m /five glyphshow
16.541992 0.000000 m /four glyphshow
24.812988 0.000000 m /eight glyphshow
33.083984 0.000000 m /period glyphshow
37.216309 0.000000 m /zero glyphshow
grestore
gsave
/o {
gsave
newpath
translate
0.8 setlinewidth
1 setlinejoin
0 setlinecap
0 0 m
-3.5 0 l

gsave
0.000 setgray
fill
grestore
stroke
grestore
} bind def
81 729.923 o
grestore
gsave
28.531250 724.985654 translate
0.000000 rotate
0.000000 0.000000 m /one glyphshow
8.270996 0.000000 m /five glyphshow
16.541992 0.000000 m /four glyphshow
24.812988 0.000000 m /eight glyphshow
33.083984 0.000000 m /period glyphshow
37.216309 0.000000 m /five glyphshow
grestore
gsave
/o {
gsave
newpath
translate
0.8 setlinewidth
1 setlinejoin
0 setlinecap
0 0 m
-3.5 0 l

gsave
0.000 setgray
fill
grestore
stroke
grestore
} bind def
81 764.802 o
grestore
gsave
28.531250 759.864347 translate
0.000000 rotate
0.000000 0.000000 m /one glyphshow
8.270996 0.000000 m /five glyphshow
16.541992 0.000000 m /four glyphshow
24.812988 0.000000 m /nine glyphshow
33.083984 0.000000 m /period glyphshow
37.216309 0.000000 m /zero glyphshow
grestore
/DejaVuSans findfont
15.000 scalefont
setfont
gsave
21.406250 664.794073 translate
90.000000 rotate
0.000000 0.000000 m /C glyphshow
10.473633 0.000000 m /u glyphshow
19.980469 0.000000 m /r glyphshow
26.147461 0.000000 m /r glyphshow
32.314453 0.000000 m /e glyphshow
41.542969 0.000000 m /n glyphshow
51.049805 0.000000 m /t glyphshow
56.931152 0.000000 m /space glyphshow
61.699219 0.000000 m /bracketleft glyphshow
67.551270 0.000000 m /n glyphshow
77.058105 0.000000 m /A glyphshow
87.319336 0.000000 m /bracketright glyphshow
grestore
3.000 setlinewidth
2 setlinecap
1.000 0.498 0.055 setrgbcolor
gsave
502.2 140.6 81 641.1 clipbox
103.827273 775.305284 m
116.727907 775.305975 l
119.011205 775.305929 l
119.239535 759.969875 l
119.810359 722.404678 l
120.381184 696.681554 l
120.952008 679.164973 l
121.522833 667.334226 l
122.093658 659.442715 l
122.664482 654.279935 l
123.235307 651.006789 l
123.806131 649.041573 l
124.262791 648.135591 l
124.71945 647.658623 l
125.17611 647.500627 l
125.63277 647.579411 l
126.203594 647.91888 l
127.002748 648.696862 l
128.144397 650.162321 l
130.199366 653.232567 l
138.076744 665.242328 l
142.64334 671.710173 l
147.209937 677.798829 l
151.890698 683.668837 l
156.571459 689.185735 l
161.366385 694.493219 l
166.161311 699.473825 l
171.070402 704.255361 l
176.093658 708.836334 l
181.231078 713.216234 l
186.368499 717.307671 l
191.620085 721.211635 l
197.1 725.005562 l
202.69408 728.604314 l
208.402326 732.011326 l
214.224736 735.230631 l
220.275476 738.322865 l
226.554545 741.279828 l
233.061945 744.095148 l
239.797674 746.764205 l
246.761734 749.284031 l
254.068288 751.689027 l
261.717336 753.968996 l
269.708879 756.116316 l
278.157082 758.151839 l
287.061945 760.064122 l
296.423467 761.845074 l
306.355814 763.507666 l
316.97315 765.058494 l
328.389641 766.499371 l
340.71945 767.828821 l
354.076744 769.043535 l
368.804017 770.15538 l
385.015433 771.152407 l
403.167653 772.041553 l
423.717336 772.820623 l
447.463636 773.49224 l
475.434038 774.05436 l
509.569345 774.509883 l
553.294503 774.859783 l
560.372727 774.899663 l
560.372727 774.899663 l
stroke
grestore
0.800 setlinewidth
0 setlinejoin
[] 0 setdash
0.000 setgray
gsave
81 641.110345 m
81 781.696552 l
stroke
grestore
gsave
583.2 641.110345 m
583.2 781.696552 l
stroke
grestore
gsave
81 641.110345 m
583.2 641.110345 l
stroke
grestore
gsave
81 781.696552 m
583.2 781.696552 l
stroke
grestore
1.000 setlinewidth
0 setlinecap
0.800 setgray
gsave
467.746875 648.610345 m
572.7 648.610345 l
574.7 648.610345 575.7 649.610345 575.7 651.610345 c
575.7 672.12597 l
575.7 674.12597 574.7 675.12597 572.7 675.12597 c
467.746875 675.12597 l
465.746875 675.12597 464.746875 674.12597 464.746875 672.12597 c
464.746875 651.610345 l
464.746875 649.610345 465.746875 648.610345 467.746875 648.610345 c
cl
gsave
1.000 setgray
fill
grestore
stroke
grestore
3.000 setlinewidth
1 setlinejoin
2 setlinecap
[] 0 setdash
1.000 0.498 0.055 setrgbcolor
gsave
470.746875 662.985345 m
500.746875 662.985345 l
stroke
grestore
0.000 setgray
gsave
512.746875 657.735345 translate
0.000000 rotate
0.000000 0.000000 m /C glyphshow
10.473633 0.000000 m /u glyphshow
19.980469 0.000000 m /r glyphshow
26.147461 0.000000 m /r glyphshow
32.314453 0.000000 m /e glyphshow
41.542969 0.000000 m /n glyphshow
51.049805 0.000000 m /t glyphshow
grestore
gsave
81 472.406897 m
583.2 472.406897 l
583.2 612.993103 l
81 612.993103 l
cl
1.000 setgray
fill
grestore
0.800 setlinewidth
0 setlinecap
gsave
/o {
gsave
newpath
translate
0.8 setlinewidth
1 setlinejoin
0 setlinecap
0 0 m
0 -3.5 l

gsave
0.000 setgray
fill
grestore
stroke
grestore
} bind def
119.048 472.407 o
grestore
gsave
/o {
gsave
newpath
translate
0.8 setlinewidth
1 setlinejoin
0 setlinecap
0 0 m
0 -3.5 l

gsave
0.000 setgray
fill
grestore
stroke
grestore
} bind def
195.15 472.407 o
grestore
gsave
/o {
gsave
newpath
translate
0.8 setlinewidth
1 setlinejoin
0 setlinecap
0 0 m
0 -3.5 l

gsave
0.000 setgray
fill
grestore
stroke
grestore
} bind def
271.252 472.407 o
grestore
gsave
/o {
gsave
newpath
translate
0.8 setlinewidth
1 setlinejoin
0 setlinecap
0 0 m
0 -3.5 l

gsave
0.000 setgray
fill
grestore
stroke
grestore
} bind def
347.355 472.407 o
grestore
gsave
/o {
gsave
newpath
translate
0.8 setlinewidth
1 setlinejoin
0 setlinecap
0 0 m
0 -3.5 l

gsave
0.000 setgray
fill
grestore
stroke
grestore
} bind def
423.457 472.407 o
grestore
gsave
/o {
gsave
newpath
translate
0.8 setlinewidth
1 setlinejoin
0 setlinecap
0 0 m
0 -3.5 l

gsave
0.000 setgray
fill
grestore
stroke
grestore
} bind def
499.559 472.407 o
grestore
gsave
/o {
gsave
newpath
translate
0.8 setlinewidth
1 setlinejoin
0 setlinecap
0 0 m
0 -3.5 l

gsave
0.000 setgray
fill
grestore
stroke
grestore
} bind def
575.662 472.407 o
grestore
gsave
/o {
gsave
newpath
translate
0.8 setlinewidth
1 setlinejoin
0 setlinecap
0 0 m
-3.5 0 l

gsave
0.000 setgray
fill
grestore
stroke
grestore
} bind def
81 478.799 o
grestore
/DejaVuSans findfont
13.000 scalefont
setfont
gsave
28.531250 473.861659 translate
0.000000 rotate
0.000000 0.000000 m /zero glyphshow
8.270996 0.000000 m /period glyphshow
12.403320 0.000000 m /five glyphshow
20.674316 0.000000 m /zero glyphshow
28.945312 0.000000 m /zero glyphshow
37.216309 0.000000 m /zero glyphshow
grestore
gsave
/o {
gsave
newpath
translate
0.8 setlinewidth
1 setlinejoin
0 setlinecap
0 0 m
-3.5 0 l

gsave
0.000 setgray
fill
grestore
stroke
grestore
} bind def
81 521.974 o
grestore
gsave
28.531250 517.036048 translate
0.000000 rotate
0.000000 0.000000 m /zero glyphshow
8.270996 0.000000 m /period glyphshow
12.403320 0.000000 m /five glyphshow
20.674316 0.000000 m /zero glyphshow
28.945312 0.000000 m /zero glyphshow
37.216309 0.000000 m /two glyphshow
grestore
gsave
/o {
gsave
newpath
translate
0.8 setlinewidth
1 setlinejoin
0 setlinecap
0 0 m
-3.5 0 l

gsave
0.000 setgray
fill
grestore
stroke
grestore
} bind def
81 565.148 o
grestore
gsave
28.531250 560.210437 translate
0.000000 rotate
0.000000 0.000000 m /zero glyphshow
8.270996 0.000000 m /period glyphshow
12.403320 0.000000 m /five glyphshow
20.674316 0.000000 m /zero glyphshow
28.945312 0.000000 m /zero glyphshow
37.216309 0.000000 m /four glyphshow
grestore
gsave
/o {
gsave
newpath
translate
0.8 setlinewidth
1 setlinejoin
0 setlinecap
0 0 m
-3.5 0 l

gsave
0.000 setgray
fill
grestore
stroke
grestore
} bind def
81 608.322 o
grestore
gsave
28.531250 603.384826 translate
0.000000 rotate
0.000000 0.000000 m /zero glyphshow
8.270996 0.000000 m /period glyphshow
12.403320 0.000000 m /five glyphshow
20.674316 0.000000 m /zero glyphshow
28.945312 0.000000 m /zero glyphshow
37.216309 0.000000 m /six glyphshow
grestore
gsave
21.406250 487.700000 translate
90.000000 rotate
/DejaVuSans findfont
15.0 scalefont
setfont
0.000000 0.609375 moveto
/R glyphshow

10.422363 0.609375 moveto
/e glyphshow

19.650879 0.609375 moveto
/s glyphshow

27.465820 0.609375 moveto
/i glyphshow

31.633301 0.609375 moveto
/s glyphshow

39.448242 0.609375 moveto
/t glyphshow

45.329590 0.609375 moveto
/a glyphshow

54.521484 0.609375 moveto
/n glyphshow

64.028320 0.609375 moveto
/c glyphshow

72.275391 0.609375 moveto
/e glyphshow

81.503906 0.609375 moveto
/space glyphshow

86.271973 0.609375 moveto
/bracketleft glyphshow

92.124023 0.609375 moveto
/Omega glyphshow

103.586426 0.609375 moveto
/bracketright glyphshow


grestore
3.000 setlinewidth
2 setlinecap
0.173 0.627 0.173 setrgbcolor
gsave
502.2 140.6 81 472.4 clipbox
103.827273 478.797179 m
116.613742 478.798466 l
119.011205 478.798514 l
119.3537 502.907785 l
119.924524 537.694329 l
120.495349 561.50539 l
121.066173 577.703198 l
121.636998 588.622843 l
122.207822 595.884175 l
122.778647 600.61075 l
123.349471 603.581811 l
123.920296 605.337775 l
124.376956 606.123696 l
124.833615 606.511165 l
125.290275 606.602418 l
125.746934 606.473956 l
126.317759 606.089824 l
127.116913 605.271504 l
128.372727 603.612599 l
130.77019 599.97381 l
137.27759 590.014156 l
141.844186 583.472755 l
146.410782 577.315175 l
151.091543 571.379356 l
155.772304 565.801194 l
160.56723 560.435308 l
165.362156 555.400377 l
170.271247 550.567125 l
175.294503 545.937006 l
180.317759 541.605608 l
185.45518 537.464673 l
190.706765 533.513772 l
196.072516 529.751672 l
201.552431 526.176392 l
207.260677 522.718657 l
213.083087 519.451625 l
219.133827 516.31373 l
225.298732 513.365623 l
231.691966 510.552803 l
238.313531 507.88059 l
245.27759 505.312437 l
252.469979 502.897925 l
260.004863 500.603935 l
267.882241 498.438818 l
276.216279 496.381781 l
285.006977 494.445068 l
294.254334 492.637548 l
304.072516 490.946451 l
314.575687 489.365503 l
325.878013 487.893338 l
337.979493 486.543706 l
351.108457 485.305046 l
365.493235 484.174171 l
381.362156 483.153267 l
399.057717 482.241803 l
419.036575 481.439927 l
441.983721 480.74663 l
468.926638 480.161247 l
501.577801 479.682429 l
542.791332 479.310574 l
560.372727 479.20429 l
560.372727 479.20429 l
stroke
grestore
0.800 setlinewidth
0 setlinejoin
[] 0 setdash
0.000 setgray
gsave
81 472.406897 m
81 612.993103 l
stroke
grestore
gsave
583.2 472.406897 m
583.2 612.993103 l
stroke
grestore
gsave
81 472.406897 m
583.2 472.406897 l
stroke
grestore
gsave
81 612.993103 m
583.2 612.993103 l
stroke
grestore
1.000 setlinewidth
0 setlinecap
0.800 setgray
gsave
443.184375 578.977478 m
572.7 578.977478 l
574.7 578.977478 575.7 579.977478 575.7 581.977478 c
575.7 602.493103 l
575.7 604.493103 574.7 605.493103 572.7 605.493103 c
443.184375 605.493103 l
441.184375 605.493103 440.184375 604.493103 440.184375 602.493103 c
440.184375 581.977478 l
440.184375 579.977478 441.184375 578.977478 443.184375 578.977478 c
cl
gsave
1.000 setgray
fill
grestore
stroke
grestore
3.000 setlinewidth
1 setlinejoin
2 setlinecap
[] 0 setdash
0.173 0.627 0.173 setrgbcolor
gsave
446.184375 593.352478 m
476.184375 593.352478 l
stroke
grestore
0.000 setgray
/DejaVuSans findfont
15.000 scalefont
setfont
gsave
488.184375 588.102478 translate
0.000000 rotate
0.000000 0.000000 m /R glyphshow
10.422363 0.000000 m /e glyphshow
19.650879 0.000000 m /s glyphshow
27.465820 0.000000 m /i glyphshow
31.633301 0.000000 m /s glyphshow
39.448242 0.000000 m /t glyphshow
45.329590 0.000000 m /a glyphshow
54.521484 0.000000 m /n glyphshow
64.028320 0.000000 m /c glyphshow
72.275391 0.000000 m /e glyphshow
grestore
gsave
81 303.703448 m
583.2 303.703448 l
583.2 444.289655 l
81 444.289655 l
cl
1.000 setgray
fill
grestore
0.800 setlinewidth
0 setlinecap
gsave
/o {
gsave
newpath
translate
0.8 setlinewidth
1 setlinejoin
0 setlinecap
0 0 m
0 -3.5 l

gsave
0.000 setgray
fill
grestore
stroke
grestore
} bind def
119.048 303.703 o
grestore
gsave
114.274300 285.312823 translate
0.000000 rotate
0.000000 0.000000 m /zero glyphshow
grestore
gsave
/o {
gsave
newpath
translate
0.8 setlinewidth
1 setlinejoin
0 setlinecap
0 0 m
0 -3.5 l

gsave
0.000 setgray
fill
grestore
stroke
grestore
} bind def
195.15 303.703 o
grestore
gsave
185.603188 285.312823 translate
0.000000 rotate
0.000000 0.000000 m /one glyphshow
9.543457 0.000000 m /zero glyphshow
grestore
gsave
/o {
gsave
newpath
translate
0.8 setlinewidth
1 setlinejoin
0 setlinecap
0 0 m
0 -3.5 l

gsave
0.000 setgray
fill
grestore
stroke
grestore
} bind def
271.252 303.703 o
grestore
gsave
261.705514 285.312823 translate
0.000000 rotate
0.000000 0.000000 m /two glyphshow
9.543457 0.000000 m /zero glyphshow
grestore
gsave
/o {
gsave
newpath
translate
0.8 setlinewidth
1 setlinejoin
0 setlinecap
0 0 m
0 -3.5 l

gsave
0.000 setgray
fill
grestore
stroke
grestore
} bind def
347.355 303.703 o
grestore
gsave
337.807840 285.312823 translate
0.000000 rotate
0.000000 0.000000 m /three glyphshow
9.543457 0.000000 m /zero glyphshow
grestore
gsave
/o {
gsave
newpath
translate
0.8 setlinewidth
1 setlinejoin
0 setlinecap
0 0 m
0 -3.5 l

gsave
0.000 setgray
fill
grestore
stroke
grestore
} bind def
423.457 303.703 o
grestore
gsave
413.910165 285.312823 translate
0.000000 rotate
0.000000 0.000000 m /four glyphshow
9.543457 0.000000 m /zero glyphshow
grestore
gsave
/o {
gsave
newpath
translate
0.8 setlinewidth
1 setlinejoin
0 setlinecap
0 0 m
0 -3.5 l

gsave
0.000 setgray
fill
grestore
stroke
grestore
} bind def
499.559 303.703 o
grestore
gsave
490.012491 285.312823 translate
0.000000 rotate
0.000000 0.000000 m /five glyphshow
9.543457 0.000000 m /zero glyphshow
grestore
gsave
/o {
gsave
newpath
translate
0.8 setlinewidth
1 setlinejoin
0 setlinecap
0 0 m
0 -3.5 l

gsave
0.000 setgray
fill
grestore
stroke
grestore
} bind def
575.662 303.703 o
grestore
gsave
566.114816 285.312823 translate
0.000000 rotate
0.000000 0.000000 m /six glyphshow
9.543457 0.000000 m /zero glyphshow
grestore
gsave
294.060938 266.797198 translate
0.000000 rotate
0.000000 0.000000 m /T glyphshow
9.162598 0.000000 m /i glyphshow
13.330078 0.000000 m /m glyphshow
27.941895 0.000000 m /e glyphshow
37.170410 0.000000 m /space glyphshow
41.938477 0.000000 m /bracketleft glyphshow
47.790527 0.000000 m /m glyphshow
62.402344 0.000000 m /s glyphshow
70.217285 0.000000 m /bracketright glyphshow
grestore
gsave
/o {
gsave
newpath
translate
0.8 setlinewidth
1 setlinejoin
0 setlinecap
0 0 m
-3.5 0 l

gsave
0.000 setgray
fill
grestore
stroke
grestore
} bind def
81 308.777 o
grestore
/DejaVuSans findfont
13.000 scalefont
setfont
gsave
28.531250 303.839249 translate
0.000000 rotate
0.000000 0.000000 m /one glyphshow
8.270996 0.000000 m /period glyphshow
12.403320 0.000000 m /one glyphshow
20.674316 0.000000 m /nine glyphshow
28.945312 0.000000 m /eight glyphshow
37.216309 0.000000 m /five glyphshow
grestore
gsave
/o {
gsave
newpath
translate
0.8 setlinewidth
1 setlinejoin
0 setlinecap
0 0 m
-3.5 0 l

gsave
0.000 setgray
fill
grestore
stroke
grestore
} bind def
81 353.806 o
grestore
gsave
28.531250 348.868724 translate
0.000000 rotate
0.000000 0.000000 m /one glyphshow
8.270996 0.000000 m /period glyphshow
12.403320 0.000000 m /one glyphshow
20.674316 0.000000 m /nine glyphshow
28.945312 0.000000 m /nine glyphshow
37.216309 0.000000 m /zero glyphshow
grestore
gsave
/o {
gsave
newpath
translate
0.8 setlinewidth
1 setlinejoin
0 setlinecap
0 0 m
-3.5 0 l

gsave
0.000 setgray
fill
grestore
stroke
grestore
} bind def
81 398.836 o
grestore
gsave
28.531250 393.898200 translate
0.000000 rotate
0.000000 0.000000 m /one glyphshow
8.270996 0.000000 m /period glyphshow
12.403320 0.000000 m /one glyphshow
20.674316 0.000000 m /nine glyphshow
28.945312 0.000000 m /nine glyphshow
37.216309 0.000000 m /five glyphshow
grestore
gsave
/o {
gsave
newpath
translate
0.8 setlinewidth
1 setlinejoin
0 setlinecap
0 0 m
-3.5 0 l

gsave
0.000 setgray
fill
grestore
stroke
grestore
} bind def
81 443.865 o
grestore
gsave
28.531250 438.927675 translate
0.000000 rotate
0.000000 0.000000 m /one glyphshow
8.270996 0.000000 m /period glyphshow
12.403320 0.000000 m /two glyphshow
20.674316 0.000000 m /zero glyphshow
28.945312 0.000000 m /zero glyphshow
37.216309 0.000000 m /zero glyphshow
grestore
/DejaVuSans findfont
15.000 scalefont
setfont
gsave
21.406250 330.637177 translate
90.000000 rotate
0.000000 0.000000 m /P glyphshow
9.045410 0.000000 m /o glyphshow
18.222656 0.000000 m /w glyphshow
30.490723 0.000000 m /e glyphshow
39.719238 0.000000 m /r glyphshow
45.886230 0.000000 m /space glyphshow
50.654297 0.000000 m /bracketleft glyphshow
56.506348 0.000000 m /p glyphshow
66.027832 0.000000 m /W glyphshow
80.859375 0.000000 m /bracketright glyphshow
grestore
3.000 setlinewidth
2 setlinecap
0.839 0.153 0.157 setrgbcolor
gsave
502.2 140.6 81 303.7 clipbox
103.827273 437.896404 m
108.165539 437.899266 l
119.011205 437.899033 l
119.239535 422.683151 l
119.810359 385.08016 l
120.381184 359.330874 l
120.952008 341.796175 l
121.522833 329.952879 l
122.093658 322.052677 l
122.664482 316.883877 l
123.235307 313.606565 l
123.806131 311.638466 l
124.262791 310.730834 l
124.71945 310.252638 l
125.17611 310.09373 l
125.63277 310.171838 l
126.203594 310.510704 l
127.002748 311.288148 l
128.144397 312.753208 l
130.199366 315.823226 l
138.076744 327.833132 l
142.64334 334.301112 l
147.209937 340.389895 l
151.890698 346.260026 l
156.571459 351.777038 l
161.366385 357.084633 l
166.161311 362.065343 l
171.070402 366.846978 l
176.093658 371.428048 l
181.231078 375.808039 l
186.368499 379.899561 l
191.620085 383.803607 l
197.1 387.597614 l
202.69408 391.196441 l
208.402326 394.603524 l
214.224736 397.822896 l
220.275476 400.915194 l
226.554545 403.872219 l
233.061945 406.687598 l
239.797674 409.356711 l
246.761734 411.87659 l
254.068288 414.281636 l
261.717336 416.561653 l
269.708879 418.709018 l
278.157082 420.744583 l
287.061945 422.656906 l
296.423467 424.437895 l
306.355814 426.100522 l
316.97315 427.651383 l
328.389641 429.09229 l
340.71945 430.421768 l
354.076744 431.636508 l
368.804017 432.748376 l
385.015433 433.745424 l
403.167653 434.634588 l
423.717336 435.413674 l
447.463636 436.085305 l
475.434038 436.647437 l
509.569345 437.102969 l
553.294503 437.452877 l
560.372727 437.492758 l
560.372727 437.492758 l
stroke
grestore
0.800 setlinewidth
0 setlinejoin
[] 0 setdash
0.000 setgray
gsave
81 303.703448 m
81 444.289655 l
stroke
grestore
gsave
583.2 303.703448 m
583.2 444.289655 l
stroke
grestore
gsave
81 303.703448 m
583.2 303.703448 l
stroke
grestore
gsave
81 444.289655 m
583.2 444.289655 l
stroke
grestore
1.000 setlinewidth
0 setlinecap
0.800 setgray
gsave
478.809375 311.203448 m
572.7 311.203448 l
574.7 311.203448 575.7 312.203448 575.7 314.203448 c
575.7 334.719073 l
575.7 336.719073 574.7 337.719073 572.7 337.719073 c
478.809375 337.719073 l
476.809375 337.719073 475.809375 336.719073 475.809375 334.719073 c
475.809375 314.203448 l
475.809375 312.203448 476.809375 311.203448 478.809375 311.203448 c
cl
gsave
1.000 setgray
fill
grestore
stroke
grestore
3.000 setlinewidth
1 setlinejoin
2 setlinecap
[] 0 setdash
0.839 0.153 0.157 setrgbcolor
gsave
481.809375 325.578448 m
511.809375 325.578448 l
stroke
grestore
0.000 setgray
gsave
523.809375 320.328448 translate
0.000000 rotate
0.000000 0.000000 m /P glyphshow
9.045410 0.000000 m /o glyphshow
18.222656 0.000000 m /w glyphshow
30.490723 0.000000 m /e glyphshow
39.719238 0.000000 m /r glyphshow
grestore

end
showpage
