Met constraints with G = NA V = 400.0e-9 L = NA A = NA and resolution 92.73309943524369 and tau = 0.3242898746589451
Met constraints with G = NA V = 100.0e-9 L = NA A = NA and resolution 97.44238129638768 and tau = 0.32112222004757496
Met constraints with G = NA V = 500.0e-10 L = NA A = NA and resolution 103.3080547397302 and tau = 0.3221940596210971
Met constraints with G = NA V = 200.0e-9 L = NA A = NA and resolution 94.19438383695409 and tau = 0.3217186378504647
Met constraints with G = NA V = 800.0e-9 L = NA A = NA and resolution 92.59041172085789 and tau = 0.3301148657504594
Met constraints with G = NA V = 600.0e-9 L = NA A = NA and resolution 92.50138673099339 and tau = 0.32716075257107996
Met constraints with G = NA V = 1000.0e-9 L = NA A = NA and resolution 92.80913529220587 and tau = 0.3330981172514224
Met constraints with G = NA V = 2000.0e-9 L = NA A = NA and resolution 94.47623044209566 and tau = 0.3481618397557235
