DID NOT MEET TIME CONSTRAINTS with G = 1.65e-8 V = 6.0e-5 L = 0.0002 A = 1.2e-10
Met constraints with G = 1.7e-8 V = 6.0e-5 L = 0.0002 A = 1.2e-10 and resolution 540.494793615 and tau = 0.0985353811321
DID NOT MEET TIME CONSTRAINTS with G = 1.6e-8 V = 6.0e-5 L = 0.0002 A = 1.2e-10
Met constraints with G = 1.75e-8 V = 6.0e-5 L = 0.0002 A = 1.2e-10 and resolution 544.97866173 and tau = 0.0957972539303
Met constraints with G = 1.8e-8 V = 6.0e-5 L = 0.0002 A = 1.2e-10 and resolution 549.379508956 and tau = 0.0932112522894
Met constraints with G = 1.9e-8 V = 6.0e-5 L = 0.0002 A = 1.2e-10 and resolution 557.947716894 and tau = 0.088447253241
Met constraints with G = 1.85e-8 V = 6.0e-5 L = 0.0002 A = 1.2e-10 and resolution 553.701303106 and tau = 0.0907647079024
