Met constraints with G = 3.0e-8 V = 6.0e-6 L = 0.0002 A = 1.2e-10 and resolution 331.425954198 and tau = 0.00588120487049
Met constraints with G = 3.0e-8 V = 8.0e-6 L = 0.0002 A = 1.2e-10 and resolution 331.414747749 and tau = 0.00584301050147
Met constraints with G = 3.0e-8 V = 4.0e-6 L = 0.0002 A = 1.2e-10 and resolution 332.227291511 and tau = 0.00598610860017
Met constraints with G = 1.0e-8 V = 6.0e-6 L = 0.0002 A = 1.2e-10 and resolution 234.632585388 and tau = 0.0168872671551
Met constraints with G = 1.0e-8 V = 8.0e-6 L = 0.0002 A = 1.2e-10 and resolution 234.805150877 and tau = 0.0169028049873
Met constraints with G = 3.0e-8 V = 2.0e-6 L = 0.0002 A = 1.2e-10 and resolution 336.081692428 and tau = 0.0063507000502
Met constraints with G = 3.0e-8 V = 9.0e-7 L = 0.0002 A = 1.2e-10 and resolution 346.163495722 and tau = 0.0072676506093
Met constraints with G = 1.0e-8 V = 4.0e-6 L = 0.0002 A = 1.2e-10 and resolution 234.845494701 and tau = 0.0169368458661
Met constraints with G = 6.0e-9 V = 8.0e-6 L = 0.0002 A = 1.2e-10 and resolution 202.420665161 and tau = 0.0279713158668
Met constraints with G = 1.0e-8 V = 9.0e-7 L = 0.0002 A = 1.2e-10 and resolution 241.386133406 and tau = 0.0181113269508
Met constraints with G = 1.0e-8 V = 2.0e-6 L = 0.0002 A = 1.2e-10 and resolution 236.55057906 and tau = 0.0172427848053
Met constraints with G = 6.0e-9 V = 2.0e-6 L = 0.0002 A = 1.2e-10 and resolution 203.611574084 and tau = 0.0281475168575
Met constraints with G = 6.0e-9 V = 9.0e-7 L = 0.0002 A = 1.2e-10 and resolution 207.311797787 and tau = 0.0289798009664
Met constraints with G = 6.0e-9 V = 4.0e-6 L = 0.0002 A = 1.2e-10 and resolution 202.348166802 and tau = 0.0278969894374
Met constraints with G = 6.0e-9 V = 6.0e-6 L = 0.0002 A = 1.2e-10 and resolution 202.235775678 and tau = 0.0279017241
Met constraints with G = 3.0e-9 V = 8.0e-6 L = 0.0002 A = 1.2e-10 and resolution 166.763096433 and tau = 0.0556495438397
Met constraints with G = 3.0e-9 V = 2.0e-6 L = 0.0002 A = 1.2e-10 and resolution 167.523697164 and tau = 0.0554187819762
Met constraints with G = 3.0e-9 V = 6.0e-6 L = 0.0002 A = 1.2e-10 and resolution 166.585493988 and tau = 0.0554449580103
Met constraints with G = 3.0e-9 V = 4.0e-6 L = 0.0002 A = 1.2e-10 and resolution 166.628169766 and tau = 0.0553048241032
Met constraints with G = 3.0e-9 V = 9.0e-7 L = 0.0002 A = 1.2e-10 and resolution 170.240826271 and tau = 0.0561702723401
Met constraints with G = 1.0e-9 V = 8.0e-6 L = 0.0002 A = 1.2e-10 and resolution 124.007090251 and tau = 0.166555762906
Met constraints with G = 1.0e-9 V = 6.0e-6 L = 0.0002 A = 1.2e-10 and resolution 123.859483186 and tau = 0.16580926103
Met constraints with G = 1.0e-9 V = 4.0e-6 L = 0.0002 A = 1.2e-10 and resolution 123.860220896 and tau = 0.165107986894
Met constraints with G = 8.0e-10 V = 6.0e-6 L = 0.0002 A = 1.2e-10 and resolution 116.745499219 and tau = 0.207260307527
Met constraints with G = 8.0e-10 V = 8.0e-6 L = 0.0002 A = 1.2e-10 and resolution 116.886445451 and tau = 0.208199254224
Met constraints with G = 1.0e-9 V = 2.0e-6 L = 0.0002 A = 1.2e-10 and resolution 124.435175277 and tau = 0.164690528852
Met constraints with G = 1.0e-9 V = 9.0e-7 L = 0.0002 A = 1.2e-10 and resolution 126.247022826 and tau = 0.165135070082
Met constraints with G = 8.0e-10 V = 2.0e-6 L = 0.0002 A = 1.2e-10 and resolution 117.27337586 and tau = 0.205718852896
Met constraints with G = 8.0e-10 V = 4.0e-6 L = 0.0002 A = 1.2e-10 and resolution 116.742485762 and tau = 0.206381477434
Met constraints with G = 5.0e-10 V = 8.0e-6 L = 0.0002 A = 1.2e-10 and resolution 103.286417834 and tau = 0.333337732064
Met constraints with G = 8.0e-10 V = 9.0e-7 L = 0.0002 A = 1.2e-10 and resolution 118.955743408 and tau = 0.206058960485
Met constraints with G = 5.0e-10 V = 6.0e-6 L = 0.0002 A = 1.2e-10 and resolution 103.159200597 and tau = 0.331783444991
Met constraints with G = 5.0e-10 V = 4.0e-6 L = 0.0002 A = 1.2e-10 and resolution 103.150928937 and tau = 0.33031497512
Met constraints with G = 5.0e-10 V = 9.0e-7 L = 0.0002 A = 1.2e-10 and resolution 105.050474294 and tau = 0.328999950358
Met constraints with G = 5.0e-10 V = 2.0e-6 L = 0.0002 A = 1.2e-10 and resolution 103.603067243 and tau = 0.329114389197
