Met constraints with G = 1.2e-09 V = 3e-06 L = 2.0e-3 A = 1.2e-9 and resolution 40.8243290502 and tau = 0.0189451400903
Met constraints with G = 1.2e-09 V = 3e-06 L = 2.0e-3 A = 1.2e-10 and resolution 40.8243290502 and tau = 0.0189451400903
Met constraints with G = 1.2e-09 V = 3e-06 L = 2.0e-4 A = 1.2e-9 and resolution 40.8243290502 and tau = 0.0189451400903
Met constraints with G = 1.2e-09 V = 3e-06 L = 2.0e-3 A = 1.2e-11 and resolution 40.8243290502 and tau = 0.0189451400903
Met constraints with G = 1.2e-09 V = 3e-06 L = 2.0e-4 A = 1.2e-10 and resolution 40.8243290502 and tau = 0.0189451400903
Met constraints with G = 1.2e-09 V = 3e-06 L = 2.0e-4 A = 1.2e-11 and resolution 40.8243290502 and tau = 0.0189451400903
Met constraints with G = 1.2e-09 V = 3e-06 L = 2.0e-5 A = 1.2e-11 and resolution 40.8243290502 and tau = 0.0189451400903
Met constraints with G = 1.2e-09 V = 3e-06 L = 2.0e-5 A = 1.2e-10 and resolution 40.8243290502 and tau = 0.0189451400903
Met constraints with G = 1.2e-09 V = 3e-06 L = 2.0e-5 A = 1.2e-9 and resolution 40.8243290502 and tau = 0.0189451400903
