Met constraints with G = 6.0e-11 V = 2.0e-5 L = NA A = NA and resolution 2.2967255130940165 and tau = 0.0005743843568636077
Met constraints with G = 6.0e-11 V = 7.5e-5 L = NA A = NA and resolution 2.456927354012591 and tau = 0.0007032260258754805
Met constraints with G = 6.0e-11 V = 5.0e-5 L = NA A = NA and resolution 2.2764541833882443 and tau = 0.0005917276767404659
Met constraints with G = 6.0e-11 V = 3.5e-5 L = NA A = NA and resolution 2.2238153201494484 and tau = 0.0005500661754402978
