Met constraints with G = 9.0e-10 V = 3.0e-5 L = 0.0002 A = 1.2e-10 and resolution 316.350050437 and tau = 0.0596374608238
Met constraints with G = 7.0e-10 V = 3.0e-5 L = 0.0002 A = 1.2e-10 and resolution 295.834905269 and tau = 0.060959297495
Met constraints with G = 7.0e-10 V = 3.0e-6 L = 0.0002 A = 1.2e-10 and resolution 303.568850341 and tau = 0.0609548087095
DID NOT MEET LENGTH CONSTRAINTS with G = 1.0e-10 V = 3.0e-5 L = 0.0002 A = 1.2e-10
DID NOT MEET LENGTH CONSTRAINTS with G = 1.0e-10 V = 1.0e-5 L = 0.0002 A = 1.2e-10
DID NOT MEET LENGTH CONSTRAINTS with G = 1.0e-10 V = 5.0e-6 L = 0.0002 A = 1.2e-10
DID NOT MEET LENGTH CONSTRAINTS with G = 1.0e-10 V = 7.0e-6 L = 0.0002 A = 1.2e-10
DID NOT MEET LENGTH CONSTRAINTS with G = 1.0e-10 V = 9.0e-6 L = 0.0002 A = 1.2e-10
DID NOT MEET LENGTH CONSTRAINTS with G = 1.0e-10 V = 1.0e-6 L = 0.0002 A = 1.2e-10
DID NOT MEET LENGTH CONSTRAINTS with G = 1.0e-10 V = 3.0e-6 L = 0.0002 A = 1.2e-10
DID NOT MEET LENGTH CONSTRAINTS with G = 1.0e-10 V = 7.0e-7 L = 0.0002 A = 1.2e-10
DID NOT MEET LENGTH CONSTRAINTS with G = 1.0e-10 V = 9.0e-7 L = 0.0002 A = 1.2e-10
